ply
format ascii 1.0
comment Created by Blender 2.79 (sub 0) - www.blender.org, source file: 'dummy.blend'
element vertex 518
property float x
property float y
property float z
property float nx
property float ny
property float nz
property float s
property float t
element face 1008
property list uchar uint vertex_indices
end_header
0.057701 0.035023 0.002187 0.480514 0.849879 -0.216254 0.922027 0.905926
0.058565 0.024977 -0.012584 0.584887 0.507859 -0.632374 0.938612 0.908152
0.052234 0.035023 -0.005846 0.321146 0.850520 -0.416425 0.910203 0.901986
0.044765 0.035023 -0.008786 0.000000 0.856868 -0.515519 0.888472 0.900536
0.030966 0.024977 -0.012584 -0.584887 0.507859 -0.632374 0.850763 0.908112
0.037297 0.035023 -0.005846 -0.321146 0.850520 -0.416425 0.862659 0.901964
0.031830 0.035023 0.002187 -0.480514 0.849879 -0.216254 0.839679 0.905889
0.020864 0.024977 0.005106 -0.840480 0.464156 -0.279458 0.806327 0.916756
0.029829 0.035023 0.013162 -0.478256 0.877590 -0.032594 0.825690 0.911258
0.017166 0.024977 0.029267 -0.816950 0.576434 -0.015656 0.777783 0.928578
0.031830 0.035023 0.024137 -0.356456 0.927793 0.110080 0.824441 0.916634
0.020864 0.024977 0.053430 -0.616047 0.770104 0.165532 0.772778 0.940411
0.037297 0.035023 0.032171 -0.178716 0.966186 0.185736 0.836266 0.920574
0.030966 0.024977 0.071118 -0.300882 0.918058 0.258034 0.792653 0.949084
0.044765 0.035023 0.035111 0.000000 0.978607 0.205603 0.857996 0.922024
0.058565 0.024977 0.071118 0.300882 0.918058 0.258034 0.880502 0.949123
0.052234 0.035023 0.032171 0.178716 0.966186 0.185736 0.883809 0.920596
0.068667 0.024977 0.053430 0.616047 0.770104 0.165532 0.924937 0.940479
0.057701 0.035023 0.024137 0.356456 0.927793 0.110080 0.906789 0.916671
0.072364 0.024977 0.029267 0.816950 0.576434 -0.015656 0.953481 0.928657
0.059702 0.035023 0.013162 0.478256 0.877590 -0.032594 0.920778 0.911301
0.068667 0.024977 0.005106 0.840480 0.464156 -0.279458 0.958486 0.916824
0.061311 0.011269 -0.017133 0.701346 0.309030 -0.642323 0.955394 0.918829
0.044765 0.024977 -0.019058 0.000000 0.576312 -0.817225 0.899181 0.904962
0.028220 0.011269 -0.017133 -0.701346 0.309030 -0.642323 0.850063 0.918781
0.016107 0.011270 0.010346 -0.942625 0.231208 -0.240761 0.792432 0.932214
0.011674 0.011270 0.047882 -0.936491 0.349040 0.033540 0.752261 0.950582
0.016107 0.011269 0.085417 -0.813105 0.525407 0.250526 0.740314 0.968962
0.028220 0.011271 0.112898 -0.579058 0.627430 0.520554 0.759790 0.982430
0.044765 0.024977 0.077593 0.000000 0.961486 0.274789 0.832083 0.952274
0.061311 0.011271 0.112898 0.579058 0.627430 0.520554 0.865121 0.982478
0.073423 0.011269 0.085417 0.813105 0.525407 0.250526 0.922753 0.969045
0.077857 0.011270 0.047882 0.936491 0.349040 0.033540 0.962924 0.950677
0.073423 0.011270 0.010346 0.942625 0.231208 -0.240761 0.974871 0.932297
0.075785 -0.000179 0.008458 0.772027 -0.596423 -0.219550 0.987777 0.942150
0.062674 -0.000178 -0.020402 0.612354 -0.548418 -0.569384 0.966081 0.928004
0.044765 0.011270 -0.027190 0.000000 0.405133 -0.914243 0.909710 0.913881
0.026856 -0.000178 -0.020402 -0.612354 -0.548418 -0.569384 0.852072 0.927952
0.013746 -0.000179 0.008458 -0.772027 -0.596423 -0.219550 0.790306 0.942061
0.008947 -0.000178 0.047882 -0.794671 -0.606983 0.000000 0.747661 0.961351
0.013746 -0.000178 0.087307 -0.772088 -0.596332 0.219581 0.735565 0.980657
0.026856 -0.000179 0.116167 -0.612323 -0.548479 0.569384 0.757260 0.994803
0.044765 0.011270 0.122953 0.000000 0.648915 0.760826 0.805475 0.987377
0.062674 -0.000179 0.116167 0.612323 -0.548479 0.569384 0.871270 0.994855
0.075785 -0.000178 0.087307 0.772088 -0.596332 0.219581 0.933035 0.980746
0.080583 -0.000178 0.047882 0.794671 -0.606983 0.000000 0.975681 0.961454
0.061311 -0.000074 -0.015206 -0.014252 -0.999847 0.009827 0.958098 0.930447
0.044765 -0.000074 -0.024964 0.000000 -0.999908 0.012818 0.912206 0.925647
0.044765 -0.000179 -0.030966 0.000000 -0.492965 -0.870022 0.916411 0.922807
0.028220 -0.000074 -0.015206 0.014252 -0.999847 0.009827 0.852767 0.930399
0.016107 -0.000074 0.011459 0.022034 -0.999725 0.004913 0.795701 0.943435
0.016107 -0.000074 0.084304 0.021912 -0.999725 -0.004883 0.745128 0.979093
0.028220 -0.000074 0.110969 0.014313 -0.999847 -0.009888 0.765170 0.992163
0.044765 -0.000074 0.120729 0.000000 -0.999908 -0.012757 0.811060 0.996964
0.044765 -0.000178 0.126731 0.000000 -0.492843 0.870083 0.806930 1.000000
0.061311 -0.000074 0.110969 -0.014313 -0.999847 -0.009888 0.870501 0.992210
0.073423 -0.000074 0.084304 -0.021912 -0.999725 -0.004883 0.927567 0.979175
0.073423 -0.000074 0.011459 -0.022034 -0.999725 0.004913 0.978140 0.943517
0.051619 0.000074 0.021751 -0.002869 -0.999969 0.001953 0.901537 0.948384
0.044765 0.000074 0.017709 0.000000 -0.999969 0.002533 0.882529 0.946395
0.037912 0.000074 0.021751 0.002869 -0.999969 0.001953 0.857907 0.948364
0.032895 0.000074 0.032794 0.004395 -0.999969 0.000977 0.834271 0.953763
0.011674 -0.000074 0.047882 0.024171 -0.999695 0.000000 0.756302 0.961257
0.031058 0.000074 0.047882 0.004791 -0.999969 0.000000 0.817951 0.961145
0.032895 0.000074 0.062969 0.004334 -0.999969 -0.000977 0.813322 0.968533
0.037912 0.000074 0.074014 0.002808 -0.999969 -0.001984 0.821624 0.973948
0.044765 0.000074 0.078055 0.000000 -0.999969 -0.002533 0.840634 0.975935
0.051619 0.000074 0.074014 -0.002808 -0.999969 -0.001984 0.865254 0.973967
0.056636 0.000074 0.062969 -0.004334 -0.999969 -0.000977 0.888891 0.968567
0.077857 -0.000074 0.047882 -0.024201 -0.999695 0.000000 0.966965 0.961352
0.058472 0.000074 0.047882 -0.004791 -0.999969 0.000000 0.905211 0.961185
0.056636 0.000074 0.032794 -0.004395 -0.999969 0.000977 0.909840 0.953797
0.044765 0.038551 0.013162 0.000000 1.000000 0.000000 0.871977 0.907960
0.044765 0.000095 0.047882 0.000000 -1.000000 0.000000 0.861574 0.961146
0.057701 0.035023 0.002187 0.480514 0.849879 -0.216254 0.922027 0.905926
0.058565 0.024977 -0.012584 0.584887 0.507859 -0.632374 0.938612 0.908152
0.052234 0.035023 -0.005846 0.321146 0.850520 -0.416425 0.910203 0.901986
0.044765 0.035023 -0.008786 0.000000 0.856868 -0.515519 0.888472 0.900536
0.030966 0.024977 -0.012584 -0.584887 0.507859 -0.632374 0.850763 0.908112
0.037297 0.035023 -0.005846 -0.321146 0.850520 -0.416425 0.862659 0.901964
0.031830 0.035023 0.002187 -0.480514 0.849879 -0.216254 0.839679 0.905889
0.020864 0.024977 0.005106 -0.840480 0.464156 -0.279458 0.806327 0.916756
0.029829 0.035023 0.013162 -0.478256 0.877590 -0.032594 0.825690 0.911258
0.017166 0.024977 0.029267 -0.816950 0.576434 -0.015656 0.777783 0.928578
0.031830 0.035023 0.024137 -0.356456 0.927793 0.110080 0.824441 0.916634
0.020864 0.024977 0.053430 -0.616047 0.770104 0.165532 0.772778 0.940411
0.037297 0.035023 0.032171 -0.178716 0.966186 0.185736 0.836266 0.920574
0.030966 0.024977 0.071118 -0.300882 0.918058 0.258034 0.792653 0.949084
0.044765 0.035023 0.035111 0.000000 0.978607 0.205603 0.857996 0.922024
0.058565 0.024977 0.071118 0.300882 0.918058 0.258034 0.880502 0.949123
0.052234 0.035023 0.032171 0.178716 0.966186 0.185736 0.883809 0.920596
0.068667 0.024977 0.053430 0.616047 0.770104 0.165532 0.924937 0.940479
0.057701 0.035023 0.024137 0.356456 0.927793 0.110080 0.906789 0.916671
0.072364 0.024977 0.029267 0.816950 0.576434 -0.015656 0.953481 0.928657
0.059702 0.035023 0.013162 0.478256 0.877590 -0.032594 0.920778 0.911301
0.068667 0.024977 0.005106 0.840480 0.464156 -0.279458 0.958486 0.916824
0.061311 0.011269 -0.017133 0.701346 0.309030 -0.642323 0.955394 0.918829
0.044765 0.024977 -0.019058 0.000000 0.576312 -0.817225 0.899181 0.904962
0.028220 0.011269 -0.017133 -0.701346 0.309030 -0.642323 0.850063 0.918781
0.016107 0.011270 0.010346 -0.942625 0.231208 -0.240761 0.792432 0.932214
0.011674 0.011270 0.047882 -0.936491 0.349040 0.033540 0.752261 0.950582
0.016107 0.011269 0.085417 -0.813105 0.525407 0.250526 0.740314 0.968962
0.028220 0.011271 0.112898 -0.579058 0.627430 0.520554 0.759790 0.982430
0.044765 0.024977 0.077593 0.000000 0.961486 0.274789 0.832083 0.952274
0.061311 0.011271 0.112898 0.579058 0.627430 0.520554 0.865121 0.982478
0.073423 0.011269 0.085417 0.813105 0.525407 0.250526 0.922753 0.969045
0.077857 0.011270 0.047882 0.936491 0.349040 0.033540 0.962924 0.950677
0.073423 0.011270 0.010346 0.942625 0.231208 -0.240761 0.974871 0.932297
0.075785 -0.000179 0.008458 0.772027 -0.596423 -0.219550 0.987777 0.942150
0.062674 -0.000178 -0.020402 0.612354 -0.548418 -0.569384 0.966081 0.928004
0.044765 0.011270 -0.027190 0.000000 0.405133 -0.914243 0.909710 0.913881
0.026856 -0.000178 -0.020402 -0.612354 -0.548418 -0.569384 0.852072 0.927952
0.013746 -0.000179 0.008458 -0.772027 -0.596423 -0.219550 0.790306 0.942061
0.008947 -0.000178 0.047882 -0.794671 -0.606983 0.000000 0.747661 0.961351
0.013746 -0.000178 0.087307 -0.772088 -0.596332 0.219581 0.735565 0.980657
0.026856 -0.000179 0.116167 -0.612323 -0.548479 0.569384 0.757260 0.994803
0.044765 0.011270 0.122953 0.000000 0.648915 0.760826 0.805475 0.987377
0.062674 -0.000179 0.116167 0.612323 -0.548479 0.569384 0.871270 0.994855
0.075785 -0.000178 0.087307 0.772088 -0.596332 0.219581 0.933035 0.980746
0.080583 -0.000178 0.047882 0.794671 -0.606983 0.000000 0.975681 0.961454
0.061311 -0.000074 -0.015206 -0.014252 -0.999847 0.009827 0.958098 0.930447
0.044765 -0.000074 -0.024964 0.000000 -0.999908 0.012818 0.912206 0.925647
0.044765 -0.000179 -0.030966 0.000000 -0.492965 -0.870022 0.916411 0.922807
0.028220 -0.000074 -0.015206 0.014252 -0.999847 0.009827 0.852767 0.930399
0.016107 -0.000074 0.011459 0.022034 -0.999725 0.004913 0.795701 0.943435
0.016107 -0.000074 0.084304 0.021912 -0.999725 -0.004883 0.745128 0.979093
0.028220 -0.000074 0.110969 0.014313 -0.999847 -0.009888 0.765170 0.992163
0.044765 -0.000074 0.120729 0.000000 -0.999908 -0.012757 0.811060 0.996964
0.044765 -0.000178 0.126731 0.000000 -0.492843 0.870083 0.806930 1.000000
0.061311 -0.000074 0.110969 -0.014313 -0.999847 -0.009888 0.870501 0.992210
0.073423 -0.000074 0.084304 -0.021912 -0.999725 -0.004883 0.927567 0.979175
0.073423 -0.000074 0.011459 -0.022034 -0.999725 0.004913 0.978140 0.943517
0.051619 0.000074 0.021751 -0.002869 -0.999969 0.001953 0.901537 0.948384
0.044765 0.000074 0.017709 0.000000 -0.999969 0.002533 0.882529 0.946395
0.037912 0.000074 0.021751 0.002869 -0.999969 0.001953 0.857907 0.948364
0.032895 0.000074 0.032794 0.004395 -0.999969 0.000977 0.834271 0.953763
0.011674 -0.000074 0.047882 0.024171 -0.999695 0.000000 0.756302 0.961257
0.031058 0.000074 0.047882 0.004791 -0.999969 0.000000 0.817951 0.961145
0.032895 0.000074 0.062969 0.004334 -0.999969 -0.000977 0.813322 0.968533
0.037912 0.000074 0.074014 0.002808 -0.999969 -0.001984 0.821624 0.973948
0.044765 0.000074 0.078055 0.000000 -0.999969 -0.002533 0.840634 0.975935
0.051619 0.000074 0.074014 -0.002808 -0.999969 -0.001984 0.865254 0.973967
0.056636 0.000074 0.062969 -0.004334 -0.999969 -0.000977 0.888891 0.968567
0.077857 -0.000074 0.047882 -0.024201 -0.999695 0.000000 0.966965 0.961352
0.058472 0.000074 0.047882 -0.004791 -0.999969 0.000000 0.905211 0.961185
0.056636 0.000074 0.032794 -0.004395 -0.999969 0.000977 0.909840 0.953797
0.044765 0.038551 0.013162 0.000000 1.000000 0.000000 0.871977 0.907960
0.044765 0.000095 0.047882 0.000000 -1.000000 0.000000 0.861574 0.961146
0.057701 0.035023 0.002187 0.480514 0.849879 -0.216254 0.922027 0.905926
0.058565 0.024977 -0.012584 0.584887 0.507859 -0.632374 0.938612 0.908152
0.052234 0.035023 -0.005846 0.321146 0.850520 -0.416425 0.910203 0.901986
0.044765 0.035023 -0.008786 0.000000 0.856868 -0.515519 0.888472 0.900536
0.030966 0.024977 -0.012584 -0.584887 0.507859 -0.632374 0.850763 0.908112
0.037297 0.035023 -0.005846 -0.321146 0.850520 -0.416425 0.862659 0.901964
0.031830 0.035023 0.002187 -0.480514 0.849879 -0.216254 0.839679 0.905889
0.020864 0.024977 0.005106 -0.840480 0.464156 -0.279458 0.806327 0.916756
0.029829 0.035023 0.013162 -0.478256 0.877590 -0.032594 0.825690 0.911258
0.017166 0.024977 0.029267 -0.816950 0.576434 -0.015656 0.777783 0.928578
0.031830 0.035023 0.024137 -0.356456 0.927793 0.110080 0.824441 0.916634
0.020864 0.024977 0.053430 -0.616047 0.770104 0.165532 0.772778 0.940411
0.037297 0.035023 0.032171 -0.178716 0.966186 0.185736 0.836266 0.920574
0.030966 0.024977 0.071118 -0.300882 0.918058 0.258034 0.792653 0.949084
0.044765 0.035023 0.035111 0.000000 0.978607 0.205603 0.857996 0.922024
0.058565 0.024977 0.071118 0.300882 0.918058 0.258034 0.880502 0.949123
0.052234 0.035023 0.032171 0.178716 0.966186 0.185736 0.883809 0.920596
0.068667 0.024977 0.053430 0.616047 0.770104 0.165532 0.924937 0.940479
0.057701 0.035023 0.024137 0.356456 0.927793 0.110080 0.906789 0.916671
0.072364 0.024977 0.029267 0.816950 0.576434 -0.015656 0.953481 0.928657
0.059702 0.035023 0.013162 0.478256 0.877590 -0.032594 0.920778 0.911301
0.068667 0.024977 0.005106 0.840480 0.464156 -0.279458 0.958486 0.916824
0.061311 0.011269 -0.017133 0.701346 0.309030 -0.642323 0.955394 0.918829
0.044765 0.024977 -0.019058 0.000000 0.576312 -0.817225 0.899181 0.904962
0.028220 0.011269 -0.017133 -0.701346 0.309030 -0.642323 0.850063 0.918781
0.016107 0.011270 0.010346 -0.942625 0.231208 -0.240761 0.792432 0.932214
0.011674 0.011270 0.047882 -0.936491 0.349040 0.033540 0.752261 0.950582
0.016107 0.011269 0.085417 -0.813105 0.525407 0.250526 0.740314 0.968962
0.028220 0.011271 0.112898 -0.579058 0.627430 0.520554 0.759790 0.982430
0.044765 0.024977 0.077593 0.000000 0.961486 0.274789 0.832083 0.952274
0.061311 0.011271 0.112898 0.579058 0.627430 0.520554 0.865121 0.982478
0.073423 0.011269 0.085417 0.813105 0.525407 0.250526 0.922753 0.969045
0.077857 0.011270 0.047882 0.936491 0.349040 0.033540 0.962924 0.950677
0.073423 0.011270 0.010346 0.942625 0.231208 -0.240761 0.974871 0.932297
0.075785 -0.000179 0.008458 0.772027 -0.596423 -0.219550 0.987777 0.942150
0.062674 -0.000178 -0.020402 0.612354 -0.548418 -0.569384 0.966081 0.928004
0.044765 0.011270 -0.027190 0.000000 0.405133 -0.914243 0.909710 0.913881
0.026856 -0.000178 -0.020402 -0.612354 -0.548418 -0.569384 0.852072 0.927952
0.013746 -0.000179 0.008458 -0.772027 -0.596423 -0.219550 0.790306 0.942061
0.008947 -0.000178 0.047882 -0.794671 -0.606983 0.000000 0.747661 0.961351
0.013746 -0.000178 0.087307 -0.772088 -0.596332 0.219581 0.735565 0.980657
0.026856 -0.000179 0.116167 -0.612323 -0.548479 0.569384 0.757260 0.994803
0.044765 0.011270 0.122953 0.000000 0.648915 0.760826 0.805475 0.987377
0.062674 -0.000179 0.116167 0.612323 -0.548479 0.569384 0.871270 0.994855
0.075785 -0.000178 0.087307 0.772088 -0.596332 0.219581 0.933035 0.980746
0.080583 -0.000178 0.047882 0.794671 -0.606983 0.000000 0.975681 0.961454
0.061311 -0.000074 -0.015206 -0.014252 -0.999847 0.009827 0.958098 0.930447
0.044765 -0.000074 -0.024964 0.000000 -0.999908 0.012818 0.912206 0.925647
0.044765 -0.000179 -0.030966 0.000000 -0.492965 -0.870022 0.916411 0.922807
0.028220 -0.000074 -0.015206 0.014252 -0.999847 0.009827 0.852767 0.930399
0.016107 -0.000074 0.011459 0.022034 -0.999725 0.004913 0.795701 0.943435
0.016107 -0.000074 0.084304 0.021912 -0.999725 -0.004883 0.745128 0.979093
0.028220 -0.000074 0.110969 0.014313 -0.999847 -0.009888 0.765170 0.992163
0.044765 -0.000074 0.120729 0.000000 -0.999908 -0.012757 0.811060 0.996964
0.044765 -0.000178 0.126731 0.000000 -0.492843 0.870083 0.806930 1.000000
0.061311 -0.000074 0.110969 -0.014313 -0.999847 -0.009888 0.870501 0.992210
0.073423 -0.000074 0.084304 -0.021912 -0.999725 -0.004883 0.927567 0.979175
0.073423 -0.000074 0.011459 -0.022034 -0.999725 0.004913 0.978140 0.943517
0.051619 0.000074 0.021751 -0.002869 -0.999969 0.001953 0.901537 0.948384
0.044765 0.000074 0.017709 0.000000 -0.999969 0.002533 0.882529 0.946395
0.037912 0.000074 0.021751 0.002869 -0.999969 0.001953 0.857907 0.948364
0.032895 0.000074 0.032794 0.004395 -0.999969 0.000977 0.834271 0.953763
0.011674 -0.000074 0.047882 0.024171 -0.999695 0.000000 0.756302 0.961257
0.031058 0.000074 0.047882 0.004791 -0.999969 0.000000 0.817951 0.961145
0.032895 0.000074 0.062969 0.004334 -0.999969 -0.000977 0.813322 0.968533
0.037912 0.000074 0.074014 0.002808 -0.999969 -0.001984 0.821624 0.973948
0.044765 0.000074 0.078055 0.000000 -0.999969 -0.002533 0.840634 0.975935
0.051619 0.000074 0.074014 -0.002808 -0.999969 -0.001984 0.865254 0.973967
0.056636 0.000074 0.062969 -0.004334 -0.999969 -0.000977 0.888891 0.968567
0.077857 -0.000074 0.047882 -0.024201 -0.999695 0.000000 0.966965 0.961352
0.058472 0.000074 0.047882 -0.004791 -0.999969 0.000000 0.905211 0.961185
0.056636 0.000074 0.032794 -0.004395 -0.999969 0.000977 0.909840 0.953797
0.044765 0.038551 0.013162 0.000000 1.000000 0.000000 0.871977 0.907960
0.044765 0.000095 0.047882 0.000000 -1.000000 0.000000 0.861574 0.961146
0.057701 0.035023 0.002187 0.480514 0.849879 -0.216254 0.922027 0.905926
0.058565 0.024977 -0.012584 0.584887 0.507859 -0.632374 0.938612 0.908152
0.052234 0.035023 -0.005846 0.321146 0.850520 -0.416425 0.910203 0.901986
0.044765 0.035023 -0.008786 0.000000 0.856868 -0.515519 0.888472 0.900536
0.030966 0.024977 -0.012584 -0.584887 0.507859 -0.632374 0.850763 0.908112
0.037297 0.035023 -0.005846 -0.321146 0.850520 -0.416425 0.862659 0.901964
0.031830 0.035023 0.002187 -0.480514 0.849879 -0.216254 0.839679 0.905889
0.020864 0.024977 0.005106 -0.840480 0.464156 -0.279458 0.806327 0.916756
0.029829 0.035023 0.013162 -0.478256 0.877590 -0.032594 0.825690 0.911258
0.017166 0.024977 0.029267 -0.816950 0.576434 -0.015656 0.777783 0.928578
0.031830 0.035023 0.024137 -0.356456 0.927793 0.110080 0.824441 0.916634
0.020864 0.024977 0.053430 -0.616047 0.770104 0.165532 0.772778 0.940411
0.037297 0.035023 0.032171 -0.178716 0.966186 0.185736 0.836266 0.920574
0.030966 0.024977 0.071118 -0.300882 0.918058 0.258034 0.792653 0.949084
0.044765 0.035023 0.035111 0.000000 0.978607 0.205603 0.857996 0.922024
0.058565 0.024977 0.071118 0.300882 0.918058 0.258034 0.880502 0.949123
0.052234 0.035023 0.032171 0.178716 0.966186 0.185736 0.883809 0.920596
0.068667 0.024977 0.053430 0.616047 0.770104 0.165532 0.924937 0.940479
0.057701 0.035023 0.024137 0.356456 0.927793 0.110080 0.906789 0.916671
0.072364 0.024977 0.029267 0.816950 0.576434 -0.015656 0.953481 0.928657
0.059702 0.035023 0.013162 0.478256 0.877590 -0.032594 0.920778 0.911301
0.068667 0.024977 0.005106 0.840480 0.464156 -0.279458 0.958486 0.916824
0.061311 0.011269 -0.017133 0.701346 0.309030 -0.642323 0.955394 0.918829
0.044765 0.024977 -0.019058 0.000000 0.576312 -0.817225 0.899181 0.904962
0.028220 0.011269 -0.017133 -0.701346 0.309030 -0.642323 0.850063 0.918781
0.016107 0.011270 0.010346 -0.942625 0.231208 -0.240761 0.792432 0.932214
0.011674 0.011270 0.047882 -0.936491 0.349040 0.033540 0.752261 0.950582
0.016107 0.011269 0.085417 -0.813105 0.525407 0.250526 0.740314 0.968962
0.028220 0.011271 0.112898 -0.579058 0.627430 0.520554 0.759790 0.982430
0.044765 0.024977 0.077593 0.000000 0.961486 0.274789 0.832083 0.952274
0.061311 0.011271 0.112898 0.579058 0.627430 0.520554 0.865121 0.982478
0.073423 0.011269 0.085417 0.813105 0.525407 0.250526 0.922753 0.969045
0.077857 0.011270 0.047882 0.936491 0.349040 0.033540 0.962924 0.950677
0.073423 0.011270 0.010346 0.942625 0.231208 -0.240761 0.974871 0.932297
0.075785 -0.000179 0.008458 0.772027 -0.596423 -0.219550 0.987777 0.942150
0.062674 -0.000178 -0.020402 0.612354 -0.548418 -0.569384 0.966081 0.928004
0.044765 0.011270 -0.027190 0.000000 0.405133 -0.914243 0.909710 0.913881
0.026856 -0.000178 -0.020402 -0.612354 -0.548418 -0.569384 0.852072 0.927952
0.013746 -0.000179 0.008458 -0.772027 -0.596423 -0.219550 0.790306 0.942061
0.008947 -0.000178 0.047882 -0.794671 -0.606983 0.000000 0.747661 0.961351
0.013746 -0.000178 0.087307 -0.772088 -0.596332 0.219581 0.735565 0.980657
0.026856 -0.000179 0.116167 -0.612323 -0.548479 0.569384 0.757260 0.994803
0.044765 0.011270 0.122953 0.000000 0.648915 0.760826 0.805475 0.987377
0.062674 -0.000179 0.116167 0.612323 -0.548479 0.569384 0.871270 0.994855
0.075785 -0.000178 0.087307 0.772088 -0.596332 0.219581 0.933035 0.980746
0.080583 -0.000178 0.047882 0.794671 -0.606983 0.000000 0.975681 0.961454
0.061311 -0.000074 -0.015206 -0.014252 -0.999847 0.009827 0.958098 0.930447
0.044765 -0.000074 -0.024964 0.000000 -0.999908 0.012818 0.912206 0.925647
0.044765 -0.000179 -0.030966 0.000000 -0.492965 -0.870022 0.916411 0.922807
0.028220 -0.000074 -0.015206 0.014252 -0.999847 0.009827 0.852767 0.930399
0.016107 -0.000074 0.011459 0.022034 -0.999725 0.004913 0.795701 0.943435
0.016107 -0.000074 0.084304 0.021912 -0.999725 -0.004883 0.745128 0.979093
0.028220 -0.000074 0.110969 0.014313 -0.999847 -0.009888 0.765170 0.992163
0.044765 -0.000074 0.120729 0.000000 -0.999908 -0.012757 0.811060 0.996964
0.044765 -0.000178 0.126731 0.000000 -0.492843 0.870083 0.806930 1.000000
0.061311 -0.000074 0.110969 -0.014313 -0.999847 -0.009888 0.870501 0.992210
0.073423 -0.000074 0.084304 -0.021912 -0.999725 -0.004883 0.927567 0.979175
0.073423 -0.000074 0.011459 -0.022034 -0.999725 0.004913 0.978140 0.943517
0.051619 0.000074 0.021751 -0.002869 -0.999969 0.001953 0.901537 0.948384
0.044765 0.000074 0.017709 0.000000 -0.999969 0.002533 0.882529 0.946395
0.037912 0.000074 0.021751 0.002869 -0.999969 0.001953 0.857907 0.948364
0.032895 0.000074 0.032794 0.004395 -0.999969 0.000977 0.834271 0.953763
0.011674 -0.000074 0.047882 0.024171 -0.999695 0.000000 0.756302 0.961257
0.031058 0.000074 0.047882 0.004791 -0.999969 0.000000 0.817951 0.961145
0.032895 0.000074 0.062969 0.004334 -0.999969 -0.000977 0.813322 0.968533
0.037912 0.000074 0.074014 0.002808 -0.999969 -0.001984 0.821624 0.973948
0.044765 0.000074 0.078055 0.000000 -0.999969 -0.002533 0.840634 0.975935
0.051619 0.000074 0.074014 -0.002808 -0.999969 -0.001984 0.865254 0.973967
0.056636 0.000074 0.062969 -0.004334 -0.999969 -0.000977 0.888891 0.968567
0.077857 -0.000074 0.047882 -0.024201 -0.999695 0.000000 0.966965 0.961352
0.058472 0.000074 0.047882 -0.004791 -0.999969 0.000000 0.905211 0.961185
0.056636 0.000074 0.032794 -0.004395 -0.999969 0.000977 0.909840 0.953797
0.044765 0.038551 0.013162 0.000000 1.000000 0.000000 0.871977 0.907960
0.044765 0.000095 0.047882 0.000000 -1.000000 0.000000 0.861574 0.961146
0.057701 0.035023 0.002187 0.480514 0.849879 -0.216254 0.922027 0.905926
0.058565 0.024977 -0.012584 0.584887 0.507859 -0.632374 0.938612 0.908152
0.052234 0.035023 -0.005846 0.321146 0.850520 -0.416425 0.910203 0.901986
0.044765 0.035023 -0.008786 0.000000 0.856868 -0.515519 0.888472 0.900536
0.030966 0.024977 -0.012584 -0.584887 0.507859 -0.632374 0.850763 0.908112
0.037297 0.035023 -0.005846 -0.321146 0.850520 -0.416425 0.862659 0.901964
0.031830 0.035023 0.002187 -0.480514 0.849879 -0.216254 0.839679 0.905889
0.020864 0.024977 0.005106 -0.840480 0.464156 -0.279458 0.806327 0.916756
0.029829 0.035023 0.013162 -0.478256 0.877590 -0.032594 0.825690 0.911258
0.017166 0.024977 0.029267 -0.816950 0.576434 -0.015656 0.777783 0.928578
0.031830 0.035023 0.024137 -0.356456 0.927793 0.110080 0.824441 0.916634
0.020864 0.024977 0.053430 -0.616047 0.770104 0.165532 0.772778 0.940411
0.037297 0.035023 0.032171 -0.178716 0.966186 0.185736 0.836266 0.920574
0.030966 0.024977 0.071118 -0.300882 0.918058 0.258034 0.792653 0.949084
0.044765 0.035023 0.035111 0.000000 0.978607 0.205603 0.857996 0.922024
0.058565 0.024977 0.071118 0.300882 0.918058 0.258034 0.880502 0.949123
0.052234 0.035023 0.032171 0.178716 0.966186 0.185736 0.883809 0.920596
0.068667 0.024977 0.053430 0.616047 0.770104 0.165532 0.924937 0.940479
0.057701 0.035023 0.024137 0.356456 0.927793 0.110080 0.906789 0.916671
0.072364 0.024977 0.029267 0.816950 0.576434 -0.015656 0.953481 0.928657
0.059702 0.035023 0.013162 0.478256 0.877590 -0.032594 0.920778 0.911301
0.068667 0.024977 0.005106 0.840480 0.464156 -0.279458 0.958486 0.916824
0.061311 0.011269 -0.017133 0.701346 0.309030 -0.642323 0.955394 0.918829
0.044765 0.024977 -0.019058 0.000000 0.576312 -0.817225 0.899181 0.904962
0.028220 0.011269 -0.017133 -0.701346 0.309030 -0.642323 0.850063 0.918781
0.016107 0.011270 0.010346 -0.942625 0.231208 -0.240761 0.792432 0.932214
0.011674 0.011270 0.047882 -0.936491 0.349040 0.033540 0.752261 0.950582
0.016107 0.011269 0.085417 -0.813105 0.525407 0.250526 0.740314 0.968962
0.028220 0.011271 0.112898 -0.579058 0.627430 0.520554 0.759790 0.982430
0.044765 0.024977 0.077593 0.000000 0.961486 0.274789 0.832083 0.952274
0.061311 0.011271 0.112898 0.579058 0.627430 0.520554 0.865121 0.982478
0.073423 0.011269 0.085417 0.813105 0.525407 0.250526 0.922753 0.969045
0.077857 0.011270 0.047882 0.936491 0.349040 0.033540 0.962924 0.950677
0.073423 0.011270 0.010346 0.942625 0.231208 -0.240761 0.974871 0.932297
0.075785 -0.000179 0.008458 0.772027 -0.596423 -0.219550 0.987777 0.942150
0.062674 -0.000178 -0.020402 0.612354 -0.548418 -0.569384 0.966081 0.928004
0.044765 0.011270 -0.027190 0.000000 0.405133 -0.914243 0.909710 0.913881
0.026856 -0.000178 -0.020402 -0.612354 -0.548418 -0.569384 0.852072 0.927952
0.013746 -0.000179 0.008458 -0.772027 -0.596423 -0.219550 0.790306 0.942061
0.008947 -0.000178 0.047882 -0.794671 -0.606983 0.000000 0.747661 0.961351
0.013746 -0.000178 0.087307 -0.772088 -0.596332 0.219581 0.735565 0.980657
0.026856 -0.000179 0.116167 -0.612323 -0.548479 0.569384 0.757260 0.994803
0.044765 0.011270 0.122953 0.000000 0.648915 0.760826 0.805475 0.987377
0.062674 -0.000179 0.116167 0.612323 -0.548479 0.569384 0.871270 0.994855
0.075785 -0.000178 0.087307 0.772088 -0.596332 0.219581 0.933035 0.980746
0.080583 -0.000178 0.047882 0.794671 -0.606983 0.000000 0.975681 0.961454
0.061311 -0.000074 -0.015206 -0.014252 -0.999847 0.009827 0.958098 0.930447
0.044765 -0.000074 -0.024964 0.000000 -0.999908 0.012818 0.912206 0.925647
0.044765 -0.000179 -0.030966 0.000000 -0.492965 -0.870022 0.916411 0.922807
0.028220 -0.000074 -0.015206 0.014252 -0.999847 0.009827 0.852767 0.930399
0.016107 -0.000074 0.011459 0.022034 -0.999725 0.004913 0.795701 0.943435
0.016107 -0.000074 0.084304 0.021912 -0.999725 -0.004883 0.745128 0.979093
0.028220 -0.000074 0.110969 0.014313 -0.999847 -0.009888 0.765170 0.992163
0.044765 -0.000074 0.120729 0.000000 -0.999908 -0.012757 0.811060 0.996964
0.044765 -0.000178 0.126731 0.000000 -0.492843 0.870083 0.806930 1.000000
0.061311 -0.000074 0.110969 -0.014313 -0.999847 -0.009888 0.870501 0.992210
0.073423 -0.000074 0.084304 -0.021912 -0.999725 -0.004883 0.927567 0.979175
0.073423 -0.000074 0.011459 -0.022034 -0.999725 0.004913 0.978140 0.943517
0.051619 0.000074 0.021751 -0.002869 -0.999969 0.001953 0.901537 0.948384
0.044765 0.000074 0.017709 0.000000 -0.999969 0.002533 0.882529 0.946395
0.037912 0.000074 0.021751 0.002869 -0.999969 0.001953 0.857907 0.948364
0.032895 0.000074 0.032794 0.004395 -0.999969 0.000977 0.834271 0.953763
0.011674 -0.000074 0.047882 0.024171 -0.999695 0.000000 0.756302 0.961257
0.031058 0.000074 0.047882 0.004791 -0.999969 0.000000 0.817951 0.961145
0.032895 0.000074 0.062969 0.004334 -0.999969 -0.000977 0.813322 0.968533
0.037912 0.000074 0.074014 0.002808 -0.999969 -0.001984 0.821624 0.973948
0.044765 0.000074 0.078055 0.000000 -0.999969 -0.002533 0.840634 0.975935
0.051619 0.000074 0.074014 -0.002808 -0.999969 -0.001984 0.865254 0.973967
0.056636 0.000074 0.062969 -0.004334 -0.999969 -0.000977 0.888891 0.968567
0.077857 -0.000074 0.047882 -0.024201 -0.999695 0.000000 0.966965 0.961352
0.058472 0.000074 0.047882 -0.004791 -0.999969 0.000000 0.905211 0.961185
0.056636 0.000074 0.032794 -0.004395 -0.999969 0.000977 0.909840 0.953797
0.044765 0.038551 0.013162 0.000000 1.000000 0.000000 0.871977 0.907960
0.044765 0.000095 0.047882 0.000000 -1.000000 0.000000 0.861574 0.961146
0.057701 0.035023 0.002187 0.480514 0.849879 -0.216254 0.922027 0.905926
0.058565 0.024977 -0.012584 0.584887 0.507859 -0.632374 0.938612 0.908152
0.052234 0.035023 -0.005846 0.321146 0.850520 -0.416425 0.910203 0.901986
0.044765 0.035023 -0.008786 0.000000 0.856868 -0.515519 0.888472 0.900536
0.030966 0.024977 -0.012584 -0.584887 0.507859 -0.632374 0.850763 0.908112
0.037297 0.035023 -0.005846 -0.321146 0.850520 -0.416425 0.862659 0.901964
0.031830 0.035023 0.002187 -0.480514 0.849879 -0.216254 0.839679 0.905889
0.020864 0.024977 0.005106 -0.840480 0.464156 -0.279458 0.806327 0.916756
0.029829 0.035023 0.013162 -0.478256 0.877590 -0.032594 0.825690 0.911258
0.017166 0.024977 0.029267 -0.816950 0.576434 -0.015656 0.777783 0.928578
0.031830 0.035023 0.024137 -0.356456 0.927793 0.110080 0.824441 0.916634
0.020864 0.024977 0.053430 -0.616047 0.770104 0.165532 0.772778 0.940411
0.037297 0.035023 0.032171 -0.178716 0.966186 0.185736 0.836266 0.920574
0.030966 0.024977 0.071118 -0.300882 0.918058 0.258034 0.792653 0.949084
0.044765 0.035023 0.035111 0.000000 0.978607 0.205603 0.857996 0.922024
0.058565 0.024977 0.071118 0.300882 0.918058 0.258034 0.880502 0.949123
0.052234 0.035023 0.032171 0.178716 0.966186 0.185736 0.883809 0.920596
0.068667 0.024977 0.053430 0.616047 0.770104 0.165532 0.924937 0.940479
0.057701 0.035023 0.024137 0.356456 0.927793 0.110080 0.906789 0.916671
0.072364 0.024977 0.029267 0.816950 0.576434 -0.015656 0.953481 0.928657
0.059702 0.035023 0.013162 0.478256 0.877590 -0.032594 0.920778 0.911301
0.068667 0.024977 0.005106 0.840480 0.464156 -0.279458 0.958486 0.916824
0.061311 0.011269 -0.017133 0.701346 0.309030 -0.642323 0.955394 0.918829
0.044765 0.024977 -0.019058 0.000000 0.576312 -0.817225 0.899181 0.904962
0.028220 0.011269 -0.017133 -0.701346 0.309030 -0.642323 0.850063 0.918781
0.016107 0.011270 0.010346 -0.942625 0.231208 -0.240761 0.792432 0.932214
0.011674 0.011270 0.047882 -0.936491 0.349040 0.033540 0.752261 0.950582
0.016107 0.011269 0.085417 -0.813105 0.525407 0.250526 0.740314 0.968962
0.028220 0.011271 0.112898 -0.579058 0.627430 0.520554 0.759790 0.982430
0.044765 0.024977 0.077593 0.000000 0.961486 0.274789 0.832083 0.952274
0.061311 0.011271 0.112898 0.579058 0.627430 0.520554 0.865121 0.982478
0.073423 0.011269 0.085417 0.813105 0.525407 0.250526 0.922753 0.969045
0.077857 0.011270 0.047882 0.936491 0.349040 0.033540 0.962924 0.950677
0.073423 0.011270 0.010346 0.942625 0.231208 -0.240761 0.974871 0.932297
0.075785 -0.000179 0.008458 0.772027 -0.596423 -0.219550 0.987777 0.942150
0.062674 -0.000178 -0.020402 0.612354 -0.548418 -0.569384 0.966081 0.928004
0.044765 0.011270 -0.027190 0.000000 0.405133 -0.914243 0.909710 0.913881
0.026856 -0.000178 -0.020402 -0.612354 -0.548418 -0.569384 0.852072 0.927952
0.013746 -0.000179 0.008458 -0.772027 -0.596423 -0.219550 0.790306 0.942061
0.008947 -0.000178 0.047882 -0.794671 -0.606983 0.000000 0.747661 0.961351
0.013746 -0.000178 0.087307 -0.772088 -0.596332 0.219581 0.735565 0.980657
0.026856 -0.000179 0.116167 -0.612323 -0.548479 0.569384 0.757260 0.994803
0.044765 0.011270 0.122953 0.000000 0.648915 0.760826 0.805475 0.987377
0.062674 -0.000179 0.116167 0.612323 -0.548479 0.569384 0.871270 0.994855
0.075785 -0.000178 0.087307 0.772088 -0.596332 0.219581 0.933035 0.980746
0.080583 -0.000178 0.047882 0.794671 -0.606983 0.000000 0.975681 0.961454
0.061311 -0.000074 -0.015206 -0.014252 -0.999847 0.009827 0.958098 0.930447
0.044765 -0.000074 -0.024964 0.000000 -0.999908 0.012818 0.912206 0.925647
0.044765 -0.000179 -0.030966 0.000000 -0.492965 -0.870022 0.916411 0.922807
0.028220 -0.000074 -0.015206 0.014252 -0.999847 0.009827 0.852767 0.930399
0.016107 -0.000074 0.011459 0.022034 -0.999725 0.004913 0.795701 0.943435
0.016107 -0.000074 0.084304 0.021912 -0.999725 -0.004883 0.745128 0.979093
0.028220 -0.000074 0.110969 0.014313 -0.999847 -0.009888 0.765170 0.992163
0.044765 -0.000074 0.120729 0.000000 -0.999908 -0.012757 0.811060 0.996964
0.044765 -0.000178 0.126731 0.000000 -0.492843 0.870083 0.806930 1.000000
0.061311 -0.000074 0.110969 -0.014313 -0.999847 -0.009888 0.870501 0.992210
0.073423 -0.000074 0.084304 -0.021912 -0.999725 -0.004883 0.927567 0.979175
0.073423 -0.000074 0.011459 -0.022034 -0.999725 0.004913 0.978140 0.943517
0.051619 0.000074 0.021751 -0.002869 -0.999969 0.001953 0.901537 0.948384
0.044765 0.000074 0.017709 0.000000 -0.999969 0.002533 0.882529 0.946395
0.037912 0.000074 0.021751 0.002869 -0.999969 0.001953 0.857907 0.948364
0.032895 0.000074 0.032794 0.004395 -0.999969 0.000977 0.834271 0.953763
0.011674 -0.000074 0.047882 0.024171 -0.999695 0.000000 0.756302 0.961257
0.031058 0.000074 0.047882 0.004791 -0.999969 0.000000 0.817951 0.961145
0.032895 0.000074 0.062969 0.004334 -0.999969 -0.000977 0.813322 0.968533
0.037912 0.000074 0.074014 0.002808 -0.999969 -0.001984 0.821624 0.973948
0.044765 0.000074 0.078055 0.000000 -0.999969 -0.002533 0.840634 0.975935
0.051619 0.000074 0.074014 -0.002808 -0.999969 -0.001984 0.865254 0.973967
0.056636 0.000074 0.062969 -0.004334 -0.999969 -0.000977 0.888891 0.968567
0.077857 -0.000074 0.047882 -0.024201 -0.999695 0.000000 0.966965 0.961352
0.058472 0.000074 0.047882 -0.004791 -0.999969 0.000000 0.905211 0.961185
0.056636 0.000074 0.032794 -0.004395 -0.999969 0.000977 0.909840 0.953797
0.044765 0.038551 0.013162 0.000000 1.000000 0.000000 0.871977 0.907960
0.044765 0.000095 0.047882 0.000000 -1.000000 0.000000 0.861574 0.961146
0.057701 0.035023 0.002187 0.480514 0.849879 -0.216254 0.922027 0.905926
0.058565 0.024977 -0.012584 0.584887 0.507859 -0.632374 0.938612 0.908152
0.052234 0.035023 -0.005846 0.321146 0.850520 -0.416425 0.910203 0.901986
0.044765 0.035023 -0.008786 0.000000 0.856868 -0.515519 0.888472 0.900536
0.030966 0.024977 -0.012584 -0.584887 0.507859 -0.632374 0.850763 0.908112
0.037297 0.035023 -0.005846 -0.321146 0.850520 -0.416425 0.862659 0.901964
0.031830 0.035023 0.002187 -0.480514 0.849879 -0.216254 0.839679 0.905889
0.020864 0.024977 0.005106 -0.840480 0.464156 -0.279458 0.806327 0.916756
0.029829 0.035023 0.013162 -0.478256 0.877590 -0.032594 0.825690 0.911258
0.017166 0.024977 0.029267 -0.816950 0.576434 -0.015656 0.777783 0.928578
0.031830 0.035023 0.024137 -0.356456 0.927793 0.110080 0.824441 0.916634
0.020864 0.024977 0.053430 -0.616047 0.770104 0.165532 0.772778 0.940411
0.037297 0.035023 0.032171 -0.178716 0.966186 0.185736 0.836266 0.920574
0.030966 0.024977 0.071118 -0.300882 0.918058 0.258034 0.792653 0.949084
0.044765 0.035023 0.035111 0.000000 0.978607 0.205603 0.857996 0.922024
0.058565 0.024977 0.071118 0.300882 0.918058 0.258034 0.880502 0.949123
0.052234 0.035023 0.032171 0.178716 0.966186 0.185736 0.883809 0.920596
0.068667 0.024977 0.053430 0.616047 0.770104 0.165532 0.924937 0.940479
0.057701 0.035023 0.024137 0.356456 0.927793 0.110080 0.906789 0.916671
0.072364 0.024977 0.029267 0.816950 0.576434 -0.015656 0.953481 0.928657
0.059702 0.035023 0.013162 0.478256 0.877590 -0.032594 0.920778 0.911301
0.068667 0.024977 0.005106 0.840480 0.464156 -0.279458 0.958486 0.916824
0.061311 0.011269 -0.017133 0.701346 0.309030 -0.642323 0.955394 0.918829
0.044765 0.024977 -0.019058 0.000000 0.576312 -0.817225 0.899181 0.904962
0.028220 0.011269 -0.017133 -0.701346 0.309030 -0.642323 0.850063 0.918781
0.016107 0.011270 0.010346 -0.942625 0.231208 -0.240761 0.792432 0.932214
0.011674 0.011270 0.047882 -0.936491 0.349040 0.033540 0.752261 0.950582
0.016107 0.011269 0.085417 -0.813105 0.525407 0.250526 0.740314 0.968962
0.028220 0.011271 0.112898 -0.579058 0.627430 0.520554 0.759790 0.982430
0.044765 0.024977 0.077593 0.000000 0.961486 0.274789 0.832083 0.952274
0.061311 0.011271 0.112898 0.579058 0.627430 0.520554 0.865121 0.982478
0.073423 0.011269 0.085417 0.813105 0.525407 0.250526 0.922753 0.969045
0.077857 0.011270 0.047882 0.936491 0.349040 0.033540 0.962924 0.950677
0.073423 0.011270 0.010346 0.942625 0.231208 -0.240761 0.974871 0.932297
0.075785 -0.000179 0.008458 0.772027 -0.596423 -0.219550 0.987777 0.942150
0.062674 -0.000178 -0.020402 0.612354 -0.548418 -0.569384 0.966081 0.928004
0.044765 0.011270 -0.027190 0.000000 0.405133 -0.914243 0.909710 0.913881
0.026856 -0.000178 -0.020402 -0.612354 -0.548418 -0.569384 0.852072 0.927952
0.013746 -0.000179 0.008458 -0.772027 -0.596423 -0.219550 0.790306 0.942061
0.008947 -0.000178 0.047882 -0.794671 -0.606983 0.000000 0.747661 0.961351
0.013746 -0.000178 0.087307 -0.772088 -0.596332 0.219581 0.735565 0.980657
0.026856 -0.000179 0.116167 -0.612323 -0.548479 0.569384 0.757260 0.994803
0.044765 0.011270 0.122953 0.000000 0.648915 0.760826 0.805475 0.987377
0.062674 -0.000179 0.116167 0.612323 -0.548479 0.569384 0.871270 0.994855
0.075785 -0.000178 0.087307 0.772088 -0.596332 0.219581 0.933035 0.980746
0.080583 -0.000178 0.047882 0.794671 -0.606983 0.000000 0.975681 0.961454
0.061311 -0.000074 -0.015206 -0.014252 -0.999847 0.009827 0.958098 0.930447
0.044765 -0.000074 -0.024964 0.000000 -0.999908 0.012818 0.912206 0.925647
0.044765 -0.000179 -0.030966 0.000000 -0.492965 -0.870022 0.916411 0.922807
0.028220 -0.000074 -0.015206 0.014252 -0.999847 0.009827 0.852767 0.930399
0.016107 -0.000074 0.011459 0.022034 -0.999725 0.004913 0.795701 0.943435
0.016107 -0.000074 0.084304 0.021912 -0.999725 -0.004883 0.745128 0.979093
0.028220 -0.000074 0.110969 0.014313 -0.999847 -0.009888 0.765170 0.992163
0.044765 -0.000074 0.120729 0.000000 -0.999908 -0.012757 0.811060 0.996964
0.044765 -0.000178 0.126731 0.000000 -0.492843 0.870083 0.806930 1.000000
0.061311 -0.000074 0.110969 -0.014313 -0.999847 -0.009888 0.870501 0.992210
0.073423 -0.000074 0.084304 -0.021912 -0.999725 -0.004883 0.927567 0.979175
0.073423 -0.000074 0.011459 -0.022034 -0.999725 0.004913 0.978140 0.943517
0.051619 0.000074 0.021751 -0.002869 -0.999969 0.001953 0.901537 0.948384
0.044765 0.000074 0.017709 0.000000 -0.999969 0.002533 0.882529 0.946395
0.037912 0.000074 0.021751 0.002869 -0.999969 0.001953 0.857907 0.948364
0.032895 0.000074 0.032794 0.004395 -0.999969 0.000977 0.834271 0.953763
0.011674 -0.000074 0.047882 0.024171 -0.999695 0.000000 0.756302 0.961257
0.031058 0.000074 0.047882 0.004791 -0.999969 0.000000 0.817951 0.961145
0.032895 0.000074 0.062969 0.004334 -0.999969 -0.000977 0.813322 0.968533
0.037912 0.000074 0.074014 0.002808 -0.999969 -0.001984 0.821624 0.973948
0.044765 0.000074 0.078055 0.000000 -0.999969 -0.002533 0.840634 0.975935
0.051619 0.000074 0.074014 -0.002808 -0.999969 -0.001984 0.865254 0.973967
0.056636 0.000074 0.062969 -0.004334 -0.999969 -0.000977 0.888891 0.968567
0.077857 -0.000074 0.047882 -0.024201 -0.999695 0.000000 0.966965 0.961352
0.058472 0.000074 0.047882 -0.004791 -0.999969 0.000000 0.905211 0.961185
0.056636 0.000074 0.032794 -0.004395 -0.999969 0.000977 0.909840 0.953797
0.044765 0.038551 0.013162 0.000000 1.000000 0.000000 0.871977 0.907960
0.044765 0.000095 0.047882 0.000000 -1.000000 0.000000 0.861574 0.961146
3 0 1 2
3 1 3 2
3 3 4 5
3 4 6 5
3 7 8 6
3 9 10 8
3 11 12 10
3 13 14 12
3 14 15 16
3 16 17 18
3 18 19 20
3 20 21 0
3 21 22 1
3 22 23 1
3 23 24 4
3 24 7 4
3 25 9 7
3 26 11 9
3 27 13 11
3 28 29 13
3 29 30 15
3 15 31 17
3 17 32 19
3 19 33 21
3 34 22 33
3 35 36 22
3 36 37 24
3 24 38 25
3 25 39 26
3 39 27 26
3 40 28 27
3 41 42 28
3 42 43 30
3 30 44 31
3 31 45 32
3 45 33 32
3 34 46 35
3 35 47 48
3 47 37 48
3 49 38 37
3 50 39 38
3 39 51 40
3 40 52 41
3 41 53 54
3 53 43 54
3 55 44 43
3 56 45 44
3 45 57 34
3 57 58 46
3 46 59 47
3 49 59 60
3 50 60 61
3 62 61 63
3 62 64 51
3 51 65 52
3 52 66 53
3 55 66 67
3 56 67 68
3 69 68 70
3 69 71 57
3 2 72 0
3 3 72 2
3 5 72 3
3 6 72 5
3 8 72 6
3 10 72 8
3 12 72 10
3 14 72 12
3 16 72 14
3 18 72 16
3 20 72 18
3 0 72 20
3 71 73 58
3 58 73 59
3 59 73 60
3 60 73 61
3 61 73 63
3 63 73 64
3 64 73 65
3 65 73 66
3 66 73 67
3 67 73 68
3 68 73 70
3 70 73 71
3 74 75 76
3 75 77 76
3 77 78 79
3 78 80 79
3 81 82 80
3 83 84 82
3 85 86 84
3 87 88 86
3 88 89 90
3 90 91 92
3 92 93 94
3 94 95 74
3 95 96 75
3 96 97 75
3 97 98 78
3 98 81 78
3 99 83 81
3 100 85 83
3 101 87 85
3 102 103 87
3 103 104 89
3 89 105 91
3 91 106 93
3 93 107 95
3 108 96 107
3 109 110 96
3 110 111 98
3 98 112 99
3 99 113 100
3 113 101 100
3 114 102 101
3 115 116 102
3 116 117 104
3 104 118 105
3 105 119 106
3 119 107 106
3 108 120 109
3 109 121 122
3 121 111 122
3 123 112 111
3 124 113 112
3 113 125 114
3 114 126 115
3 115 127 128
3 127 117 128
3 129 118 117
3 130 119 118
3 119 131 108
3 131 132 120
3 120 133 121
3 123 133 134
3 124 134 135
3 136 135 137
3 136 138 125
3 125 139 126
3 126 140 127
3 129 140 141
3 130 141 142
3 143 142 144
3 143 145 131
3 76 146 74
3 77 146 76
3 79 146 77
3 80 146 79
3 82 146 80
3 84 146 82
3 86 146 84
3 88 146 86
3 90 146 88
3 92 146 90
3 94 146 92
3 74 146 94
3 145 147 132
3 132 147 133
3 133 147 134
3 134 147 135
3 135 147 137
3 137 147 138
3 138 147 139
3 139 147 140
3 140 147 141
3 141 147 142
3 142 147 144
3 144 147 145
3 148 149 150
3 149 151 150
3 151 152 153
3 152 154 153
3 155 156 154
3 157 158 156
3 159 160 158
3 161 162 160
3 162 163 164
3 164 165 166
3 166 167 168
3 168 169 148
3 169 170 149
3 170 171 149
3 171 172 152
3 172 155 152
3 173 157 155
3 174 159 157
3 175 161 159
3 176 177 161
3 177 178 163
3 163 179 165
3 165 180 167
3 167 181 169
3 182 170 181
3 183 184 170
3 184 185 172
3 172 186 173
3 173 187 174
3 187 175 174
3 188 176 175
3 189 190 176
3 190 191 178
3 178 192 179
3 179 193 180
3 193 181 180
3 182 194 183
3 183 195 196
3 195 185 196
3 197 186 185
3 198 187 186
3 187 199 188
3 188 200 189
3 189 201 202
3 201 191 202
3 203 192 191
3 204 193 192
3 193 205 182
3 205 206 194
3 194 207 195
3 197 207 208
3 198 208 209
3 210 209 211
3 210 212 199
3 199 213 200
3 200 214 201
3 203 214 215
3 204 215 216
3 217 216 218
3 217 219 205
3 150 220 148
3 151 220 150
3 153 220 151
3 154 220 153
3 156 220 154
3 158 220 156
3 160 220 158
3 162 220 160
3 164 220 162
3 166 220 164
3 168 220 166
3 148 220 168
3 219 221 206
3 206 221 207
3 207 221 208
3 208 221 209
3 209 221 211
3 211 221 212
3 212 221 213
3 213 221 214
3 214 221 215
3 215 221 216
3 216 221 218
3 218 221 219
3 222 223 224
3 223 225 224
3 225 226 227
3 226 228 227
3 229 230 228
3 231 232 230
3 233 234 232
3 235 236 234
3 236 237 238
3 238 239 240
3 240 241 242
3 242 243 222
3 243 244 223
3 244 245 223
3 245 246 226
3 246 229 226
3 247 231 229
3 248 233 231
3 249 235 233
3 250 251 235
3 251 252 237
3 237 253 239
3 239 254 241
3 241 255 243
3 256 244 255
3 257 258 244
3 258 259 246
3 246 260 247
3 247 261 248
3 261 249 248
3 262 250 249
3 263 264 250
3 264 265 252
3 252 266 253
3 253 267 254
3 267 255 254
3 256 268 257
3 257 269 270
3 269 259 270
3 271 260 259
3 272 261 260
3 261 273 262
3 262 274 263
3 263 275 276
3 275 265 276
3 277 266 265
3 278 267 266
3 267 279 256
3 279 280 268
3 268 281 269
3 271 281 282
3 272 282 283
3 284 283 285
3 284 286 273
3 273 287 274
3 274 288 275
3 277 288 289
3 278 289 290
3 291 290 292
3 291 293 279
3 224 294 222
3 225 294 224
3 227 294 225
3 228 294 227
3 230 294 228
3 232 294 230
3 234 294 232
3 236 294 234
3 238 294 236
3 240 294 238
3 242 294 240
3 222 294 242
3 293 295 280
3 280 295 281
3 281 295 282
3 282 295 283
3 283 295 285
3 285 295 286
3 286 295 287
3 287 295 288
3 288 295 289
3 289 295 290
3 290 295 292
3 292 295 293
3 296 297 298
3 297 299 298
3 299 300 301
3 300 302 301
3 303 304 302
3 305 306 304
3 307 308 306
3 309 310 308
3 310 311 312
3 312 313 314
3 314 315 316
3 316 317 296
3 317 318 297
3 318 319 297
3 319 320 300
3 320 303 300
3 321 305 303
3 322 307 305
3 323 309 307
3 324 325 309
3 325 326 311
3 311 327 313
3 313 328 315
3 315 329 317
3 330 318 329
3 331 332 318
3 332 333 320
3 320 334 321
3 321 335 322
3 335 323 322
3 336 324 323
3 337 338 324
3 338 339 326
3 326 340 327
3 327 341 328
3 341 329 328
3 330 342 331
3 331 343 344
3 343 333 344
3 345 334 333
3 346 335 334
3 335 347 336
3 336 348 337
3 337 349 350
3 349 339 350
3 351 340 339
3 352 341 340
3 341 353 330
3 353 354 342
3 342 355 343
3 345 355 356
3 346 356 357
3 358 357 359
3 358 360 347
3 347 361 348
3 348 362 349
3 351 362 363
3 352 363 364
3 365 364 366
3 365 367 353
3 298 368 296
3 299 368 298
3 301 368 299
3 302 368 301
3 304 368 302
3 306 368 304
3 308 368 306
3 310 368 308
3 312 368 310
3 314 368 312
3 316 368 314
3 296 368 316
3 367 369 354
3 354 369 355
3 355 369 356
3 356 369 357
3 357 369 359
3 359 369 360
3 360 369 361
3 361 369 362
3 362 369 363
3 363 369 364
3 364 369 366
3 366 369 367
3 370 371 372
3 371 373 372
3 373 374 375
3 374 376 375
3 377 378 376
3 379 380 378
3 381 382 380
3 383 384 382
3 384 385 386
3 386 387 388
3 388 389 390
3 390 391 370
3 391 392 371
3 392 393 371
3 393 394 374
3 394 377 374
3 395 379 377
3 396 381 379
3 397 383 381
3 398 399 383
3 399 400 385
3 385 401 387
3 387 402 389
3 389 403 391
3 404 392 403
3 405 406 392
3 406 407 394
3 394 408 395
3 395 409 396
3 409 397 396
3 410 398 397
3 411 412 398
3 412 413 400
3 400 414 401
3 401 415 402
3 415 403 402
3 404 416 405
3 405 417 418
3 417 407 418
3 419 408 407
3 420 409 408
3 409 421 410
3 410 422 411
3 411 423 424
3 423 413 424
3 425 414 413
3 426 415 414
3 415 427 404
3 427 428 416
3 416 429 417
3 419 429 430
3 420 430 431
3 432 431 433
3 432 434 421
3 421 435 422
3 422 436 423
3 425 436 437
3 426 437 438
3 439 438 440
3 439 441 427
3 372 442 370
3 373 442 372
3 375 442 373
3 376 442 375
3 378 442 376
3 380 442 378
3 382 442 380
3 384 442 382
3 386 442 384
3 388 442 386
3 390 442 388
3 370 442 390
3 441 443 428
3 428 443 429
3 429 443 430
3 430 443 431
3 431 443 433
3 433 443 434
3 434 443 435
3 435 443 436
3 436 443 437
3 437 443 438
3 438 443 440
3 440 443 441
3 444 445 446
3 445 447 446
3 447 448 449
3 448 450 449
3 451 452 450
3 453 454 452
3 455 456 454
3 457 458 456
3 458 459 460
3 460 461 462
3 462 463 464
3 464 465 444
3 465 466 445
3 466 467 445
3 467 468 448
3 468 451 448
3 469 453 451
3 470 455 453
3 471 457 455
3 472 473 457
3 473 474 459
3 459 475 461
3 461 476 463
3 463 477 465
3 478 466 477
3 479 480 466
3 480 481 468
3 468 482 469
3 469 483 470
3 483 471 470
3 484 472 471
3 485 486 472
3 486 487 474
3 474 488 475
3 475 489 476
3 489 477 476
3 478 490 479
3 479 491 492
3 491 481 492
3 493 482 481
3 494 483 482
3 483 495 484
3 484 496 485
3 485 497 498
3 497 487 498
3 499 488 487
3 500 489 488
3 489 501 478
3 501 502 490
3 490 503 491
3 493 503 504
3 494 504 505
3 506 505 507
3 506 508 495
3 495 509 496
3 496 510 497
3 499 510 511
3 500 511 512
3 513 512 514
3 513 515 501
3 446 516 444
3 447 516 446
3 449 516 447
3 450 516 449
3 452 516 450
3 454 516 452
3 456 516 454
3 458 516 456
3 460 516 458
3 462 516 460
3 464 516 462
3 444 516 464
3 515 517 502
3 502 517 503
3 503 517 504
3 504 517 505
3 505 517 507
3 507 517 508
3 508 517 509
3 509 517 510
3 510 517 511
3 511 517 512
3 512 517 514
3 514 517 515
3 0 21 1
3 1 23 3
3 3 23 4
3 4 7 6
3 7 9 8
3 9 11 10
3 11 13 12
3 13 29 14
3 14 29 15
3 16 15 17
3 18 17 19
3 20 19 21
3 21 33 22
3 22 36 23
3 23 36 24
3 24 25 7
3 25 26 9
3 26 27 11
3 27 28 13
3 28 42 29
3 29 42 30
3 15 30 31
3 17 31 32
3 19 32 33
3 34 35 22
3 35 48 36
3 36 48 37
3 24 37 38
3 25 38 39
3 39 40 27
3 40 41 28
3 41 54 42
3 42 54 43
3 30 43 44
3 31 44 45
3 45 34 33
3 34 57 46
3 35 46 47
3 47 49 37
3 49 50 38
3 50 62 39
3 39 62 51
3 40 51 52
3 41 52 53
3 53 55 43
3 55 56 44
3 56 69 45
3 45 69 57
3 57 71 58
3 46 58 59
3 49 47 59
3 50 49 60
3 62 50 61
3 62 63 64
3 51 64 65
3 52 65 66
3 55 53 66
3 56 55 67
3 69 56 68
3 69 70 71
3 74 95 75
3 75 97 77
3 77 97 78
3 78 81 80
3 81 83 82
3 83 85 84
3 85 87 86
3 87 103 88
3 88 103 89
3 90 89 91
3 92 91 93
3 94 93 95
3 95 107 96
3 96 110 97
3 97 110 98
3 98 99 81
3 99 100 83
3 100 101 85
3 101 102 87
3 102 116 103
3 103 116 104
3 89 104 105
3 91 105 106
3 93 106 107
3 108 109 96
3 109 122 110
3 110 122 111
3 98 111 112
3 99 112 113
3 113 114 101
3 114 115 102
3 115 128 116
3 116 128 117
3 104 117 118
3 105 118 119
3 119 108 107
3 108 131 120
3 109 120 121
3 121 123 111
3 123 124 112
3 124 136 113
3 113 136 125
3 114 125 126
3 115 126 127
3 127 129 117
3 129 130 118
3 130 143 119
3 119 143 131
3 131 145 132
3 120 132 133
3 123 121 133
3 124 123 134
3 136 124 135
3 136 137 138
3 125 138 139
3 126 139 140
3 129 127 140
3 130 129 141
3 143 130 142
3 143 144 145
3 148 169 149
3 149 171 151
3 151 171 152
3 152 155 154
3 155 157 156
3 157 159 158
3 159 161 160
3 161 177 162
3 162 177 163
3 164 163 165
3 166 165 167
3 168 167 169
3 169 181 170
3 170 184 171
3 171 184 172
3 172 173 155
3 173 174 157
3 174 175 159
3 175 176 161
3 176 190 177
3 177 190 178
3 163 178 179
3 165 179 180
3 167 180 181
3 182 183 170
3 183 196 184
3 184 196 185
3 172 185 186
3 173 186 187
3 187 188 175
3 188 189 176
3 189 202 190
3 190 202 191
3 178 191 192
3 179 192 193
3 193 182 181
3 182 205 194
3 183 194 195
3 195 197 185
3 197 198 186
3 198 210 187
3 187 210 199
3 188 199 200
3 189 200 201
3 201 203 191
3 203 204 192
3 204 217 193
3 193 217 205
3 205 219 206
3 194 206 207
3 197 195 207
3 198 197 208
3 210 198 209
3 210 211 212
3 199 212 213
3 200 213 214
3 203 201 214
3 204 203 215
3 217 204 216
3 217 218 219
3 222 243 223
3 223 245 225
3 225 245 226
3 226 229 228
3 229 231 230
3 231 233 232
3 233 235 234
3 235 251 236
3 236 251 237
3 238 237 239
3 240 239 241
3 242 241 243
3 243 255 244
3 244 258 245
3 245 258 246
3 246 247 229
3 247 248 231
3 248 249 233
3 249 250 235
3 250 264 251
3 251 264 252
3 237 252 253
3 239 253 254
3 241 254 255
3 256 257 244
3 257 270 258
3 258 270 259
3 246 259 260
3 247 260 261
3 261 262 249
3 262 263 250
3 263 276 264
3 264 276 265
3 252 265 266
3 253 266 267
3 267 256 255
3 256 279 268
3 257 268 269
3 269 271 259
3 271 272 260
3 272 284 261
3 261 284 273
3 262 273 274
3 263 274 275
3 275 277 265
3 277 278 266
3 278 291 267
3 267 291 279
3 279 293 280
3 268 280 281
3 271 269 281
3 272 271 282
3 284 272 283
3 284 285 286
3 273 286 287
3 274 287 288
3 277 275 288
3 278 277 289
3 291 278 290
3 291 292 293
3 296 317 297
3 297 319 299
3 299 319 300
3 300 303 302
3 303 305 304
3 305 307 306
3 307 309 308
3 309 325 310
3 310 325 311
3 312 311 313
3 314 313 315
3 316 315 317
3 317 329 318
3 318 332 319
3 319 332 320
3 320 321 303
3 321 322 305
3 322 323 307
3 323 324 309
3 324 338 325
3 325 338 326
3 311 326 327
3 313 327 328
3 315 328 329
3 330 331 318
3 331 344 332
3 332 344 333
3 320 333 334
3 321 334 335
3 335 336 323
3 336 337 324
3 337 350 338
3 338 350 339
3 326 339 340
3 327 340 341
3 341 330 329
3 330 353 342
3 331 342 343
3 343 345 333
3 345 346 334
3 346 358 335
3 335 358 347
3 336 347 348
3 337 348 349
3 349 351 339
3 351 352 340
3 352 365 341
3 341 365 353
3 353 367 354
3 342 354 355
3 345 343 355
3 346 345 356
3 358 346 357
3 358 359 360
3 347 360 361
3 348 361 362
3 351 349 362
3 352 351 363
3 365 352 364
3 365 366 367
3 370 391 371
3 371 393 373
3 373 393 374
3 374 377 376
3 377 379 378
3 379 381 380
3 381 383 382
3 383 399 384
3 384 399 385
3 386 385 387
3 388 387 389
3 390 389 391
3 391 403 392
3 392 406 393
3 393 406 394
3 394 395 377
3 395 396 379
3 396 397 381
3 397 398 383
3 398 412 399
3 399 412 400
3 385 400 401
3 387 401 402
3 389 402 403
3 404 405 392
3 405 418 406
3 406 418 407
3 394 407 408
3 395 408 409
3 409 410 397
3 410 411 398
3 411 424 412
3 412 424 413
3 400 413 414
3 401 414 415
3 415 404 403
3 404 427 416
3 405 416 417
3 417 419 407
3 419 420 408
3 420 432 409
3 409 432 421
3 410 421 422
3 411 422 423
3 423 425 413
3 425 426 414
3 426 439 415
3 415 439 427
3 427 441 428
3 416 428 429
3 419 417 429
3 420 419 430
3 432 420 431
3 432 433 434
3 421 434 435
3 422 435 436
3 425 423 436
3 426 425 437
3 439 426 438
3 439 440 441
3 444 465 445
3 445 467 447
3 447 467 448
3 448 451 450
3 451 453 452
3 453 455 454
3 455 457 456
3 457 473 458
3 458 473 459
3 460 459 461
3 462 461 463
3 464 463 465
3 465 477 466
3 466 480 467
3 467 480 468
3 468 469 451
3 469 470 453
3 470 471 455
3 471 472 457
3 472 486 473
3 473 486 474
3 459 474 475
3 461 475 476
3 463 476 477
3 478 479 466
3 479 492 480
3 480 492 481
3 468 481 482
3 469 482 483
3 483 484 471
3 484 485 472
3 485 498 486
3 486 498 487
3 474 487 488
3 475 488 489
3 489 478 477
3 478 501 490
3 479 490 491
3 491 493 481
3 493 494 482
3 494 506 483
3 483 506 495
3 484 495 496
3 485 496 497
3 497 499 487
3 499 500 488
3 500 513 489
3 489 513 501
3 501 515 502
3 490 502 503
3 493 491 503
3 494 493 504
3 506 494 505
3 506 507 508
3 495 508 509
3 496 509 510
3 499 497 510
3 500 499 511
3 513 500 512
3 513 514 515
