ply
format ascii 1.0
comment Created by Blender 2.79 (sub 0) - www.blender.org, source file: 'dummy.blend'
element vertex 774
property float x
property float y
property float z
property float nx
property float ny
property float nz
property float s
property float t
element face 1512
property list uchar uint vertex_indices
end_header
-0.443369 0.790532 0.018522 0.239235 0.947356 0.212683 0.180977 0.529338
-0.442449 0.784818 0.030315 0.248451 0.738121 0.627216 0.190650 0.534253
-0.431696 0.784818 0.023065 0.470931 0.788079 0.396313 0.191852 0.520585
-0.449187 0.790532 0.022445 0.127964 0.931028 0.341685 0.180326 0.536733
-0.457136 0.784818 0.032968 0.000000 0.715751 0.698325 0.194040 0.549373
-0.465086 0.790532 0.022445 -0.127903 0.931028 0.341716 0.185990 0.551695
-0.457136 0.790532 0.023881 0.000000 0.923826 0.382733 0.182160 0.544917
-0.470905 0.790532 0.018522 -0.239265 0.947356 0.212683 0.190786 0.555251
-0.471825 0.784818 0.030315 -0.248482 0.738121 0.627216 0.201115 0.561897
-0.473034 0.790532 0.013162 -0.290445 0.956877 0.000000 0.195266 0.554631
-0.482575 0.784818 0.023065 -0.470931 0.788110 0.396313 0.209978 0.568466
-0.482575 0.784818 0.003259 -0.470931 0.788079 -0.396344 0.223728 0.558771
-0.486511 0.784818 0.013162 -0.576678 0.816950 0.000000 0.218255 0.567323
-0.470904 0.790532 0.007803 -0.239235 0.947356 -0.212714 0.198228 0.550003
-0.471824 0.784818 -0.003990 -0.248482 0.738121 -0.627216 0.224930 0.545104
-0.465086 0.790532 0.003879 -0.127934 0.931028 -0.341685 0.198879 0.542607
-0.457137 0.784818 -0.006644 0.000000 0.715751 -0.698325 0.221540 0.529984
-0.449187 0.790532 0.003879 0.127934 0.931028 -0.341685 0.193215 0.527645
-0.457137 0.790532 0.002444 0.000000 0.923856 -0.382702 0.197044 0.534424
-0.443368 0.790532 0.007803 0.239265 0.947356 -0.212683 0.188418 0.524090
-0.442448 0.784818 -0.003990 0.248482 0.738121 -0.627216 0.214465 0.517459
-0.441239 0.790532 0.013162 0.290445 0.956877 0.000000 0.183939 0.524709
-0.431696 0.784818 0.003259 0.470962 0.788079 -0.396313 0.205602 0.510890
-0.427762 0.784818 0.013162 0.576678 0.816950 0.000000 0.197325 0.512034
-0.437947 0.776266 0.035574 0.341411 0.435224 0.833033 0.212615 0.532602
-0.423898 0.776266 0.026101 0.677694 0.493759 0.544847 0.214186 0.514744
-0.457136 0.776266 0.039040 0.000000 0.410657 0.911771 0.217044 0.552357
-0.476327 0.776266 0.035574 -0.341441 0.435224 0.833033 0.226288 0.568721
-0.490375 0.776266 0.026101 -0.677694 0.493789 0.544847 0.237868 0.577304
-0.490375 0.776266 0.000223 -0.677694 0.493759 -0.544847 0.255834 0.564637
-0.495517 0.776266 0.013162 -0.849208 0.528031 0.000000 0.248683 0.575810
-0.476326 0.776266 -0.009248 -0.341411 0.435224 -0.833033 0.257405 0.546779
-0.457137 0.776266 -0.012715 0.000000 0.410657 -0.911771 0.252976 0.527024
-0.437946 0.776266 -0.009248 0.341441 0.435224 -0.833033 0.243732 0.510661
-0.423898 0.776266 0.000223 0.677694 0.493759 -0.544847 0.232151 0.502077
-0.418756 0.776266 0.013162 0.849208 0.528031 0.000000 0.221337 0.503572
-0.436365 0.767775 0.037419 0.320566 -0.559099 0.764580 0.237798 0.532029
-0.421159 0.767775 0.027167 0.674093 -0.520646 0.523911 0.239499 0.512701
-0.457137 0.767775 0.041172 0.000000 -0.572588 0.819819 0.242593 0.553414
-0.477908 0.767775 0.037419 -0.320566 -0.559130 0.764580 0.252598 0.571124
-0.493114 0.767775 0.027167 -0.674093 -0.520646 0.523911 0.265132 0.580416
-0.493113 0.767775 -0.000843 -0.674093 -0.520676 -0.523881 0.284578 0.566704
-0.498679 0.767775 0.013162 -0.869808 -0.493332 0.000000 0.276838 0.578798
-0.477908 0.767775 -0.011095 -0.320566 -0.559099 -0.764580 0.286278 0.547376
-0.457136 0.767775 -0.014847 0.000000 -0.572588 -0.819819 0.281484 0.525991
-0.436365 0.767775 -0.011095 0.320566 -0.559099 -0.764580 0.271479 0.508281
-0.421159 0.767775 -0.000843 0.674093 -0.520646 -0.523911 0.258944 0.498990
-0.415594 0.767775 0.013162 0.869808 -0.493332 0.000000 0.247239 0.500607
-0.423898 0.767761 0.026101 0.002716 -0.999969 0.002441 0.241259 0.514756
-0.437947 0.767761 0.035573 0.001465 -0.999969 0.004028 0.239688 0.532614
-0.476327 0.767761 0.035573 -0.001465 -0.999969 0.004028 0.253361 0.568733
-0.457136 0.767761 0.039040 0.000000 -0.999969 0.004517 0.244118 0.552369
-0.490375 0.767761 0.026101 -0.002716 -0.999969 0.002441 0.264942 0.577317
-0.495517 0.767761 0.013162 -0.003265 -0.999969 0.000000 0.275756 0.575822
-0.490375 0.767761 0.000223 -0.002716 -0.999969 -0.002441 0.282907 0.564649
-0.476326 0.767761 -0.009248 -0.001465 -0.999969 -0.004028 0.284478 0.546791
-0.437946 0.767761 -0.009248 0.001465 -0.999969 -0.004028 0.270805 0.510673
-0.457137 0.767761 -0.012715 0.000000 -0.999969 -0.004547 0.280049 0.527036
-0.423898 0.767761 0.000223 0.002716 -0.999969 -0.002441 0.259225 0.502089
-0.418756 0.767761 0.013162 0.003235 -0.999969 0.000000 0.248410 0.503584
-0.431696 0.767749 0.023065 0.000885 -0.999969 0.000793 0.246183 0.520609
-0.442449 0.767749 0.030315 0.000488 -0.999969 0.001312 0.244981 0.534277
-0.471825 0.767749 0.030315 -0.000458 -0.999969 0.001312 0.255446 0.561922
-0.457136 0.767749 0.032968 0.000000 -0.999969 0.001465 0.248371 0.549397
-0.482575 0.767749 0.023065 -0.000885 -0.999969 0.000763 0.264309 0.568491
-0.486511 0.767749 0.013162 -0.001038 -0.999969 0.000000 0.272586 0.567347
-0.482575 0.767749 0.003259 -0.000885 -0.999969 -0.000793 0.278059 0.558795
-0.471824 0.767749 -0.003990 -0.000458 -0.999969 -0.001312 0.279262 0.545128
-0.442448 0.767749 -0.003990 0.000488 -0.999969 -0.001312 0.268797 0.517484
-0.457137 0.767749 -0.006644 0.000000 -0.999969 -0.001465 0.275872 0.530008
-0.431696 0.767749 0.003259 0.000885 -0.999969 -0.000793 0.259933 0.510914
-0.427762 0.767749 0.013162 0.001038 -0.999969 0.000000 0.251656 0.512058
-0.443369 0.767741 0.018522 0.000336 -0.999969 0.000305 0.253521 0.529370
-0.449187 0.767741 0.022445 0.000183 -0.999969 0.000519 0.252870 0.536766
-0.465085 0.767741 0.022445 -0.000183 -0.999969 0.000519 0.258534 0.551728
-0.457136 0.767741 0.023881 0.000000 -0.999969 0.000580 0.254705 0.544949
-0.470905 0.767741 0.018522 -0.000336 -0.999969 0.000305 0.263331 0.555284
-0.473034 0.767741 0.013162 -0.000427 -0.999969 0.000000 0.267810 0.554664
-0.470904 0.767741 0.007803 -0.000336 -0.999969 -0.000305 0.270772 0.550035
-0.465086 0.767741 0.003879 -0.000183 -0.999969 -0.000519 0.271423 0.542640
-0.449187 0.767741 0.003879 0.000183 -0.999969 -0.000519 0.265759 0.527678
-0.457137 0.767741 0.002443 0.000000 -0.999969 -0.000580 0.269589 0.534456
-0.443368 0.767741 0.007803 0.000336 -0.999969 -0.000305 0.260962 0.524122
-0.441239 0.767741 0.013162 0.000427 -0.999969 0.000000 0.256483 0.524742
-0.457136 0.792538 0.013162 0.000000 1.000000 0.000000 0.183216 0.539667
-0.457136 0.767738 0.013162 0.000000 -1.000000 0.000000 0.262155 0.539702
-0.443369 0.790532 0.018522 0.239235 0.947356 0.212683 0.180977 0.529338
-0.442449 0.784818 0.030315 0.248451 0.738121 0.627216 0.190650 0.534253
-0.431696 0.784818 0.023065 0.470931 0.788079 0.396313 0.191852 0.520585
-0.449187 0.790532 0.022445 0.127964 0.931028 0.341685 0.180326 0.536733
-0.457136 0.784818 0.032968 0.000000 0.715751 0.698325 0.194040 0.549373
-0.465086 0.790532 0.022445 -0.127903 0.931028 0.341716 0.185990 0.551695
-0.457136 0.790532 0.023881 0.000000 0.923826 0.382733 0.182160 0.544917
-0.470905 0.790532 0.018522 -0.239265 0.947356 0.212683 0.190786 0.555251
-0.471825 0.784818 0.030315 -0.248482 0.738121 0.627216 0.201115 0.561897
-0.473034 0.790532 0.013162 -0.290445 0.956877 0.000000 0.195266 0.554631
-0.482575 0.784818 0.023065 -0.470931 0.788110 0.396313 0.209978 0.568466
-0.482575 0.784818 0.003259 -0.470931 0.788079 -0.396344 0.223728 0.558771
-0.486511 0.784818 0.013162 -0.576678 0.816950 0.000000 0.218255 0.567323
-0.470904 0.790532 0.007803 -0.239235 0.947356 -0.212714 0.198228 0.550003
-0.471824 0.784818 -0.003990 -0.248482 0.738121 -0.627216 0.224930 0.545104
-0.465086 0.790532 0.003879 -0.127934 0.931028 -0.341685 0.198879 0.542607
-0.457137 0.784818 -0.006644 0.000000 0.715751 -0.698325 0.221540 0.529984
-0.449187 0.790532 0.003879 0.127934 0.931028 -0.341685 0.193215 0.527645
-0.457137 0.790532 0.002444 0.000000 0.923856 -0.382702 0.197044 0.534424
-0.443368 0.790532 0.007803 0.239265 0.947356 -0.212683 0.188418 0.524090
-0.442448 0.784818 -0.003990 0.248482 0.738121 -0.627216 0.214465 0.517459
-0.441239 0.790532 0.013162 0.290445 0.956877 0.000000 0.183939 0.524709
-0.431696 0.784818 0.003259 0.470962 0.788079 -0.396313 0.205602 0.510890
-0.427762 0.784818 0.013162 0.576678 0.816950 0.000000 0.197325 0.512034
-0.437947 0.776266 0.035574 0.341411 0.435224 0.833033 0.212615 0.532602
-0.423898 0.776266 0.026101 0.677694 0.493759 0.544847 0.214186 0.514744
-0.457136 0.776266 0.039040 0.000000 0.410657 0.911771 0.217044 0.552357
-0.476327 0.776266 0.035574 -0.341441 0.435224 0.833033 0.226288 0.568721
-0.490375 0.776266 0.026101 -0.677694 0.493789 0.544847 0.237868 0.577304
-0.490375 0.776266 0.000223 -0.677694 0.493759 -0.544847 0.255834 0.564637
-0.495517 0.776266 0.013162 -0.849208 0.528031 0.000000 0.248683 0.575810
-0.476326 0.776266 -0.009248 -0.341411 0.435224 -0.833033 0.257405 0.546779
-0.457137 0.776266 -0.012715 0.000000 0.410657 -0.911771 0.252976 0.527024
-0.437946 0.776266 -0.009248 0.341441 0.435224 -0.833033 0.243732 0.510661
-0.423898 0.776266 0.000223 0.677694 0.493759 -0.544847 0.232151 0.502077
-0.418756 0.776266 0.013162 0.849208 0.528031 0.000000 0.221337 0.503572
-0.436365 0.767775 0.037419 0.320566 -0.559099 0.764580 0.237798 0.532029
-0.421159 0.767775 0.027167 0.674093 -0.520646 0.523911 0.239499 0.512701
-0.457137 0.767775 0.041172 0.000000 -0.572588 0.819819 0.242593 0.553414
-0.477908 0.767775 0.037419 -0.320566 -0.559130 0.764580 0.252598 0.571124
-0.493114 0.767775 0.027167 -0.674093 -0.520646 0.523911 0.265132 0.580416
-0.493113 0.767775 -0.000843 -0.674093 -0.520676 -0.523881 0.284578 0.566704
-0.498679 0.767775 0.013162 -0.869808 -0.493332 0.000000 0.276838 0.578798
-0.477908 0.767775 -0.011095 -0.320566 -0.559099 -0.764580 0.286278 0.547376
-0.457136 0.767775 -0.014847 0.000000 -0.572588 -0.819819 0.281484 0.525991
-0.436365 0.767775 -0.011095 0.320566 -0.559099 -0.764580 0.271479 0.508281
-0.421159 0.767775 -0.000843 0.674093 -0.520646 -0.523911 0.258944 0.498990
-0.415594 0.767775 0.013162 0.869808 -0.493332 0.000000 0.247239 0.500607
-0.423898 0.767761 0.026101 0.002716 -0.999969 0.002441 0.241259 0.514756
-0.437947 0.767761 0.035573 0.001465 -0.999969 0.004028 0.239688 0.532614
-0.476327 0.767761 0.035573 -0.001465 -0.999969 0.004028 0.253361 0.568733
-0.457136 0.767761 0.039040 0.000000 -0.999969 0.004517 0.244118 0.552369
-0.490375 0.767761 0.026101 -0.002716 -0.999969 0.002441 0.264942 0.577317
-0.495517 0.767761 0.013162 -0.003265 -0.999969 0.000000 0.275756 0.575822
-0.490375 0.767761 0.000223 -0.002716 -0.999969 -0.002441 0.282907 0.564649
-0.476326 0.767761 -0.009248 -0.001465 -0.999969 -0.004028 0.284478 0.546791
-0.437946 0.767761 -0.009248 0.001465 -0.999969 -0.004028 0.270805 0.510673
-0.457137 0.767761 -0.012715 0.000000 -0.999969 -0.004547 0.280049 0.527036
-0.423898 0.767761 0.000223 0.002716 -0.999969 -0.002441 0.259225 0.502089
-0.418756 0.767761 0.013162 0.003235 -0.999969 0.000000 0.248410 0.503584
-0.431696 0.767749 0.023065 0.000885 -0.999969 0.000793 0.246183 0.520609
-0.442449 0.767749 0.030315 0.000488 -0.999969 0.001312 0.244981 0.534277
-0.471825 0.767749 0.030315 -0.000458 -0.999969 0.001312 0.255446 0.561922
-0.457136 0.767749 0.032968 0.000000 -0.999969 0.001465 0.248371 0.549397
-0.482575 0.767749 0.023065 -0.000885 -0.999969 0.000763 0.264309 0.568491
-0.486511 0.767749 0.013162 -0.001038 -0.999969 0.000000 0.272586 0.567347
-0.482575 0.767749 0.003259 -0.000885 -0.999969 -0.000793 0.278059 0.558795
-0.471824 0.767749 -0.003990 -0.000458 -0.999969 -0.001312 0.279262 0.545128
-0.442448 0.767749 -0.003990 0.000488 -0.999969 -0.001312 0.268797 0.517484
-0.457137 0.767749 -0.006644 0.000000 -0.999969 -0.001465 0.275872 0.530008
-0.431696 0.767749 0.003259 0.000885 -0.999969 -0.000793 0.259933 0.510914
-0.427762 0.767749 0.013162 0.001038 -0.999969 0.000000 0.251656 0.512058
-0.443369 0.767741 0.018522 0.000336 -0.999969 0.000305 0.253521 0.529370
-0.449187 0.767741 0.022445 0.000183 -0.999969 0.000519 0.252870 0.536766
-0.465085 0.767741 0.022445 -0.000183 -0.999969 0.000519 0.258534 0.551728
-0.457136 0.767741 0.023881 0.000000 -0.999969 0.000580 0.254705 0.544949
-0.470905 0.767741 0.018522 -0.000336 -0.999969 0.000305 0.263331 0.555284
-0.473034 0.767741 0.013162 -0.000427 -0.999969 0.000000 0.267810 0.554664
-0.470904 0.767741 0.007803 -0.000336 -0.999969 -0.000305 0.270772 0.550035
-0.465086 0.767741 0.003879 -0.000183 -0.999969 -0.000519 0.271423 0.542640
-0.449187 0.767741 0.003879 0.000183 -0.999969 -0.000519 0.265759 0.527678
-0.457137 0.767741 0.002443 0.000000 -0.999969 -0.000580 0.269589 0.534456
-0.443368 0.767741 0.007803 0.000336 -0.999969 -0.000305 0.260962 0.524122
-0.441239 0.767741 0.013162 0.000427 -0.999969 0.000000 0.256483 0.524742
-0.457136 0.792538 0.013162 0.000000 1.000000 0.000000 0.183216 0.539667
-0.457136 0.767738 0.013162 0.000000 -1.000000 0.000000 0.262155 0.539702
-0.443369 0.790532 0.018522 0.239235 0.947356 0.212683 0.180977 0.529338
-0.442449 0.784818 0.030315 0.248451 0.738121 0.627216 0.190650 0.534253
-0.431696 0.784818 0.023065 0.470931 0.788079 0.396313 0.191852 0.520585
-0.449187 0.790532 0.022445 0.127964 0.931028 0.341685 0.180326 0.536733
-0.457136 0.784818 0.032968 0.000000 0.715751 0.698325 0.194040 0.549373
-0.465086 0.790532 0.022445 -0.127903 0.931028 0.341716 0.185990 0.551695
-0.457136 0.790532 0.023881 0.000000 0.923826 0.382733 0.182160 0.544917
-0.470905 0.790532 0.018522 -0.239265 0.947356 0.212683 0.190786 0.555251
-0.471825 0.784818 0.030315 -0.248482 0.738121 0.627216 0.201115 0.561897
-0.473034 0.790532 0.013162 -0.290445 0.956877 0.000000 0.195266 0.554631
-0.482575 0.784818 0.023065 -0.470931 0.788110 0.396313 0.209978 0.568466
-0.482575 0.784818 0.003259 -0.470931 0.788079 -0.396344 0.223728 0.558771
-0.486511 0.784818 0.013162 -0.576678 0.816950 0.000000 0.218255 0.567323
-0.470904 0.790532 0.007803 -0.239235 0.947356 -0.212714 0.198228 0.550003
-0.471824 0.784818 -0.003990 -0.248482 0.738121 -0.627216 0.224930 0.545104
-0.465086 0.790532 0.003879 -0.127934 0.931028 -0.341685 0.198879 0.542607
-0.457137 0.784818 -0.006644 0.000000 0.715751 -0.698325 0.221540 0.529984
-0.449187 0.790532 0.003879 0.127934 0.931028 -0.341685 0.193215 0.527645
-0.457137 0.790532 0.002444 0.000000 0.923856 -0.382702 0.197044 0.534424
-0.443368 0.790532 0.007803 0.239265 0.947356 -0.212683 0.188418 0.524090
-0.442448 0.784818 -0.003990 0.248482 0.738121 -0.627216 0.214465 0.517459
-0.441239 0.790532 0.013162 0.290445 0.956877 0.000000 0.183939 0.524709
-0.431696 0.784818 0.003259 0.470962 0.788079 -0.396313 0.205602 0.510890
-0.427762 0.784818 0.013162 0.576678 0.816950 0.000000 0.197325 0.512034
-0.437947 0.776266 0.035574 0.341411 0.435224 0.833033 0.212615 0.532602
-0.423898 0.776266 0.026101 0.677694 0.493759 0.544847 0.214186 0.514744
-0.457136 0.776266 0.039040 0.000000 0.410657 0.911771 0.217044 0.552357
-0.476327 0.776266 0.035574 -0.341441 0.435224 0.833033 0.226288 0.568721
-0.490375 0.776266 0.026101 -0.677694 0.493789 0.544847 0.237868 0.577304
-0.490375 0.776266 0.000223 -0.677694 0.493759 -0.544847 0.255834 0.564637
-0.495517 0.776266 0.013162 -0.849208 0.528031 0.000000 0.248683 0.575810
-0.476326 0.776266 -0.009248 -0.341411 0.435224 -0.833033 0.257405 0.546779
-0.457137 0.776266 -0.012715 0.000000 0.410657 -0.911771 0.252976 0.527024
-0.437946 0.776266 -0.009248 0.341441 0.435224 -0.833033 0.243732 0.510661
-0.423898 0.776266 0.000223 0.677694 0.493759 -0.544847 0.232151 0.502077
-0.418756 0.776266 0.013162 0.849208 0.528031 0.000000 0.221337 0.503572
-0.436365 0.767775 0.037419 0.320566 -0.559099 0.764580 0.237798 0.532029
-0.421159 0.767775 0.027167 0.674093 -0.520646 0.523911 0.239499 0.512701
-0.457137 0.767775 0.041172 0.000000 -0.572588 0.819819 0.242593 0.553414
-0.477908 0.767775 0.037419 -0.320566 -0.559130 0.764580 0.252598 0.571124
-0.493114 0.767775 0.027167 -0.674093 -0.520646 0.523911 0.265132 0.580416
-0.493113 0.767775 -0.000843 -0.674093 -0.520676 -0.523881 0.284578 0.566704
-0.498679 0.767775 0.013162 -0.869808 -0.493332 0.000000 0.276838 0.578798
-0.477908 0.767775 -0.011095 -0.320566 -0.559099 -0.764580 0.286278 0.547376
-0.457136 0.767775 -0.014847 0.000000 -0.572588 -0.819819 0.281484 0.525991
-0.436365 0.767775 -0.011095 0.320566 -0.559099 -0.764580 0.271479 0.508281
-0.421159 0.767775 -0.000843 0.674093 -0.520646 -0.523911 0.258944 0.498990
-0.415594 0.767775 0.013162 0.869808 -0.493332 0.000000 0.247239 0.500607
-0.423898 0.767761 0.026101 0.002716 -0.999969 0.002441 0.241259 0.514756
-0.437947 0.767761 0.035573 0.001465 -0.999969 0.004028 0.239688 0.532614
-0.476327 0.767761 0.035573 -0.001465 -0.999969 0.004028 0.253361 0.568733
-0.457136 0.767761 0.039040 0.000000 -0.999969 0.004517 0.244118 0.552369
-0.490375 0.767761 0.026101 -0.002716 -0.999969 0.002441 0.264942 0.577317
-0.495517 0.767761 0.013162 -0.003265 -0.999969 0.000000 0.275756 0.575822
-0.490375 0.767761 0.000223 -0.002716 -0.999969 -0.002441 0.282907 0.564649
-0.476326 0.767761 -0.009248 -0.001465 -0.999969 -0.004028 0.284478 0.546791
-0.437946 0.767761 -0.009248 0.001465 -0.999969 -0.004028 0.270805 0.510673
-0.457137 0.767761 -0.012715 0.000000 -0.999969 -0.004547 0.280049 0.527036
-0.423898 0.767761 0.000223 0.002716 -0.999969 -0.002441 0.259225 0.502089
-0.418756 0.767761 0.013162 0.003235 -0.999969 0.000000 0.248410 0.503584
-0.431696 0.767749 0.023065 0.000885 -0.999969 0.000793 0.246183 0.520609
-0.442449 0.767749 0.030315 0.000488 -0.999969 0.001312 0.244981 0.534277
-0.471825 0.767749 0.030315 -0.000458 -0.999969 0.001312 0.255446 0.561922
-0.457136 0.767749 0.032968 0.000000 -0.999969 0.001465 0.248371 0.549397
-0.482575 0.767749 0.023065 -0.000885 -0.999969 0.000763 0.264309 0.568491
-0.486511 0.767749 0.013162 -0.001038 -0.999969 0.000000 0.272586 0.567347
-0.482575 0.767749 0.003259 -0.000885 -0.999969 -0.000793 0.278059 0.558795
-0.471824 0.767749 -0.003990 -0.000458 -0.999969 -0.001312 0.279262 0.545128
-0.442448 0.767749 -0.003990 0.000488 -0.999969 -0.001312 0.268797 0.517484
-0.457137 0.767749 -0.006644 0.000000 -0.999969 -0.001465 0.275872 0.530008
-0.431696 0.767749 0.003259 0.000885 -0.999969 -0.000793 0.259933 0.510914
-0.427762 0.767749 0.013162 0.001038 -0.999969 0.000000 0.251656 0.512058
-0.443369 0.767741 0.018522 0.000336 -0.999969 0.000305 0.253521 0.529370
-0.449187 0.767741 0.022445 0.000183 -0.999969 0.000519 0.252870 0.536766
-0.465085 0.767741 0.022445 -0.000183 -0.999969 0.000519 0.258534 0.551728
-0.457136 0.767741 0.023881 0.000000 -0.999969 0.000580 0.254705 0.544949
-0.470905 0.767741 0.018522 -0.000336 -0.999969 0.000305 0.263331 0.555284
-0.473034 0.767741 0.013162 -0.000427 -0.999969 0.000000 0.267810 0.554664
-0.470904 0.767741 0.007803 -0.000336 -0.999969 -0.000305 0.270772 0.550035
-0.465086 0.767741 0.003879 -0.000183 -0.999969 -0.000519 0.271423 0.542640
-0.449187 0.767741 0.003879 0.000183 -0.999969 -0.000519 0.265759 0.527678
-0.457137 0.767741 0.002443 0.000000 -0.999969 -0.000580 0.269589 0.534456
-0.443368 0.767741 0.007803 0.000336 -0.999969 -0.000305 0.260962 0.524122
-0.441239 0.767741 0.013162 0.000427 -0.999969 0.000000 0.256483 0.524742
-0.457136 0.792538 0.013162 0.000000 1.000000 0.000000 0.183216 0.539667
-0.457136 0.767738 0.013162 0.000000 -1.000000 0.000000 0.262155 0.539702
-0.443369 0.790532 0.018522 0.239235 0.947356 0.212683 0.180977 0.529338
-0.442449 0.784818 0.030315 0.248451 0.738121 0.627216 0.190650 0.534253
-0.431696 0.784818 0.023065 0.470931 0.788079 0.396313 0.191852 0.520585
-0.449187 0.790532 0.022445 0.127964 0.931028 0.341685 0.180326 0.536733
-0.457136 0.784818 0.032968 0.000000 0.715751 0.698325 0.194040 0.549373
-0.465086 0.790532 0.022445 -0.127903 0.931028 0.341716 0.185990 0.551695
-0.457136 0.790532 0.023881 0.000000 0.923826 0.382733 0.182160 0.544917
-0.470905 0.790532 0.018522 -0.239265 0.947356 0.212683 0.190786 0.555251
-0.471825 0.784818 0.030315 -0.248482 0.738121 0.627216 0.201115 0.561897
-0.473034 0.790532 0.013162 -0.290445 0.956877 0.000000 0.195266 0.554631
-0.482575 0.784818 0.023065 -0.470931 0.788110 0.396313 0.209978 0.568466
-0.482575 0.784818 0.003259 -0.470931 0.788079 -0.396344 0.223728 0.558771
-0.486511 0.784818 0.013162 -0.576678 0.816950 0.000000 0.218255 0.567323
-0.470904 0.790532 0.007803 -0.239235 0.947356 -0.212714 0.198228 0.550003
-0.471824 0.784818 -0.003990 -0.248482 0.738121 -0.627216 0.224930 0.545104
-0.465086 0.790532 0.003879 -0.127934 0.931028 -0.341685 0.198879 0.542607
-0.457137 0.784818 -0.006644 0.000000 0.715751 -0.698325 0.221540 0.529984
-0.449187 0.790532 0.003879 0.127934 0.931028 -0.341685 0.193215 0.527645
-0.457137 0.790532 0.002444 0.000000 0.923856 -0.382702 0.197044 0.534424
-0.443368 0.790532 0.007803 0.239265 0.947356 -0.212683 0.188418 0.524090
-0.442448 0.784818 -0.003990 0.248482 0.738121 -0.627216 0.214465 0.517459
-0.441239 0.790532 0.013162 0.290445 0.956877 0.000000 0.183939 0.524709
-0.431696 0.784818 0.003259 0.470962 0.788079 -0.396313 0.205602 0.510890
-0.427762 0.784818 0.013162 0.576678 0.816950 0.000000 0.197325 0.512034
-0.437947 0.776266 0.035574 0.341411 0.435224 0.833033 0.212615 0.532602
-0.423898 0.776266 0.026101 0.677694 0.493759 0.544847 0.214186 0.514744
-0.457136 0.776266 0.039040 0.000000 0.410657 0.911771 0.217044 0.552357
-0.476327 0.776266 0.035574 -0.341441 0.435224 0.833033 0.226288 0.568721
-0.490375 0.776266 0.026101 -0.677694 0.493789 0.544847 0.237868 0.577304
-0.490375 0.776266 0.000223 -0.677694 0.493759 -0.544847 0.255834 0.564637
-0.495517 0.776266 0.013162 -0.849208 0.528031 0.000000 0.248683 0.575810
-0.476326 0.776266 -0.009248 -0.341411 0.435224 -0.833033 0.257405 0.546779
-0.457137 0.776266 -0.012715 0.000000 0.410657 -0.911771 0.252976 0.527024
-0.437946 0.776266 -0.009248 0.341441 0.435224 -0.833033 0.243732 0.510661
-0.423898 0.776266 0.000223 0.677694 0.493759 -0.544847 0.232151 0.502077
-0.418756 0.776266 0.013162 0.849208 0.528031 0.000000 0.221337 0.503572
-0.436365 0.767775 0.037419 0.320566 -0.559099 0.764580 0.237798 0.532029
-0.421159 0.767775 0.027167 0.674093 -0.520646 0.523911 0.239499 0.512701
-0.457137 0.767775 0.041172 0.000000 -0.572588 0.819819 0.242593 0.553414
-0.477908 0.767775 0.037419 -0.320566 -0.559130 0.764580 0.252598 0.571124
-0.493114 0.767775 0.027167 -0.674093 -0.520646 0.523911 0.265132 0.580416
-0.493113 0.767775 -0.000843 -0.674093 -0.520676 -0.523881 0.284578 0.566704
-0.498679 0.767775 0.013162 -0.869808 -0.493332 0.000000 0.276838 0.578798
-0.477908 0.767775 -0.011095 -0.320566 -0.559099 -0.764580 0.286278 0.547376
-0.457136 0.767775 -0.014847 0.000000 -0.572588 -0.819819 0.281484 0.525991
-0.436365 0.767775 -0.011095 0.320566 -0.559099 -0.764580 0.271479 0.508281
-0.421159 0.767775 -0.000843 0.674093 -0.520646 -0.523911 0.258944 0.498990
-0.415594 0.767775 0.013162 0.869808 -0.493332 0.000000 0.247239 0.500607
-0.423898 0.767761 0.026101 0.002716 -0.999969 0.002441 0.241259 0.514756
-0.437947 0.767761 0.035573 0.001465 -0.999969 0.004028 0.239688 0.532614
-0.476327 0.767761 0.035573 -0.001465 -0.999969 0.004028 0.253361 0.568733
-0.457136 0.767761 0.039040 0.000000 -0.999969 0.004517 0.244118 0.552369
-0.490375 0.767761 0.026101 -0.002716 -0.999969 0.002441 0.264942 0.577317
-0.495517 0.767761 0.013162 -0.003265 -0.999969 0.000000 0.275756 0.575822
-0.490375 0.767761 0.000223 -0.002716 -0.999969 -0.002441 0.282907 0.564649
-0.476326 0.767761 -0.009248 -0.001465 -0.999969 -0.004028 0.284478 0.546791
-0.437946 0.767761 -0.009248 0.001465 -0.999969 -0.004028 0.270805 0.510673
-0.457137 0.767761 -0.012715 0.000000 -0.999969 -0.004547 0.280049 0.527036
-0.423898 0.767761 0.000223 0.002716 -0.999969 -0.002441 0.259225 0.502089
-0.418756 0.767761 0.013162 0.003235 -0.999969 0.000000 0.248410 0.503584
-0.431696 0.767749 0.023065 0.000885 -0.999969 0.000793 0.246183 0.520609
-0.442449 0.767749 0.030315 0.000488 -0.999969 0.001312 0.244981 0.534277
-0.471825 0.767749 0.030315 -0.000458 -0.999969 0.001312 0.255446 0.561922
-0.457136 0.767749 0.032968 0.000000 -0.999969 0.001465 0.248371 0.549397
-0.482575 0.767749 0.023065 -0.000885 -0.999969 0.000763 0.264309 0.568491
-0.486511 0.767749 0.013162 -0.001038 -0.999969 0.000000 0.272586 0.567347
-0.482575 0.767749 0.003259 -0.000885 -0.999969 -0.000793 0.278059 0.558795
-0.471824 0.767749 -0.003990 -0.000458 -0.999969 -0.001312 0.279262 0.545128
-0.442448 0.767749 -0.003990 0.000488 -0.999969 -0.001312 0.268797 0.517484
-0.457137 0.767749 -0.006644 0.000000 -0.999969 -0.001465 0.275872 0.530008
-0.431696 0.767749 0.003259 0.000885 -0.999969 -0.000793 0.259933 0.510914
-0.427762 0.767749 0.013162 0.001038 -0.999969 0.000000 0.251656 0.512058
-0.443369 0.767741 0.018522 0.000336 -0.999969 0.000305 0.253521 0.529370
-0.449187 0.767741 0.022445 0.000183 -0.999969 0.000519 0.252870 0.536766
-0.465085 0.767741 0.022445 -0.000183 -0.999969 0.000519 0.258534 0.551728
-0.457136 0.767741 0.023881 0.000000 -0.999969 0.000580 0.254705 0.544949
-0.470905 0.767741 0.018522 -0.000336 -0.999969 0.000305 0.263331 0.555284
-0.473034 0.767741 0.013162 -0.000427 -0.999969 0.000000 0.267810 0.554664
-0.470904 0.767741 0.007803 -0.000336 -0.999969 -0.000305 0.270772 0.550035
-0.465086 0.767741 0.003879 -0.000183 -0.999969 -0.000519 0.271423 0.542640
-0.449187 0.767741 0.003879 0.000183 -0.999969 -0.000519 0.265759 0.527678
-0.457137 0.767741 0.002443 0.000000 -0.999969 -0.000580 0.269589 0.534456
-0.443368 0.767741 0.007803 0.000336 -0.999969 -0.000305 0.260962 0.524122
-0.441239 0.767741 0.013162 0.000427 -0.999969 0.000000 0.256483 0.524742
-0.457136 0.792538 0.013162 0.000000 1.000000 0.000000 0.183216 0.539667
-0.457136 0.767738 0.013162 0.000000 -1.000000 0.000000 0.262155 0.539702
-0.443369 0.790532 0.018522 0.239235 0.947356 0.212683 0.180977 0.529338
-0.442449 0.784818 0.030315 0.248451 0.738121 0.627216 0.190650 0.534253
-0.431696 0.784818 0.023065 0.470931 0.788079 0.396313 0.191852 0.520585
-0.449187 0.790532 0.022445 0.127964 0.931028 0.341685 0.180326 0.536733
-0.457136 0.784818 0.032968 0.000000 0.715751 0.698325 0.194040 0.549373
-0.465086 0.790532 0.022445 -0.127903 0.931028 0.341716 0.185990 0.551695
-0.457136 0.790532 0.023881 0.000000 0.923826 0.382733 0.182160 0.544917
-0.470905 0.790532 0.018522 -0.239265 0.947356 0.212683 0.190786 0.555251
-0.471825 0.784818 0.030315 -0.248482 0.738121 0.627216 0.201115 0.561897
-0.473034 0.790532 0.013162 -0.290445 0.956877 0.000000 0.195266 0.554631
-0.482575 0.784818 0.023065 -0.470931 0.788110 0.396313 0.209978 0.568466
-0.482575 0.784818 0.003259 -0.470931 0.788079 -0.396344 0.223728 0.558771
-0.486511 0.784818 0.013162 -0.576678 0.816950 0.000000 0.218255 0.567323
-0.470904 0.790532 0.007803 -0.239235 0.947356 -0.212714 0.198228 0.550003
-0.471824 0.784818 -0.003990 -0.248482 0.738121 -0.627216 0.224930 0.545104
-0.465086 0.790532 0.003879 -0.127934 0.931028 -0.341685 0.198879 0.542607
-0.457137 0.784818 -0.006644 0.000000 0.715751 -0.698325 0.221540 0.529984
-0.449187 0.790532 0.003879 0.127934 0.931028 -0.341685 0.193215 0.527645
-0.457137 0.790532 0.002444 0.000000 0.923856 -0.382702 0.197044 0.534424
-0.443368 0.790532 0.007803 0.239265 0.947356 -0.212683 0.188418 0.524090
-0.442448 0.784818 -0.003990 0.248482 0.738121 -0.627216 0.214465 0.517459
-0.441239 0.790532 0.013162 0.290445 0.956877 0.000000 0.183939 0.524709
-0.431696 0.784818 0.003259 0.470962 0.788079 -0.396313 0.205602 0.510890
-0.427762 0.784818 0.013162 0.576678 0.816950 0.000000 0.197325 0.512034
-0.437947 0.776266 0.035574 0.341411 0.435224 0.833033 0.212615 0.532602
-0.423898 0.776266 0.026101 0.677694 0.493759 0.544847 0.214186 0.514744
-0.457136 0.776266 0.039040 0.000000 0.410657 0.911771 0.217044 0.552357
-0.476327 0.776266 0.035574 -0.341441 0.435224 0.833033 0.226288 0.568721
-0.490375 0.776266 0.026101 -0.677694 0.493789 0.544847 0.237868 0.577304
-0.490375 0.776266 0.000223 -0.677694 0.493759 -0.544847 0.255834 0.564637
-0.495517 0.776266 0.013162 -0.849208 0.528031 0.000000 0.248683 0.575810
-0.476326 0.776266 -0.009248 -0.341411 0.435224 -0.833033 0.257405 0.546779
-0.457137 0.776266 -0.012715 0.000000 0.410657 -0.911771 0.252976 0.527024
-0.437946 0.776266 -0.009248 0.341441 0.435224 -0.833033 0.243732 0.510661
-0.423898 0.776266 0.000223 0.677694 0.493759 -0.544847 0.232151 0.502077
-0.418756 0.776266 0.013162 0.849208 0.528031 0.000000 0.221337 0.503572
-0.436365 0.767775 0.037419 0.320566 -0.559099 0.764580 0.237798 0.532029
-0.421159 0.767775 0.027167 0.674093 -0.520646 0.523911 0.239499 0.512701
-0.457137 0.767775 0.041172 0.000000 -0.572588 0.819819 0.242593 0.553414
-0.477908 0.767775 0.037419 -0.320566 -0.559130 0.764580 0.252598 0.571124
-0.493114 0.767775 0.027167 -0.674093 -0.520646 0.523911 0.265132 0.580416
-0.493113 0.767775 -0.000843 -0.674093 -0.520676 -0.523881 0.284578 0.566704
-0.498679 0.767775 0.013162 -0.869808 -0.493332 0.000000 0.276838 0.578798
-0.477908 0.767775 -0.011095 -0.320566 -0.559099 -0.764580 0.286278 0.547376
-0.457136 0.767775 -0.014847 0.000000 -0.572588 -0.819819 0.281484 0.525991
-0.436365 0.767775 -0.011095 0.320566 -0.559099 -0.764580 0.271479 0.508281
-0.421159 0.767775 -0.000843 0.674093 -0.520646 -0.523911 0.258944 0.498990
-0.415594 0.767775 0.013162 0.869808 -0.493332 0.000000 0.247239 0.500607
-0.423898 0.767761 0.026101 0.002716 -0.999969 0.002441 0.241259 0.514756
-0.437947 0.767761 0.035573 0.001465 -0.999969 0.004028 0.239688 0.532614
-0.476327 0.767761 0.035573 -0.001465 -0.999969 0.004028 0.253361 0.568733
-0.457136 0.767761 0.039040 0.000000 -0.999969 0.004517 0.244118 0.552369
-0.490375 0.767761 0.026101 -0.002716 -0.999969 0.002441 0.264942 0.577317
-0.495517 0.767761 0.013162 -0.003265 -0.999969 0.000000 0.275756 0.575822
-0.490375 0.767761 0.000223 -0.002716 -0.999969 -0.002441 0.282907 0.564649
-0.476326 0.767761 -0.009248 -0.001465 -0.999969 -0.004028 0.284478 0.546791
-0.437946 0.767761 -0.009248 0.001465 -0.999969 -0.004028 0.270805 0.510673
-0.457137 0.767761 -0.012715 0.000000 -0.999969 -0.004547 0.280049 0.527036
-0.423898 0.767761 0.000223 0.002716 -0.999969 -0.002441 0.259225 0.502089
-0.418756 0.767761 0.013162 0.003235 -0.999969 0.000000 0.248410 0.503584
-0.431696 0.767749 0.023065 0.000885 -0.999969 0.000793 0.246183 0.520609
-0.442449 0.767749 0.030315 0.000488 -0.999969 0.001312 0.244981 0.534277
-0.471825 0.767749 0.030315 -0.000458 -0.999969 0.001312 0.255446 0.561922
-0.457136 0.767749 0.032968 0.000000 -0.999969 0.001465 0.248371 0.549397
-0.482575 0.767749 0.023065 -0.000885 -0.999969 0.000763 0.264309 0.568491
-0.486511 0.767749 0.013162 -0.001038 -0.999969 0.000000 0.272586 0.567347
-0.482575 0.767749 0.003259 -0.000885 -0.999969 -0.000793 0.278059 0.558795
-0.471824 0.767749 -0.003990 -0.000458 -0.999969 -0.001312 0.279262 0.545128
-0.442448 0.767749 -0.003990 0.000488 -0.999969 -0.001312 0.268797 0.517484
-0.457137 0.767749 -0.006644 0.000000 -0.999969 -0.001465 0.275872 0.530008
-0.431696 0.767749 0.003259 0.000885 -0.999969 -0.000793 0.259933 0.510914
-0.427762 0.767749 0.013162 0.001038 -0.999969 0.000000 0.251656 0.512058
-0.443369 0.767741 0.018522 0.000336 -0.999969 0.000305 0.253521 0.529370
-0.449187 0.767741 0.022445 0.000183 -0.999969 0.000519 0.252870 0.536766
-0.465085 0.767741 0.022445 -0.000183 -0.999969 0.000519 0.258534 0.551728
-0.457136 0.767741 0.023881 0.000000 -0.999969 0.000580 0.254705 0.544949
-0.470905 0.767741 0.018522 -0.000336 -0.999969 0.000305 0.263331 0.555284
-0.473034 0.767741 0.013162 -0.000427 -0.999969 0.000000 0.267810 0.554664
-0.470904 0.767741 0.007803 -0.000336 -0.999969 -0.000305 0.270772 0.550035
-0.465086 0.767741 0.003879 -0.000183 -0.999969 -0.000519 0.271423 0.542640
-0.449187 0.767741 0.003879 0.000183 -0.999969 -0.000519 0.265759 0.527678
-0.457137 0.767741 0.002443 0.000000 -0.999969 -0.000580 0.269589 0.534456
-0.443368 0.767741 0.007803 0.000336 -0.999969 -0.000305 0.260962 0.524122
-0.441239 0.767741 0.013162 0.000427 -0.999969 0.000000 0.256483 0.524742
-0.457136 0.792538 0.013162 0.000000 1.000000 0.000000 0.183216 0.539667
-0.457136 0.767738 0.013162 0.000000 -1.000000 0.000000 0.262155 0.539702
-0.443369 0.790532 0.018522 0.239235 0.947356 0.212683 0.180977 0.529338
-0.442449 0.784818 0.030315 0.248451 0.738121 0.627216 0.190650 0.534253
-0.431696 0.784818 0.023065 0.470931 0.788079 0.396313 0.191852 0.520585
-0.449187 0.790532 0.022445 0.127964 0.931028 0.341685 0.180326 0.536733
-0.457136 0.784818 0.032968 0.000000 0.715751 0.698325 0.194040 0.549373
-0.465086 0.790532 0.022445 -0.127903 0.931028 0.341716 0.185990 0.551695
-0.457136 0.790532 0.023881 0.000000 0.923826 0.382733 0.182160 0.544917
-0.470905 0.790532 0.018522 -0.239265 0.947356 0.212683 0.190786 0.555251
-0.471825 0.784818 0.030315 -0.248482 0.738121 0.627216 0.201115 0.561897
-0.473034 0.790532 0.013162 -0.290445 0.956877 0.000000 0.195266 0.554631
-0.482575 0.784818 0.023065 -0.470931 0.788110 0.396313 0.209978 0.568466
-0.482575 0.784818 0.003259 -0.470931 0.788079 -0.396344 0.223728 0.558771
-0.486511 0.784818 0.013162 -0.576678 0.816950 0.000000 0.218255 0.567323
-0.470904 0.790532 0.007803 -0.239235 0.947356 -0.212714 0.198228 0.550003
-0.471824 0.784818 -0.003990 -0.248482 0.738121 -0.627216 0.224930 0.545104
-0.465086 0.790532 0.003879 -0.127934 0.931028 -0.341685 0.198879 0.542607
-0.457137 0.784818 -0.006644 0.000000 0.715751 -0.698325 0.221540 0.529984
-0.449187 0.790532 0.003879 0.127934 0.931028 -0.341685 0.193215 0.527645
-0.457137 0.790532 0.002444 0.000000 0.923856 -0.382702 0.197044 0.534424
-0.443368 0.790532 0.007803 0.239265 0.947356 -0.212683 0.188418 0.524090
-0.442448 0.784818 -0.003990 0.248482 0.738121 -0.627216 0.214465 0.517459
-0.441239 0.790532 0.013162 0.290445 0.956877 0.000000 0.183939 0.524709
-0.431696 0.784818 0.003259 0.470962 0.788079 -0.396313 0.205602 0.510890
-0.427762 0.784818 0.013162 0.576678 0.816950 0.000000 0.197325 0.512034
-0.437947 0.776266 0.035574 0.341411 0.435224 0.833033 0.212615 0.532602
-0.423898 0.776266 0.026101 0.677694 0.493759 0.544847 0.214186 0.514744
-0.457136 0.776266 0.039040 0.000000 0.410657 0.911771 0.217044 0.552357
-0.476327 0.776266 0.035574 -0.341441 0.435224 0.833033 0.226288 0.568721
-0.490375 0.776266 0.026101 -0.677694 0.493789 0.544847 0.237868 0.577304
-0.490375 0.776266 0.000223 -0.677694 0.493759 -0.544847 0.255834 0.564637
-0.495517 0.776266 0.013162 -0.849208 0.528031 0.000000 0.248683 0.575810
-0.476326 0.776266 -0.009248 -0.341411 0.435224 -0.833033 0.257405 0.546779
-0.457137 0.776266 -0.012715 0.000000 0.410657 -0.911771 0.252976 0.527024
-0.437946 0.776266 -0.009248 0.341441 0.435224 -0.833033 0.243732 0.510661
-0.423898 0.776266 0.000223 0.677694 0.493759 -0.544847 0.232151 0.502077
-0.418756 0.776266 0.013162 0.849208 0.528031 0.000000 0.221337 0.503572
-0.436365 0.767775 0.037419 0.320566 -0.559099 0.764580 0.237798 0.532029
-0.421159 0.767775 0.027167 0.674093 -0.520646 0.523911 0.239499 0.512701
-0.457137 0.767775 0.041172 0.000000 -0.572588 0.819819 0.242593 0.553414
-0.477908 0.767775 0.037419 -0.320566 -0.559130 0.764580 0.252598 0.571124
-0.493114 0.767775 0.027167 -0.674093 -0.520646 0.523911 0.265132 0.580416
-0.493113 0.767775 -0.000843 -0.674093 -0.520676 -0.523881 0.284578 0.566704
-0.498679 0.767775 0.013162 -0.869808 -0.493332 0.000000 0.276838 0.578798
-0.477908 0.767775 -0.011095 -0.320566 -0.559099 -0.764580 0.286278 0.547376
-0.457136 0.767775 -0.014847 0.000000 -0.572588 -0.819819 0.281484 0.525991
-0.436365 0.767775 -0.011095 0.320566 -0.559099 -0.764580 0.271479 0.508281
-0.421159 0.767775 -0.000843 0.674093 -0.520646 -0.523911 0.258944 0.498990
-0.415594 0.767775 0.013162 0.869808 -0.493332 0.000000 0.247239 0.500607
-0.423898 0.767761 0.026101 0.002716 -0.999969 0.002441 0.241259 0.514756
-0.437947 0.767761 0.035573 0.001465 -0.999969 0.004028 0.239688 0.532614
-0.476327 0.767761 0.035573 -0.001465 -0.999969 0.004028 0.253361 0.568733
-0.457136 0.767761 0.039040 0.000000 -0.999969 0.004517 0.244118 0.552369
-0.490375 0.767761 0.026101 -0.002716 -0.999969 0.002441 0.264942 0.577317
-0.495517 0.767761 0.013162 -0.003265 -0.999969 0.000000 0.275756 0.575822
-0.490375 0.767761 0.000223 -0.002716 -0.999969 -0.002441 0.282907 0.564649
-0.476326 0.767761 -0.009248 -0.001465 -0.999969 -0.004028 0.284478 0.546791
-0.437946 0.767761 -0.009248 0.001465 -0.999969 -0.004028 0.270805 0.510673
-0.457137 0.767761 -0.012715 0.000000 -0.999969 -0.004547 0.280049 0.527036
-0.423898 0.767761 0.000223 0.002716 -0.999969 -0.002441 0.259225 0.502089
-0.418756 0.767761 0.013162 0.003235 -0.999969 0.000000 0.248410 0.503584
-0.431696 0.767749 0.023065 0.000885 -0.999969 0.000793 0.246183 0.520609
-0.442449 0.767749 0.030315 0.000488 -0.999969 0.001312 0.244981 0.534277
-0.471825 0.767749 0.030315 -0.000458 -0.999969 0.001312 0.255446 0.561922
-0.457136 0.767749 0.032968 0.000000 -0.999969 0.001465 0.248371 0.549397
-0.482575 0.767749 0.023065 -0.000885 -0.999969 0.000763 0.264309 0.568491
-0.486511 0.767749 0.013162 -0.001038 -0.999969 0.000000 0.272586 0.567347
-0.482575 0.767749 0.003259 -0.000885 -0.999969 -0.000793 0.278059 0.558795
-0.471824 0.767749 -0.003990 -0.000458 -0.999969 -0.001312 0.279262 0.545128
-0.442448 0.767749 -0.003990 0.000488 -0.999969 -0.001312 0.268797 0.517484
-0.457137 0.767749 -0.006644 0.000000 -0.999969 -0.001465 0.275872 0.530008
-0.431696 0.767749 0.003259 0.000885 -0.999969 -0.000793 0.259933 0.510914
-0.427762 0.767749 0.013162 0.001038 -0.999969 0.000000 0.251656 0.512058
-0.443369 0.767741 0.018522 0.000336 -0.999969 0.000305 0.253521 0.529370
-0.449187 0.767741 0.022445 0.000183 -0.999969 0.000519 0.252870 0.536766
-0.465085 0.767741 0.022445 -0.000183 -0.999969 0.000519 0.258534 0.551728
-0.457136 0.767741 0.023881 0.000000 -0.999969 0.000580 0.254705 0.544949
-0.470905 0.767741 0.018522 -0.000336 -0.999969 0.000305 0.263331 0.555284
-0.473034 0.767741 0.013162 -0.000427 -0.999969 0.000000 0.267810 0.554664
-0.470904 0.767741 0.007803 -0.000336 -0.999969 -0.000305 0.270772 0.550035
-0.465086 0.767741 0.003879 -0.000183 -0.999969 -0.000519 0.271423 0.542640
-0.449187 0.767741 0.003879 0.000183 -0.999969 -0.000519 0.265759 0.527678
-0.457137 0.767741 0.002443 0.000000 -0.999969 -0.000580 0.269589 0.534456
-0.443368 0.767741 0.007803 0.000336 -0.999969 -0.000305 0.260962 0.524122
-0.441239 0.767741 0.013162 0.000427 -0.999969 0.000000 0.256483 0.524742
-0.457136 0.792538 0.013162 0.000000 1.000000 0.000000 0.183216 0.539667
-0.457136 0.767738 0.013162 0.000000 -1.000000 0.000000 0.262155 0.539702
-0.443369 0.790532 0.018522 0.239235 0.947356 0.212683 0.180977 0.529338
-0.442449 0.784818 0.030315 0.248451 0.738121 0.627216 0.190650 0.534253
-0.431696 0.784818 0.023065 0.470931 0.788079 0.396313 0.191852 0.520585
-0.449187 0.790532 0.022445 0.127964 0.931028 0.341685 0.180326 0.536733
-0.457136 0.784818 0.032968 0.000000 0.715751 0.698325 0.194040 0.549373
-0.465086 0.790532 0.022445 -0.127903 0.931028 0.341716 0.185990 0.551695
-0.457136 0.790532 0.023881 0.000000 0.923826 0.382733 0.182160 0.544917
-0.470905 0.790532 0.018522 -0.239265 0.947356 0.212683 0.190786 0.555251
-0.471825 0.784818 0.030315 -0.248482 0.738121 0.627216 0.201115 0.561897
-0.473034 0.790532 0.013162 -0.290445 0.956877 0.000000 0.195266 0.554631
-0.482575 0.784818 0.023065 -0.470931 0.788110 0.396313 0.209978 0.568466
-0.482575 0.784818 0.003259 -0.470931 0.788079 -0.396344 0.223728 0.558771
-0.486511 0.784818 0.013162 -0.576678 0.816950 0.000000 0.218255 0.567323
-0.470904 0.790532 0.007803 -0.239235 0.947356 -0.212714 0.198228 0.550003
-0.471824 0.784818 -0.003990 -0.248482 0.738121 -0.627216 0.224930 0.545104
-0.465086 0.790532 0.003879 -0.127934 0.931028 -0.341685 0.198879 0.542607
-0.457137 0.784818 -0.006644 0.000000 0.715751 -0.698325 0.221540 0.529984
-0.449187 0.790532 0.003879 0.127934 0.931028 -0.341685 0.193215 0.527645
-0.457137 0.790532 0.002444 0.000000 0.923856 -0.382702 0.197044 0.534424
-0.443368 0.790532 0.007803 0.239265 0.947356 -0.212683 0.188418 0.524090
-0.442448 0.784818 -0.003990 0.248482 0.738121 -0.627216 0.214465 0.517459
-0.441239 0.790532 0.013162 0.290445 0.956877 0.000000 0.183939 0.524709
-0.431696 0.784818 0.003259 0.470962 0.788079 -0.396313 0.205602 0.510890
-0.427762 0.784818 0.013162 0.576678 0.816950 0.000000 0.197325 0.512034
-0.437947 0.776266 0.035574 0.341411 0.435224 0.833033 0.212615 0.532602
-0.423898 0.776266 0.026101 0.677694 0.493759 0.544847 0.214186 0.514744
-0.457136 0.776266 0.039040 0.000000 0.410657 0.911771 0.217044 0.552357
-0.476327 0.776266 0.035574 -0.341441 0.435224 0.833033 0.226288 0.568721
-0.490375 0.776266 0.026101 -0.677694 0.493789 0.544847 0.237868 0.577304
-0.490375 0.776266 0.000223 -0.677694 0.493759 -0.544847 0.255834 0.564637
-0.495517 0.776266 0.013162 -0.849208 0.528031 0.000000 0.248683 0.575810
-0.476326 0.776266 -0.009248 -0.341411 0.435224 -0.833033 0.257405 0.546779
-0.457137 0.776266 -0.012715 0.000000 0.410657 -0.911771 0.252976 0.527024
-0.437946 0.776266 -0.009248 0.341441 0.435224 -0.833033 0.243732 0.510661
-0.423898 0.776266 0.000223 0.677694 0.493759 -0.544847 0.232151 0.502077
-0.418756 0.776266 0.013162 0.849208 0.528031 0.000000 0.221337 0.503572
-0.436365 0.767775 0.037419 0.320566 -0.559099 0.764580 0.237798 0.532029
-0.421159 0.767775 0.027167 0.674093 -0.520646 0.523911 0.239499 0.512701
-0.457137 0.767775 0.041172 0.000000 -0.572588 0.819819 0.242593 0.553414
-0.477908 0.767775 0.037419 -0.320566 -0.559130 0.764580 0.252598 0.571124
-0.493114 0.767775 0.027167 -0.674093 -0.520646 0.523911 0.265132 0.580416
-0.493113 0.767775 -0.000843 -0.674093 -0.520676 -0.523881 0.284578 0.566704
-0.498679 0.767775 0.013162 -0.869808 -0.493332 0.000000 0.276838 0.578798
-0.477908 0.767775 -0.011095 -0.320566 -0.559099 -0.764580 0.286278 0.547376
-0.457136 0.767775 -0.014847 0.000000 -0.572588 -0.819819 0.281484 0.525991
-0.436365 0.767775 -0.011095 0.320566 -0.559099 -0.764580 0.271479 0.508281
-0.421159 0.767775 -0.000843 0.674093 -0.520646 -0.523911 0.258944 0.498990
-0.415594 0.767775 0.013162 0.869808 -0.493332 0.000000 0.247239 0.500607
-0.423898 0.767761 0.026101 0.002716 -0.999969 0.002441 0.241259 0.514756
-0.437947 0.767761 0.035573 0.001465 -0.999969 0.004028 0.239688 0.532614
-0.476327 0.767761 0.035573 -0.001465 -0.999969 0.004028 0.253361 0.568733
-0.457136 0.767761 0.039040 0.000000 -0.999969 0.004517 0.244118 0.552369
-0.490375 0.767761 0.026101 -0.002716 -0.999969 0.002441 0.264942 0.577317
-0.495517 0.767761 0.013162 -0.003265 -0.999969 0.000000 0.275756 0.575822
-0.490375 0.767761 0.000223 -0.002716 -0.999969 -0.002441 0.282907 0.564649
-0.476326 0.767761 -0.009248 -0.001465 -0.999969 -0.004028 0.284478 0.546791
-0.437946 0.767761 -0.009248 0.001465 -0.999969 -0.004028 0.270805 0.510673
-0.457137 0.767761 -0.012715 0.000000 -0.999969 -0.004547 0.280049 0.527036
-0.423898 0.767761 0.000223 0.002716 -0.999969 -0.002441 0.259225 0.502089
-0.418756 0.767761 0.013162 0.003235 -0.999969 0.000000 0.248410 0.503584
-0.431696 0.767749 0.023065 0.000885 -0.999969 0.000793 0.246183 0.520609
-0.442449 0.767749 0.030315 0.000488 -0.999969 0.001312 0.244981 0.534277
-0.471825 0.767749 0.030315 -0.000458 -0.999969 0.001312 0.255446 0.561922
-0.457136 0.767749 0.032968 0.000000 -0.999969 0.001465 0.248371 0.549397
-0.482575 0.767749 0.023065 -0.000885 -0.999969 0.000763 0.264309 0.568491
-0.486511 0.767749 0.013162 -0.001038 -0.999969 0.000000 0.272586 0.567347
-0.482575 0.767749 0.003259 -0.000885 -0.999969 -0.000793 0.278059 0.558795
-0.471824 0.767749 -0.003990 -0.000458 -0.999969 -0.001312 0.279262 0.545128
-0.442448 0.767749 -0.003990 0.000488 -0.999969 -0.001312 0.268797 0.517484
-0.457137 0.767749 -0.006644 0.000000 -0.999969 -0.001465 0.275872 0.530008
-0.431696 0.767749 0.003259 0.000885 -0.999969 -0.000793 0.259933 0.510914
-0.427762 0.767749 0.013162 0.001038 -0.999969 0.000000 0.251656 0.512058
-0.443369 0.767741 0.018522 0.000336 -0.999969 0.000305 0.253521 0.529370
-0.449187 0.767741 0.022445 0.000183 -0.999969 0.000519 0.252870 0.536766
-0.465085 0.767741 0.022445 -0.000183 -0.999969 0.000519 0.258534 0.551728
-0.457136 0.767741 0.023881 0.000000 -0.999969 0.000580 0.254705 0.544949
-0.470905 0.767741 0.018522 -0.000336 -0.999969 0.000305 0.263331 0.555284
-0.473034 0.767741 0.013162 -0.000427 -0.999969 0.000000 0.267810 0.554664
-0.470904 0.767741 0.007803 -0.000336 -0.999969 -0.000305 0.270772 0.550035
-0.465086 0.767741 0.003879 -0.000183 -0.999969 -0.000519 0.271423 0.542640
-0.449187 0.767741 0.003879 0.000183 -0.999969 -0.000519 0.265759 0.527678
-0.457137 0.767741 0.002443 0.000000 -0.999969 -0.000580 0.269589 0.534456
-0.443368 0.767741 0.007803 0.000336 -0.999969 -0.000305 0.260962 0.524122
-0.441239 0.767741 0.013162 0.000427 -0.999969 0.000000 0.256483 0.524742
-0.457136 0.792538 0.013162 0.000000 1.000000 0.000000 0.183216 0.539667
-0.457136 0.767738 0.013162 0.000000 -1.000000 0.000000 0.262155 0.539702
-0.443369 0.790532 0.018522 0.239235 0.947356 0.212683 0.180977 0.529338
-0.442449 0.784818 0.030315 0.248451 0.738121 0.627216 0.190650 0.534253
-0.431696 0.784818 0.023065 0.470931 0.788079 0.396313 0.191852 0.520585
-0.449187 0.790532 0.022445 0.127964 0.931028 0.341685 0.180326 0.536733
-0.457136 0.784818 0.032968 0.000000 0.715751 0.698325 0.194040 0.549373
-0.465086 0.790532 0.022445 -0.127903 0.931028 0.341716 0.185990 0.551695
-0.457136 0.790532 0.023881 0.000000 0.923826 0.382733 0.182160 0.544917
-0.470905 0.790532 0.018522 -0.239265 0.947356 0.212683 0.190786 0.555251
-0.471825 0.784818 0.030315 -0.248482 0.738121 0.627216 0.201115 0.561897
-0.473034 0.790532 0.013162 -0.290445 0.956877 0.000000 0.195266 0.554631
-0.482575 0.784818 0.023065 -0.470931 0.788110 0.396313 0.209978 0.568466
-0.482575 0.784818 0.003259 -0.470931 0.788079 -0.396344 0.223728 0.558771
-0.486511 0.784818 0.013162 -0.576678 0.816950 0.000000 0.218255 0.567323
-0.470904 0.790532 0.007803 -0.239235 0.947356 -0.212714 0.198228 0.550003
-0.471824 0.784818 -0.003990 -0.248482 0.738121 -0.627216 0.224930 0.545104
-0.465086 0.790532 0.003879 -0.127934 0.931028 -0.341685 0.198879 0.542607
-0.457137 0.784818 -0.006644 0.000000 0.715751 -0.698325 0.221540 0.529984
-0.449187 0.790532 0.003879 0.127934 0.931028 -0.341685 0.193215 0.527645
-0.457137 0.790532 0.002444 0.000000 0.923856 -0.382702 0.197044 0.534424
-0.443368 0.790532 0.007803 0.239265 0.947356 -0.212683 0.188418 0.524090
-0.442448 0.784818 -0.003990 0.248482 0.738121 -0.627216 0.214465 0.517459
-0.441239 0.790532 0.013162 0.290445 0.956877 0.000000 0.183939 0.524709
-0.431696 0.784818 0.003259 0.470962 0.788079 -0.396313 0.205602 0.510890
-0.427762 0.784818 0.013162 0.576678 0.816950 0.000000 0.197325 0.512034
-0.437947 0.776266 0.035574 0.341411 0.435224 0.833033 0.212615 0.532602
-0.423898 0.776266 0.026101 0.677694 0.493759 0.544847 0.214186 0.514744
-0.457136 0.776266 0.039040 0.000000 0.410657 0.911771 0.217044 0.552357
-0.476327 0.776266 0.035574 -0.341441 0.435224 0.833033 0.226288 0.568721
-0.490375 0.776266 0.026101 -0.677694 0.493789 0.544847 0.237868 0.577304
-0.490375 0.776266 0.000223 -0.677694 0.493759 -0.544847 0.255834 0.564637
-0.495517 0.776266 0.013162 -0.849208 0.528031 0.000000 0.248683 0.575810
-0.476326 0.776266 -0.009248 -0.341411 0.435224 -0.833033 0.257405 0.546779
-0.457137 0.776266 -0.012715 0.000000 0.410657 -0.911771 0.252976 0.527024
-0.437946 0.776266 -0.009248 0.341441 0.435224 -0.833033 0.243732 0.510661
-0.423898 0.776266 0.000223 0.677694 0.493759 -0.544847 0.232151 0.502077
-0.418756 0.776266 0.013162 0.849208 0.528031 0.000000 0.221337 0.503572
-0.436365 0.767775 0.037419 0.320566 -0.559099 0.764580 0.237798 0.532029
-0.421159 0.767775 0.027167 0.674093 -0.520646 0.523911 0.239499 0.512701
-0.457137 0.767775 0.041172 0.000000 -0.572588 0.819819 0.242593 0.553414
-0.477908 0.767775 0.037419 -0.320566 -0.559130 0.764580 0.252598 0.571124
-0.493114 0.767775 0.027167 -0.674093 -0.520646 0.523911 0.265132 0.580416
-0.493113 0.767775 -0.000843 -0.674093 -0.520676 -0.523881 0.284578 0.566704
-0.498679 0.767775 0.013162 -0.869808 -0.493332 0.000000 0.276838 0.578798
-0.477908 0.767775 -0.011095 -0.320566 -0.559099 -0.764580 0.286278 0.547376
-0.457136 0.767775 -0.014847 0.000000 -0.572588 -0.819819 0.281484 0.525991
-0.436365 0.767775 -0.011095 0.320566 -0.559099 -0.764580 0.271479 0.508281
-0.421159 0.767775 -0.000843 0.674093 -0.520646 -0.523911 0.258944 0.498990
-0.415594 0.767775 0.013162 0.869808 -0.493332 0.000000 0.247239 0.500607
-0.423898 0.767761 0.026101 0.002716 -0.999969 0.002441 0.241259 0.514756
-0.437947 0.767761 0.035573 0.001465 -0.999969 0.004028 0.239688 0.532614
-0.476327 0.767761 0.035573 -0.001465 -0.999969 0.004028 0.253361 0.568733
-0.457136 0.767761 0.039040 0.000000 -0.999969 0.004517 0.244118 0.552369
-0.490375 0.767761 0.026101 -0.002716 -0.999969 0.002441 0.264942 0.577317
-0.495517 0.767761 0.013162 -0.003265 -0.999969 0.000000 0.275756 0.575822
-0.490375 0.767761 0.000223 -0.002716 -0.999969 -0.002441 0.282907 0.564649
-0.476326 0.767761 -0.009248 -0.001465 -0.999969 -0.004028 0.284478 0.546791
-0.437946 0.767761 -0.009248 0.001465 -0.999969 -0.004028 0.270805 0.510673
-0.457137 0.767761 -0.012715 0.000000 -0.999969 -0.004547 0.280049 0.527036
-0.423898 0.767761 0.000223 0.002716 -0.999969 -0.002441 0.259225 0.502089
-0.418756 0.767761 0.013162 0.003235 -0.999969 0.000000 0.248410 0.503584
-0.431696 0.767749 0.023065 0.000885 -0.999969 0.000793 0.246183 0.520609
-0.442449 0.767749 0.030315 0.000488 -0.999969 0.001312 0.244981 0.534277
-0.471825 0.767749 0.030315 -0.000458 -0.999969 0.001312 0.255446 0.561922
-0.457136 0.767749 0.032968 0.000000 -0.999969 0.001465 0.248371 0.549397
-0.482575 0.767749 0.023065 -0.000885 -0.999969 0.000763 0.264309 0.568491
-0.486511 0.767749 0.013162 -0.001038 -0.999969 0.000000 0.272586 0.567347
-0.482575 0.767749 0.003259 -0.000885 -0.999969 -0.000793 0.278059 0.558795
-0.471824 0.767749 -0.003990 -0.000458 -0.999969 -0.001312 0.279262 0.545128
-0.442448 0.767749 -0.003990 0.000488 -0.999969 -0.001312 0.268797 0.517484
-0.457137 0.767749 -0.006644 0.000000 -0.999969 -0.001465 0.275872 0.530008
-0.431696 0.767749 0.003259 0.000885 -0.999969 -0.000793 0.259933 0.510914
-0.427762 0.767749 0.013162 0.001038 -0.999969 0.000000 0.251656 0.512058
-0.443369 0.767741 0.018522 0.000336 -0.999969 0.000305 0.253521 0.529370
-0.449187 0.767741 0.022445 0.000183 -0.999969 0.000519 0.252870 0.536766
-0.465085 0.767741 0.022445 -0.000183 -0.999969 0.000519 0.258534 0.551728
-0.457136 0.767741 0.023881 0.000000 -0.999969 0.000580 0.254705 0.544949
-0.470905 0.767741 0.018522 -0.000336 -0.999969 0.000305 0.263331 0.555284
-0.473034 0.767741 0.013162 -0.000427 -0.999969 0.000000 0.267810 0.554664
-0.470904 0.767741 0.007803 -0.000336 -0.999969 -0.000305 0.270772 0.550035
-0.465086 0.767741 0.003879 -0.000183 -0.999969 -0.000519 0.271423 0.542640
-0.449187 0.767741 0.003879 0.000183 -0.999969 -0.000519 0.265759 0.527678
-0.457137 0.767741 0.002443 0.000000 -0.999969 -0.000580 0.269589 0.534456
-0.443368 0.767741 0.007803 0.000336 -0.999969 -0.000305 0.260962 0.524122
-0.441239 0.767741 0.013162 0.000427 -0.999969 0.000000 0.256483 0.524742
-0.457136 0.792538 0.013162 0.000000 1.000000 0.000000 0.183216 0.539667
-0.457136 0.767738 0.013162 0.000000 -1.000000 0.000000 0.262155 0.539702
-0.443369 0.790532 0.018522 0.239235 0.947356 0.212683 0.180977 0.529338
-0.442449 0.784818 0.030315 0.248451 0.738121 0.627216 0.190650 0.534253
-0.431696 0.784818 0.023065 0.470931 0.788079 0.396313 0.191852 0.520585
-0.449187 0.790532 0.022445 0.127964 0.931028 0.341685 0.180326 0.536733
-0.457136 0.784818 0.032968 0.000000 0.715751 0.698325 0.194040 0.549373
-0.465086 0.790532 0.022445 -0.127903 0.931028 0.341716 0.185990 0.551695
-0.457136 0.790532 0.023881 0.000000 0.923826 0.382733 0.182160 0.544917
-0.470905 0.790532 0.018522 -0.239265 0.947356 0.212683 0.190786 0.555251
-0.471825 0.784818 0.030315 -0.248482 0.738121 0.627216 0.201115 0.561897
-0.473034 0.790532 0.013162 -0.290445 0.956877 0.000000 0.195266 0.554631
-0.482575 0.784818 0.023065 -0.470931 0.788110 0.396313 0.209978 0.568466
-0.482575 0.784818 0.003259 -0.470931 0.788079 -0.396344 0.223728 0.558771
-0.486511 0.784818 0.013162 -0.576678 0.816950 0.000000 0.218255 0.567323
-0.470904 0.790532 0.007803 -0.239235 0.947356 -0.212714 0.198228 0.550003
-0.471824 0.784818 -0.003990 -0.248482 0.738121 -0.627216 0.224930 0.545104
-0.465086 0.790532 0.003879 -0.127934 0.931028 -0.341685 0.198879 0.542607
-0.457137 0.784818 -0.006644 0.000000 0.715751 -0.698325 0.221540 0.529984
-0.449187 0.790532 0.003879 0.127934 0.931028 -0.341685 0.193215 0.527645
-0.457137 0.790532 0.002444 0.000000 0.923856 -0.382702 0.197044 0.534424
-0.443368 0.790532 0.007803 0.239265 0.947356 -0.212683 0.188418 0.524090
-0.442448 0.784818 -0.003990 0.248482 0.738121 -0.627216 0.214465 0.517459
-0.441239 0.790532 0.013162 0.290445 0.956877 0.000000 0.183939 0.524709
-0.431696 0.784818 0.003259 0.470962 0.788079 -0.396313 0.205602 0.510890
-0.427762 0.784818 0.013162 0.576678 0.816950 0.000000 0.197325 0.512034
-0.437947 0.776266 0.035574 0.341411 0.435224 0.833033 0.212615 0.532602
-0.423898 0.776266 0.026101 0.677694 0.493759 0.544847 0.214186 0.514744
-0.457136 0.776266 0.039040 0.000000 0.410657 0.911771 0.217044 0.552357
-0.476327 0.776266 0.035574 -0.341441 0.435224 0.833033 0.226288 0.568721
-0.490375 0.776266 0.026101 -0.677694 0.493789 0.544847 0.237868 0.577304
-0.490375 0.776266 0.000223 -0.677694 0.493759 -0.544847 0.255834 0.564637
-0.495517 0.776266 0.013162 -0.849208 0.528031 0.000000 0.248683 0.575810
-0.476326 0.776266 -0.009248 -0.341411 0.435224 -0.833033 0.257405 0.546779
-0.457137 0.776266 -0.012715 0.000000 0.410657 -0.911771 0.252976 0.527024
-0.437946 0.776266 -0.009248 0.341441 0.435224 -0.833033 0.243732 0.510661
-0.423898 0.776266 0.000223 0.677694 0.493759 -0.544847 0.232151 0.502077
-0.418756 0.776266 0.013162 0.849208 0.528031 0.000000 0.221337 0.503572
-0.436365 0.767775 0.037419 0.320566 -0.559099 0.764580 0.237798 0.532029
-0.421159 0.767775 0.027167 0.674093 -0.520646 0.523911 0.239499 0.512701
-0.457137 0.767775 0.041172 0.000000 -0.572588 0.819819 0.242593 0.553414
-0.477908 0.767775 0.037419 -0.320566 -0.559130 0.764580 0.252598 0.571124
-0.493114 0.767775 0.027167 -0.674093 -0.520646 0.523911 0.265132 0.580416
-0.493113 0.767775 -0.000843 -0.674093 -0.520676 -0.523881 0.284578 0.566704
-0.498679 0.767775 0.013162 -0.869808 -0.493332 0.000000 0.276838 0.578798
-0.477908 0.767775 -0.011095 -0.320566 -0.559099 -0.764580 0.286278 0.547376
-0.457136 0.767775 -0.014847 0.000000 -0.572588 -0.819819 0.281484 0.525991
-0.436365 0.767775 -0.011095 0.320566 -0.559099 -0.764580 0.271479 0.508281
-0.421159 0.767775 -0.000843 0.674093 -0.520646 -0.523911 0.258944 0.498990
-0.415594 0.767775 0.013162 0.869808 -0.493332 0.000000 0.247239 0.500607
-0.423898 0.767761 0.026101 0.002716 -0.999969 0.002441 0.241259 0.514756
-0.437947 0.767761 0.035573 0.001465 -0.999969 0.004028 0.239688 0.532614
-0.476327 0.767761 0.035573 -0.001465 -0.999969 0.004028 0.253361 0.568733
-0.457136 0.767761 0.039040 0.000000 -0.999969 0.004517 0.244118 0.552369
-0.490375 0.767761 0.026101 -0.002716 -0.999969 0.002441 0.264942 0.577317
-0.495517 0.767761 0.013162 -0.003265 -0.999969 0.000000 0.275756 0.575822
-0.490375 0.767761 0.000223 -0.002716 -0.999969 -0.002441 0.282907 0.564649
-0.476326 0.767761 -0.009248 -0.001465 -0.999969 -0.004028 0.284478 0.546791
-0.437946 0.767761 -0.009248 0.001465 -0.999969 -0.004028 0.270805 0.510673
-0.457137 0.767761 -0.012715 0.000000 -0.999969 -0.004547 0.280049 0.527036
-0.423898 0.767761 0.000223 0.002716 -0.999969 -0.002441 0.259225 0.502089
-0.418756 0.767761 0.013162 0.003235 -0.999969 0.000000 0.248410 0.503584
-0.431696 0.767749 0.023065 0.000885 -0.999969 0.000793 0.246183 0.520609
-0.442449 0.767749 0.030315 0.000488 -0.999969 0.001312 0.244981 0.534277
-0.471825 0.767749 0.030315 -0.000458 -0.999969 0.001312 0.255446 0.561922
-0.457136 0.767749 0.032968 0.000000 -0.999969 0.001465 0.248371 0.549397
-0.482575 0.767749 0.023065 -0.000885 -0.999969 0.000763 0.264309 0.568491
-0.486511 0.767749 0.013162 -0.001038 -0.999969 0.000000 0.272586 0.567347
-0.482575 0.767749 0.003259 -0.000885 -0.999969 -0.000793 0.278059 0.558795
-0.471824 0.767749 -0.003990 -0.000458 -0.999969 -0.001312 0.279262 0.545128
-0.442448 0.767749 -0.003990 0.000488 -0.999969 -0.001312 0.268797 0.517484
-0.457137 0.767749 -0.006644 0.000000 -0.999969 -0.001465 0.275872 0.530008
-0.431696 0.767749 0.003259 0.000885 -0.999969 -0.000793 0.259933 0.510914
-0.427762 0.767749 0.013162 0.001038 -0.999969 0.000000 0.251656 0.512058
-0.443369 0.767741 0.018522 0.000336 -0.999969 0.000305 0.253521 0.529370
-0.449187 0.767741 0.022445 0.000183 -0.999969 0.000519 0.252870 0.536766
-0.465085 0.767741 0.022445 -0.000183 -0.999969 0.000519 0.258534 0.551728
-0.457136 0.767741 0.023881 0.000000 -0.999969 0.000580 0.254705 0.544949
-0.470905 0.767741 0.018522 -0.000336 -0.999969 0.000305 0.263331 0.555284
-0.473034 0.767741 0.013162 -0.000427 -0.999969 0.000000 0.267810 0.554664
-0.470904 0.767741 0.007803 -0.000336 -0.999969 -0.000305 0.270772 0.550035
-0.465086 0.767741 0.003879 -0.000183 -0.999969 -0.000519 0.271423 0.542640
-0.449187 0.767741 0.003879 0.000183 -0.999969 -0.000519 0.265759 0.527678
-0.457137 0.767741 0.002443 0.000000 -0.999969 -0.000580 0.269589 0.534456
-0.443368 0.767741 0.007803 0.000336 -0.999969 -0.000305 0.260962 0.524122
-0.441239 0.767741 0.013162 0.000427 -0.999969 0.000000 0.256483 0.524742
-0.457136 0.792538 0.013162 0.000000 1.000000 0.000000 0.183216 0.539667
-0.457136 0.767738 0.013162 0.000000 -1.000000 0.000000 0.262155 0.539702
3 0 1 2
3 3 4 1
3 5 4 6
3 7 8 5
3 9 10 7
3 9 11 12
3 13 14 11
3 15 16 14
3 17 16 18
3 19 20 17
3 21 22 19
3 21 2 23
3 2 24 25
3 1 26 24
3 8 26 4
3 10 27 8
3 12 28 10
3 12 29 30
3 11 31 29
3 14 32 31
3 20 32 16
3 22 33 20
3 23 34 22
3 23 25 35
3 25 36 37
3 24 38 36
3 27 38 26
3 28 39 27
3 30 40 28
3 30 41 42
3 29 43 41
3 31 44 43
3 33 44 32
3 34 45 33
3 35 46 34
3 35 37 47
3 36 48 37
3 38 49 36
3 38 50 51
3 39 52 50
3 40 53 52
3 41 53 42
3 43 54 41
3 44 55 43
3 44 56 57
3 45 58 56
3 46 59 58
3 37 59 47
3 49 60 48
3 51 61 49
3 51 62 63
3 50 64 62
3 52 65 64
3 54 65 53
3 55 66 54
3 57 67 55
3 57 68 69
3 56 70 68
3 58 71 70
3 48 71 59
3 61 72 60
3 63 73 61
3 63 74 75
3 62 76 74
3 64 77 76
3 66 77 65
3 67 78 66
3 69 79 67
3 69 80 81
3 68 82 80
3 70 83 82
3 60 83 71
3 3 0 84
3 6 3 84
3 5 6 84
3 7 5 84
3 9 7 84
3 13 9 84
3 15 13 84
3 18 15 84
3 17 18 84
3 19 17 84
3 21 19 84
3 0 21 84
3 72 73 85
3 73 75 85
3 75 74 85
3 74 76 85
3 76 77 85
3 77 78 85
3 78 79 85
3 79 81 85
3 81 80 85
3 80 82 85
3 82 83 85
3 83 72 85
3 86 87 88
3 89 90 87
3 91 90 92
3 93 94 91
3 95 96 93
3 95 97 98
3 99 100 97
3 101 102 100
3 103 102 104
3 105 106 103
3 107 108 105
3 107 88 109
3 88 110 111
3 87 112 110
3 94 112 90
3 96 113 94
3 98 114 96
3 98 115 116
3 97 117 115
3 100 118 117
3 106 118 102
3 108 119 106
3 109 120 108
3 109 111 121
3 111 122 123
3 110 124 122
3 113 124 112
3 114 125 113
3 116 126 114
3 116 127 128
3 115 129 127
3 117 130 129
3 119 130 118
3 120 131 119
3 121 132 120
3 121 123 133
3 122 134 123
3 124 135 122
3 124 136 137
3 125 138 136
3 126 139 138
3 127 139 128
3 129 140 127
3 130 141 129
3 130 142 143
3 131 144 142
3 132 145 144
3 123 145 133
3 135 146 134
3 137 147 135
3 137 148 149
3 136 150 148
3 138 151 150
3 140 151 139
3 141 152 140
3 143 153 141
3 143 154 155
3 142 156 154
3 144 157 156
3 134 157 145
3 147 158 146
3 149 159 147
3 149 160 161
3 148 162 160
3 150 163 162
3 152 163 151
3 153 164 152
3 155 165 153
3 155 166 167
3 154 168 166
3 156 169 168
3 146 169 157
3 89 86 170
3 92 89 170
3 91 92 170
3 93 91 170
3 95 93 170
3 99 95 170
3 101 99 170
3 104 101 170
3 103 104 170
3 105 103 170
3 107 105 170
3 86 107 170
3 158 159 171
3 159 161 171
3 161 160 171
3 160 162 171
3 162 163 171
3 163 164 171
3 164 165 171
3 165 167 171
3 167 166 171
3 166 168 171
3 168 169 171
3 169 158 171
3 172 173 174
3 175 176 173
3 177 176 178
3 179 180 177
3 181 182 179
3 181 183 184
3 185 186 183
3 187 188 186
3 189 188 190
3 191 192 189
3 193 194 191
3 193 174 195
3 174 196 197
3 173 198 196
3 180 198 176
3 182 199 180
3 184 200 182
3 184 201 202
3 183 203 201
3 186 204 203
3 192 204 188
3 194 205 192
3 195 206 194
3 195 197 207
3 197 208 209
3 196 210 208
3 199 210 198
3 200 211 199
3 202 212 200
3 202 213 214
3 201 215 213
3 203 216 215
3 205 216 204
3 206 217 205
3 207 218 206
3 207 209 219
3 208 220 209
3 210 221 208
3 210 222 223
3 211 224 222
3 212 225 224
3 213 225 214
3 215 226 213
3 216 227 215
3 216 228 229
3 217 230 228
3 218 231 230
3 209 231 219
3 221 232 220
3 223 233 221
3 223 234 235
3 222 236 234
3 224 237 236
3 226 237 225
3 227 238 226
3 229 239 227
3 229 240 241
3 228 242 240
3 230 243 242
3 220 243 231
3 233 244 232
3 235 245 233
3 235 246 247
3 234 248 246
3 236 249 248
3 238 249 237
3 239 250 238
3 241 251 239
3 241 252 253
3 240 254 252
3 242 255 254
3 232 255 243
3 175 172 256
3 178 175 256
3 177 178 256
3 179 177 256
3 181 179 256
3 185 181 256
3 187 185 256
3 190 187 256
3 189 190 256
3 191 189 256
3 193 191 256
3 172 193 256
3 244 245 257
3 245 247 257
3 247 246 257
3 246 248 257
3 248 249 257
3 249 250 257
3 250 251 257
3 251 253 257
3 253 252 257
3 252 254 257
3 254 255 257
3 255 244 257
3 258 259 260
3 261 262 259
3 263 262 264
3 265 266 263
3 267 268 265
3 267 269 270
3 271 272 269
3 273 274 272
3 275 274 276
3 277 278 275
3 279 280 277
3 279 260 281
3 260 282 283
3 259 284 282
3 266 284 262
3 268 285 266
3 270 286 268
3 270 287 288
3 269 289 287
3 272 290 289
3 278 290 274
3 280 291 278
3 281 292 280
3 281 283 293
3 283 294 295
3 282 296 294
3 285 296 284
3 286 297 285
3 288 298 286
3 288 299 300
3 287 301 299
3 289 302 301
3 291 302 290
3 292 303 291
3 293 304 292
3 293 295 305
3 294 306 295
3 296 307 294
3 296 308 309
3 297 310 308
3 298 311 310
3 299 311 300
3 301 312 299
3 302 313 301
3 302 314 315
3 303 316 314
3 304 317 316
3 295 317 305
3 307 318 306
3 309 319 307
3 309 320 321
3 308 322 320
3 310 323 322
3 312 323 311
3 313 324 312
3 315 325 313
3 315 326 327
3 314 328 326
3 316 329 328
3 306 329 317
3 319 330 318
3 321 331 319
3 321 332 333
3 320 334 332
3 322 335 334
3 324 335 323
3 325 336 324
3 327 337 325
3 327 338 339
3 326 340 338
3 328 341 340
3 318 341 329
3 261 258 342
3 264 261 342
3 263 264 342
3 265 263 342
3 267 265 342
3 271 267 342
3 273 271 342
3 276 273 342
3 275 276 342
3 277 275 342
3 279 277 342
3 258 279 342
3 330 331 343
3 331 333 343
3 333 332 343
3 332 334 343
3 334 335 343
3 335 336 343
3 336 337 343
3 337 339 343
3 339 338 343
3 338 340 343
3 340 341 343
3 341 330 343
3 344 345 346
3 347 348 345
3 349 348 350
3 351 352 349
3 353 354 351
3 353 355 356
3 357 358 355
3 359 360 358
3 361 360 362
3 363 364 361
3 365 366 363
3 365 346 367
3 346 368 369
3 345 370 368
3 352 370 348
3 354 371 352
3 356 372 354
3 356 373 374
3 355 375 373
3 358 376 375
3 364 376 360
3 366 377 364
3 367 378 366
3 367 369 379
3 369 380 381
3 368 382 380
3 371 382 370
3 372 383 371
3 374 384 372
3 374 385 386
3 373 387 385
3 375 388 387
3 377 388 376
3 378 389 377
3 379 390 378
3 379 381 391
3 380 392 381
3 382 393 380
3 382 394 395
3 383 396 394
3 384 397 396
3 385 397 386
3 387 398 385
3 388 399 387
3 388 400 401
3 389 402 400
3 390 403 402
3 381 403 391
3 393 404 392
3 395 405 393
3 395 406 407
3 394 408 406
3 396 409 408
3 398 409 397
3 399 410 398
3 401 411 399
3 401 412 413
3 400 414 412
3 402 415 414
3 392 415 403
3 405 416 404
3 407 417 405
3 407 418 419
3 406 420 418
3 408 421 420
3 410 421 409
3 411 422 410
3 413 423 411
3 413 424 425
3 412 426 424
3 414 427 426
3 404 427 415
3 347 344 428
3 350 347 428
3 349 350 428
3 351 349 428
3 353 351 428
3 357 353 428
3 359 357 428
3 362 359 428
3 361 362 428
3 363 361 428
3 365 363 428
3 344 365 428
3 416 417 429
3 417 419 429
3 419 418 429
3 418 420 429
3 420 421 429
3 421 422 429
3 422 423 429
3 423 425 429
3 425 424 429
3 424 426 429
3 426 427 429
3 427 416 429
3 430 431 432
3 433 434 431
3 435 434 436
3 437 438 435
3 439 440 437
3 439 441 442
3 443 444 441
3 445 446 444
3 447 446 448
3 449 450 447
3 451 452 449
3 451 432 453
3 432 454 455
3 431 456 454
3 438 456 434
3 440 457 438
3 442 458 440
3 442 459 460
3 441 461 459
3 444 462 461
3 450 462 446
3 452 463 450
3 453 464 452
3 453 455 465
3 455 466 467
3 454 468 466
3 457 468 456
3 458 469 457
3 460 470 458
3 460 471 472
3 459 473 471
3 461 474 473
3 463 474 462
3 464 475 463
3 465 476 464
3 465 467 477
3 466 478 467
3 468 479 466
3 468 480 481
3 469 482 480
3 470 483 482
3 471 483 472
3 473 484 471
3 474 485 473
3 474 486 487
3 475 488 486
3 476 489 488
3 467 489 477
3 479 490 478
3 481 491 479
3 481 492 493
3 480 494 492
3 482 495 494
3 484 495 483
3 485 496 484
3 487 497 485
3 487 498 499
3 486 500 498
3 488 501 500
3 478 501 489
3 491 502 490
3 493 503 491
3 493 504 505
3 492 506 504
3 494 507 506
3 496 507 495
3 497 508 496
3 499 509 497
3 499 510 511
3 498 512 510
3 500 513 512
3 490 513 501
3 433 430 514
3 436 433 514
3 435 436 514
3 437 435 514
3 439 437 514
3 443 439 514
3 445 443 514
3 448 445 514
3 447 448 514
3 449 447 514
3 451 449 514
3 430 451 514
3 502 503 515
3 503 505 515
3 505 504 515
3 504 506 515
3 506 507 515
3 507 508 515
3 508 509 515
3 509 511 515
3 511 510 515
3 510 512 515
3 512 513 515
3 513 502 515
3 516 517 518
3 519 520 517
3 521 520 522
3 523 524 521
3 525 526 523
3 525 527 528
3 529 530 527
3 531 532 530
3 533 532 534
3 535 536 533
3 537 538 535
3 537 518 539
3 518 540 541
3 517 542 540
3 524 542 520
3 526 543 524
3 528 544 526
3 528 545 546
3 527 547 545
3 530 548 547
3 536 548 532
3 538 549 536
3 539 550 538
3 539 541 551
3 541 552 553
3 540 554 552
3 543 554 542
3 544 555 543
3 546 556 544
3 546 557 558
3 545 559 557
3 547 560 559
3 549 560 548
3 550 561 549
3 551 562 550
3 551 553 563
3 552 564 553
3 554 565 552
3 554 566 567
3 555 568 566
3 556 569 568
3 557 569 558
3 559 570 557
3 560 571 559
3 560 572 573
3 561 574 572
3 562 575 574
3 553 575 563
3 565 576 564
3 567 577 565
3 567 578 579
3 566 580 578
3 568 581 580
3 570 581 569
3 571 582 570
3 573 583 571
3 573 584 585
3 572 586 584
3 574 587 586
3 564 587 575
3 577 588 576
3 579 589 577
3 579 590 591
3 578 592 590
3 580 593 592
3 582 593 581
3 583 594 582
3 585 595 583
3 585 596 597
3 584 598 596
3 586 599 598
3 576 599 587
3 519 516 600
3 522 519 600
3 521 522 600
3 523 521 600
3 525 523 600
3 529 525 600
3 531 529 600
3 534 531 600
3 533 534 600
3 535 533 600
3 537 535 600
3 516 537 600
3 588 589 601
3 589 591 601
3 591 590 601
3 590 592 601
3 592 593 601
3 593 594 601
3 594 595 601
3 595 597 601
3 597 596 601
3 596 598 601
3 598 599 601
3 599 588 601
3 602 603 604
3 605 606 603
3 607 606 608
3 609 610 607
3 611 612 609
3 611 613 614
3 615 616 613
3 617 618 616
3 619 618 620
3 621 622 619
3 623 624 621
3 623 604 625
3 604 626 627
3 603 628 626
3 610 628 606
3 612 629 610
3 614 630 612
3 614 631 632
3 613 633 631
3 616 634 633
3 622 634 618
3 624 635 622
3 625 636 624
3 625 627 637
3 627 638 639
3 626 640 638
3 629 640 628
3 630 641 629
3 632 642 630
3 632 643 644
3 631 645 643
3 633 646 645
3 635 646 634
3 636 647 635
3 637 648 636
3 637 639 649
3 638 650 639
3 640 651 638
3 640 652 653
3 641 654 652
3 642 655 654
3 643 655 644
3 645 656 643
3 646 657 645
3 646 658 659
3 647 660 658
3 648 661 660
3 639 661 649
3 651 662 650
3 653 663 651
3 653 664 665
3 652 666 664
3 654 667 666
3 656 667 655
3 657 668 656
3 659 669 657
3 659 670 671
3 658 672 670
3 660 673 672
3 650 673 661
3 663 674 662
3 665 675 663
3 665 676 677
3 664 678 676
3 666 679 678
3 668 679 667
3 669 680 668
3 671 681 669
3 671 682 683
3 670 684 682
3 672 685 684
3 662 685 673
3 605 602 686
3 608 605 686
3 607 608 686
3 609 607 686
3 611 609 686
3 615 611 686
3 617 615 686
3 620 617 686
3 619 620 686
3 621 619 686
3 623 621 686
3 602 623 686
3 674 675 687
3 675 677 687
3 677 676 687
3 676 678 687
3 678 679 687
3 679 680 687
3 680 681 687
3 681 683 687
3 683 682 687
3 682 684 687
3 684 685 687
3 685 674 687
3 688 689 690
3 691 692 689
3 693 692 694
3 695 696 693
3 697 698 695
3 697 699 700
3 701 702 699
3 703 704 702
3 705 704 706
3 707 708 705
3 709 710 707
3 709 690 711
3 690 712 713
3 689 714 712
3 696 714 692
3 698 715 696
3 700 716 698
3 700 717 718
3 699 719 717
3 702 720 719
3 708 720 704
3 710 721 708
3 711 722 710
3 711 713 723
3 713 724 725
3 712 726 724
3 715 726 714
3 716 727 715
3 718 728 716
3 718 729 730
3 717 731 729
3 719 732 731
3 721 732 720
3 722 733 721
3 723 734 722
3 723 725 735
3 724 736 725
3 726 737 724
3 726 738 739
3 727 740 738
3 728 741 740
3 729 741 730
3 731 742 729
3 732 743 731
3 732 744 745
3 733 746 744
3 734 747 746
3 725 747 735
3 737 748 736
3 739 749 737
3 739 750 751
3 738 752 750
3 740 753 752
3 742 753 741
3 743 754 742
3 745 755 743
3 745 756 757
3 744 758 756
3 746 759 758
3 736 759 747
3 749 760 748
3 751 761 749
3 751 762 763
3 750 764 762
3 752 765 764
3 754 765 753
3 755 766 754
3 757 767 755
3 757 768 769
3 756 770 768
3 758 771 770
3 748 771 759
3 691 688 772
3 694 691 772
3 693 694 772
3 695 693 772
3 697 695 772
3 701 697 772
3 703 701 772
3 706 703 772
3 705 706 772
3 707 705 772
3 709 707 772
3 688 709 772
3 760 761 773
3 761 763 773
3 763 762 773
3 762 764 773
3 764 765 773
3 765 766 773
3 766 767 773
3 767 769 773
3 769 768 773
3 768 770 773
3 770 771 773
3 771 760 773
3 0 3 1
3 3 6 4
3 5 8 4
3 7 10 8
3 9 12 10
3 9 13 11
3 13 15 14
3 15 18 16
3 17 20 16
3 19 22 20
3 21 23 22
3 21 0 2
3 2 1 24
3 1 4 26
3 8 27 26
3 10 28 27
3 12 30 28
3 12 11 29
3 11 14 31
3 14 16 32
3 20 33 32
3 22 34 33
3 23 35 34
3 23 2 25
3 25 24 36
3 24 26 38
3 27 39 38
3 28 40 39
3 30 42 40
3 30 29 41
3 29 31 43
3 31 32 44
3 33 45 44
3 34 46 45
3 35 47 46
3 35 25 37
3 36 49 48
3 38 51 49
3 38 39 50
3 39 40 52
3 40 42 53
3 41 54 53
3 43 55 54
3 44 57 55
3 44 45 56
3 45 46 58
3 46 47 59
3 37 48 59
3 49 61 60
3 51 63 61
3 51 50 62
3 50 52 64
3 52 53 65
3 54 66 65
3 55 67 66
3 57 69 67
3 57 56 68
3 56 58 70
3 58 59 71
3 48 60 71
3 61 73 72
3 63 75 73
3 63 62 74
3 62 64 76
3 64 65 77
3 66 78 77
3 67 79 78
3 69 81 79
3 69 68 80
3 68 70 82
3 70 71 83
3 60 72 83
3 86 89 87
3 89 92 90
3 91 94 90
3 93 96 94
3 95 98 96
3 95 99 97
3 99 101 100
3 101 104 102
3 103 106 102
3 105 108 106
3 107 109 108
3 107 86 88
3 88 87 110
3 87 90 112
3 94 113 112
3 96 114 113
3 98 116 114
3 98 97 115
3 97 100 117
3 100 102 118
3 106 119 118
3 108 120 119
3 109 121 120
3 109 88 111
3 111 110 122
3 110 112 124
3 113 125 124
3 114 126 125
3 116 128 126
3 116 115 127
3 115 117 129
3 117 118 130
3 119 131 130
3 120 132 131
3 121 133 132
3 121 111 123
3 122 135 134
3 124 137 135
3 124 125 136
3 125 126 138
3 126 128 139
3 127 140 139
3 129 141 140
3 130 143 141
3 130 131 142
3 131 132 144
3 132 133 145
3 123 134 145
3 135 147 146
3 137 149 147
3 137 136 148
3 136 138 150
3 138 139 151
3 140 152 151
3 141 153 152
3 143 155 153
3 143 142 154
3 142 144 156
3 144 145 157
3 134 146 157
3 147 159 158
3 149 161 159
3 149 148 160
3 148 150 162
3 150 151 163
3 152 164 163
3 153 165 164
3 155 167 165
3 155 154 166
3 154 156 168
3 156 157 169
3 146 158 169
3 172 175 173
3 175 178 176
3 177 180 176
3 179 182 180
3 181 184 182
3 181 185 183
3 185 187 186
3 187 190 188
3 189 192 188
3 191 194 192
3 193 195 194
3 193 172 174
3 174 173 196
3 173 176 198
3 180 199 198
3 182 200 199
3 184 202 200
3 184 183 201
3 183 186 203
3 186 188 204
3 192 205 204
3 194 206 205
3 195 207 206
3 195 174 197
3 197 196 208
3 196 198 210
3 199 211 210
3 200 212 211
3 202 214 212
3 202 201 213
3 201 203 215
3 203 204 216
3 205 217 216
3 206 218 217
3 207 219 218
3 207 197 209
3 208 221 220
3 210 223 221
3 210 211 222
3 211 212 224
3 212 214 225
3 213 226 225
3 215 227 226
3 216 229 227
3 216 217 228
3 217 218 230
3 218 219 231
3 209 220 231
3 221 233 232
3 223 235 233
3 223 222 234
3 222 224 236
3 224 225 237
3 226 238 237
3 227 239 238
3 229 241 239
3 229 228 240
3 228 230 242
3 230 231 243
3 220 232 243
3 233 245 244
3 235 247 245
3 235 234 246
3 234 236 248
3 236 237 249
3 238 250 249
3 239 251 250
3 241 253 251
3 241 240 252
3 240 242 254
3 242 243 255
3 232 244 255
3 258 261 259
3 261 264 262
3 263 266 262
3 265 268 266
3 267 270 268
3 267 271 269
3 271 273 272
3 273 276 274
3 275 278 274
3 277 280 278
3 279 281 280
3 279 258 260
3 260 259 282
3 259 262 284
3 266 285 284
3 268 286 285
3 270 288 286
3 270 269 287
3 269 272 289
3 272 274 290
3 278 291 290
3 280 292 291
3 281 293 292
3 281 260 283
3 283 282 294
3 282 284 296
3 285 297 296
3 286 298 297
3 288 300 298
3 288 287 299
3 287 289 301
3 289 290 302
3 291 303 302
3 292 304 303
3 293 305 304
3 293 283 295
3 294 307 306
3 296 309 307
3 296 297 308
3 297 298 310
3 298 300 311
3 299 312 311
3 301 313 312
3 302 315 313
3 302 303 314
3 303 304 316
3 304 305 317
3 295 306 317
3 307 319 318
3 309 321 319
3 309 308 320
3 308 310 322
3 310 311 323
3 312 324 323
3 313 325 324
3 315 327 325
3 315 314 326
3 314 316 328
3 316 317 329
3 306 318 329
3 319 331 330
3 321 333 331
3 321 320 332
3 320 322 334
3 322 323 335
3 324 336 335
3 325 337 336
3 327 339 337
3 327 326 338
3 326 328 340
3 328 329 341
3 318 330 341
3 344 347 345
3 347 350 348
3 349 352 348
3 351 354 352
3 353 356 354
3 353 357 355
3 357 359 358
3 359 362 360
3 361 364 360
3 363 366 364
3 365 367 366
3 365 344 346
3 346 345 368
3 345 348 370
3 352 371 370
3 354 372 371
3 356 374 372
3 356 355 373
3 355 358 375
3 358 360 376
3 364 377 376
3 366 378 377
3 367 379 378
3 367 346 369
3 369 368 380
3 368 370 382
3 371 383 382
3 372 384 383
3 374 386 384
3 374 373 385
3 373 375 387
3 375 376 388
3 377 389 388
3 378 390 389
3 379 391 390
3 379 369 381
3 380 393 392
3 382 395 393
3 382 383 394
3 383 384 396
3 384 386 397
3 385 398 397
3 387 399 398
3 388 401 399
3 388 389 400
3 389 390 402
3 390 391 403
3 381 392 403
3 393 405 404
3 395 407 405
3 395 394 406
3 394 396 408
3 396 397 409
3 398 410 409
3 399 411 410
3 401 413 411
3 401 400 412
3 400 402 414
3 402 403 415
3 392 404 415
3 405 417 416
3 407 419 417
3 407 406 418
3 406 408 420
3 408 409 421
3 410 422 421
3 411 423 422
3 413 425 423
3 413 412 424
3 412 414 426
3 414 415 427
3 404 416 427
3 430 433 431
3 433 436 434
3 435 438 434
3 437 440 438
3 439 442 440
3 439 443 441
3 443 445 444
3 445 448 446
3 447 450 446
3 449 452 450
3 451 453 452
3 451 430 432
3 432 431 454
3 431 434 456
3 438 457 456
3 440 458 457
3 442 460 458
3 442 441 459
3 441 444 461
3 444 446 462
3 450 463 462
3 452 464 463
3 453 465 464
3 453 432 455
3 455 454 466
3 454 456 468
3 457 469 468
3 458 470 469
3 460 472 470
3 460 459 471
3 459 461 473
3 461 462 474
3 463 475 474
3 464 476 475
3 465 477 476
3 465 455 467
3 466 479 478
3 468 481 479
3 468 469 480
3 469 470 482
3 470 472 483
3 471 484 483
3 473 485 484
3 474 487 485
3 474 475 486
3 475 476 488
3 476 477 489
3 467 478 489
3 479 491 490
3 481 493 491
3 481 480 492
3 480 482 494
3 482 483 495
3 484 496 495
3 485 497 496
3 487 499 497
3 487 486 498
3 486 488 500
3 488 489 501
3 478 490 501
3 491 503 502
3 493 505 503
3 493 492 504
3 492 494 506
3 494 495 507
3 496 508 507
3 497 509 508
3 499 511 509
3 499 498 510
3 498 500 512
3 500 501 513
3 490 502 513
3 516 519 517
3 519 522 520
3 521 524 520
3 523 526 524
3 525 528 526
3 525 529 527
3 529 531 530
3 531 534 532
3 533 536 532
3 535 538 536
3 537 539 538
3 537 516 518
3 518 517 540
3 517 520 542
3 524 543 542
3 526 544 543
3 528 546 544
3 528 527 545
3 527 530 547
3 530 532 548
3 536 549 548
3 538 550 549
3 539 551 550
3 539 518 541
3 541 540 552
3 540 542 554
3 543 555 554
3 544 556 555
3 546 558 556
3 546 545 557
3 545 547 559
3 547 548 560
3 549 561 560
3 550 562 561
3 551 563 562
3 551 541 553
3 552 565 564
3 554 567 565
3 554 555 566
3 555 556 568
3 556 558 569
3 557 570 569
3 559 571 570
3 560 573 571
3 560 561 572
3 561 562 574
3 562 563 575
3 553 564 575
3 565 577 576
3 567 579 577
3 567 566 578
3 566 568 580
3 568 569 581
3 570 582 581
3 571 583 582
3 573 585 583
3 573 572 584
3 572 574 586
3 574 575 587
3 564 576 587
3 577 589 588
3 579 591 589
3 579 578 590
3 578 580 592
3 580 581 593
3 582 594 593
3 583 595 594
3 585 597 595
3 585 584 596
3 584 586 598
3 586 587 599
3 576 588 599
3 602 605 603
3 605 608 606
3 607 610 606
3 609 612 610
3 611 614 612
3 611 615 613
3 615 617 616
3 617 620 618
3 619 622 618
3 621 624 622
3 623 625 624
3 623 602 604
3 604 603 626
3 603 606 628
3 610 629 628
3 612 630 629
3 614 632 630
3 614 613 631
3 613 616 633
3 616 618 634
3 622 635 634
3 624 636 635
3 625 637 636
3 625 604 627
3 627 626 638
3 626 628 640
3 629 641 640
3 630 642 641
3 632 644 642
3 632 631 643
3 631 633 645
3 633 634 646
3 635 647 646
3 636 648 647
3 637 649 648
3 637 627 639
3 638 651 650
3 640 653 651
3 640 641 652
3 641 642 654
3 642 644 655
3 643 656 655
3 645 657 656
3 646 659 657
3 646 647 658
3 647 648 660
3 648 649 661
3 639 650 661
3 651 663 662
3 653 665 663
3 653 652 664
3 652 654 666
3 654 655 667
3 656 668 667
3 657 669 668
3 659 671 669
3 659 658 670
3 658 660 672
3 660 661 673
3 650 662 673
3 663 675 674
3 665 677 675
3 665 664 676
3 664 666 678
3 666 667 679
3 668 680 679
3 669 681 680
3 671 683 681
3 671 670 682
3 670 672 684
3 672 673 685
3 662 674 685
3 688 691 689
3 691 694 692
3 693 696 692
3 695 698 696
3 697 700 698
3 697 701 699
3 701 703 702
3 703 706 704
3 705 708 704
3 707 710 708
3 709 711 710
3 709 688 690
3 690 689 712
3 689 692 714
3 696 715 714
3 698 716 715
3 700 718 716
3 700 699 717
3 699 702 719
3 702 704 720
3 708 721 720
3 710 722 721
3 711 723 722
3 711 690 713
3 713 712 724
3 712 714 726
3 715 727 726
3 716 728 727
3 718 730 728
3 718 717 729
3 717 719 731
3 719 720 732
3 721 733 732
3 722 734 733
3 723 735 734
3 723 713 725
3 724 737 736
3 726 739 737
3 726 727 738
3 727 728 740
3 728 730 741
3 729 742 741
3 731 743 742
3 732 745 743
3 732 733 744
3 733 734 746
3 734 735 747
3 725 736 747
3 737 749 748
3 739 751 749
3 739 738 750
3 738 740 752
3 740 741 753
3 742 754 753
3 743 755 754
3 745 757 755
3 745 744 756
3 744 746 758
3 746 747 759
3 736 748 759
3 749 761 760
3 751 763 761
3 751 750 762
3 750 752 764
3 752 753 765
3 754 766 765
3 755 767 766
3 757 769 767
3 757 756 768
3 756 758 770
3 758 759 771
3 748 760 771
