ply
format ascii 1.0
comment Created by Blender 2.79 (sub 0) - www.blender.org, source file: 'dummy.blend'
element vertex 344
property float x
property float y
property float z
property float nx
property float ny
property float nz
property float s
property float t
element face 672
property list uchar uint vertex_indices
end_header
-0.100388 0.808224 0.019741 0.354717 0.912259 0.204779 0.001628 0.207135
-0.099627 0.800774 0.034215 0.361217 0.691397 0.625660 0.015023 0.213514
-0.090728 0.800774 0.025317 0.625660 0.691397 0.361217 0.018030 0.200784
-0.111782 0.808224 0.026319 0.000000 0.912259 0.409589 0.001120 0.221077
-0.105203 0.808224 0.024556 0.204810 0.912259 0.354717 0.000000 0.214023
-0.123937 0.800774 0.034215 -0.361217 0.691397 0.625660 0.023683 0.236392
-0.111782 0.800774 0.037472 0.000000 0.691397 0.722465 0.017092 0.226548
-0.118360 0.808224 0.024556 -0.204779 0.912259 0.354717 0.004688 0.226405
-0.132835 0.800774 0.025317 -0.625660 0.691397 0.361217 0.033031 0.240410
-0.123176 0.808224 0.019741 -0.354717 0.912259 0.204779 0.009746 0.228580
-0.136092 0.800774 0.013162 -0.722465 0.691397 0.000000 0.042629 0.237526
-0.124938 0.808224 0.013162 -0.409589 0.912259 0.000000 0.014941 0.227018
-0.132835 0.800774 0.001007 -0.625660 0.691397 -0.361217 0.049908 0.228511
-0.123175 0.808224 0.006584 -0.354717 0.912259 -0.204779 0.018880 0.222139
-0.123937 0.800774 -0.007891 -0.361217 0.691397 -0.625660 0.052915 0.215781
-0.118360 0.808224 0.001768 -0.204779 0.912259 -0.354717 0.020508 0.215251
-0.111782 0.800774 -0.011148 0.000000 0.691397 -0.722465 0.050846 0.202748
-0.105203 0.808224 0.001768 0.204779 0.912259 -0.354717 0.015820 0.202869
-0.111782 0.808224 0.000007 0.000000 0.912259 -0.409558 0.019388 0.208197
-0.090729 0.800774 0.001007 0.625660 0.691397 -0.361217 0.034907 0.188885
-0.099627 0.800774 -0.007891 0.361217 0.691397 -0.625660 0.044255 0.192903
-0.100388 0.808224 0.006584 0.354717 0.912259 -0.204779 0.010762 0.200694
-0.087472 0.800774 0.013162 0.722434 0.691397 0.000000 0.025308 0.191770
-0.098625 0.808224 0.013162 0.409589 0.912259 0.000000 0.005567 0.202256
-0.095901 0.789623 0.040670 0.464125 0.371838 0.803919 0.044706 0.213183
-0.084274 0.789623 0.029044 0.803919 0.371807 0.464125 0.048635 0.196551
-0.111782 0.789623 0.044925 0.000000 0.371807 0.928281 0.047409 0.230212
-0.139289 0.789623 0.029044 -0.803919 0.371838 0.464125 0.068234 0.248324
-0.127663 0.789623 0.040670 -0.464156 0.371807 0.803919 0.056022 0.243075
-0.143544 0.789623 0.013162 -0.928281 0.371807 0.000000 0.080776 0.244555
-0.127663 0.789623 -0.014345 -0.464125 0.371838 -0.803919 0.094215 0.216144
-0.139289 0.789623 -0.002719 -0.803919 0.371807 -0.464125 0.090286 0.232777
-0.111782 0.789623 -0.018600 0.000000 0.371838 -0.928281 0.091511 0.199116
-0.084275 0.789623 -0.002719 0.803919 0.371838 -0.464125 0.070686 0.181003
-0.095900 0.789623 -0.014345 0.464156 0.371807 -0.803919 0.082899 0.186253
-0.080019 0.789623 0.013162 0.928281 0.371807 0.000000 0.058145 0.184772
-0.094592 0.776471 0.042936 0.499985 0.000000 0.866024 0.084532 0.213080
-0.082008 0.776471 0.030352 0.866024 0.000000 0.499985 0.088785 0.195078
-0.111782 0.776471 0.047542 0.000000 0.000000 1.000000 0.087458 0.231512
-0.128971 0.776471 0.042936 -0.499985 0.000000 0.866024 0.096780 0.245434
-0.141555 0.776471 0.030352 -0.866024 0.000000 0.499985 0.109999 0.251116
-0.146161 0.776471 0.013162 -1.000000 0.000000 0.000000 0.123574 0.247037
-0.128972 0.776471 -0.016611 -0.499985 0.000000 -0.865993 0.138120 0.216286
-0.141555 0.776471 -0.004028 -0.866024 0.000000 -0.499985 0.133867 0.234287
-0.094592 0.776471 -0.016611 0.499985 0.000000 -0.866024 0.125872 0.183932
-0.111781 0.776471 -0.021218 0.000000 0.000000 -1.000000 0.135194 0.197853
-0.082008 0.776471 -0.004028 0.866024 0.000000 -0.499985 0.112653 0.178249
-0.077402 0.776471 0.013162 1.000000 0.000000 0.000000 0.099078 0.182328
-0.084274 0.763318 0.029044 0.803919 -0.371807 0.464125 0.132366 0.196589
-0.095901 0.763318 0.040670 0.464125 -0.371838 0.803919 0.128437 0.213221
-0.111782 0.763318 0.044925 0.000000 -0.371807 0.928281 0.131140 0.230249
-0.127663 0.763318 0.040670 -0.464156 -0.371807 0.803919 0.139752 0.243112
-0.143545 0.763318 0.013162 -0.928281 -0.371807 0.000000 0.164507 0.244593
-0.139289 0.763318 0.029044 -0.803919 -0.371838 0.464125 0.151965 0.248362
-0.139289 0.763318 -0.002719 -0.803919 -0.371807 -0.464125 0.174016 0.232815
-0.111782 0.763318 -0.018600 0.000000 -0.371838 -0.928281 0.175242 0.199154
-0.127663 0.763318 -0.014345 -0.464125 -0.371838 -0.803919 0.177945 0.216182
-0.095900 0.763318 -0.014345 0.464156 -0.371807 -0.803919 0.166630 0.186291
-0.080019 0.763318 0.013162 0.928281 -0.371807 0.000000 0.141876 0.184810
-0.084275 0.763318 -0.002719 0.803919 -0.371838 -0.464125 0.154417 0.181041
-0.090728 0.752168 0.025317 0.625660 -0.691397 0.361217 0.172744 0.200854
-0.111782 0.752168 0.037472 0.000000 -0.691397 0.722465 0.171805 0.226617
-0.099627 0.752168 0.034215 0.361217 -0.691366 0.625660 0.169736 0.213584
-0.123937 0.752168 0.034215 -0.361217 -0.691397 0.625660 0.178397 0.236462
-0.136092 0.752168 0.013162 -0.722465 -0.691397 0.000000 0.197343 0.237595
-0.132835 0.752168 0.025317 -0.625660 -0.691397 0.361217 0.187744 0.240480
-0.132835 0.752168 0.001007 -0.625660 -0.691397 -0.361217 0.204622 0.228581
-0.111782 0.752168 -0.011148 0.000000 -0.691397 -0.722465 0.205560 0.202818
-0.123937 0.752168 -0.007891 -0.361217 -0.691397 -0.625660 0.207629 0.215851
-0.099627 0.752168 -0.007891 0.361217 -0.691397 -0.625660 0.198968 0.192973
-0.087472 0.752168 0.013162 0.722434 -0.691397 0.000000 0.180022 0.191840
-0.090729 0.752168 0.001007 0.625660 -0.691397 -0.361217 0.189621 0.188955
-0.105203 0.744717 0.024556 0.204810 -0.912259 0.354717 0.202144 0.214115
-0.100388 0.744717 0.019741 0.354717 -0.912259 0.204779 0.203772 0.207226
-0.111782 0.744717 0.026319 0.000000 -0.912259 0.409589 0.203264 0.221168
-0.118360 0.744717 0.024556 -0.204779 -0.912259 0.354717 0.206831 0.226496
-0.124938 0.744717 0.013162 -0.409589 -0.912259 0.000000 0.217084 0.227109
-0.123176 0.744717 0.019741 -0.354717 -0.912229 0.204779 0.211890 0.228671
-0.123175 0.744717 0.006584 -0.354717 -0.912259 -0.204779 0.221023 0.222230
-0.111782 0.744717 0.000006 0.000000 -0.912259 -0.409589 0.221531 0.208288
-0.118360 0.744717 0.001768 -0.204810 -0.912259 -0.354717 0.222651 0.215342
-0.105203 0.744717 0.001768 0.204779 -0.912229 -0.354717 0.217964 0.202960
-0.100387 0.744717 0.006584 0.354717 -0.912259 -0.204779 0.212905 0.200785
-0.098625 0.744717 0.013162 0.409589 -0.912259 0.000000 0.207711 0.202347
-0.111782 0.810840 0.013162 0.000000 0.999969 0.000000 0.001927 0.214633
-0.111782 0.742101 0.013162 0.000000 -1.000000 0.000000 0.220725 0.214732
-0.100388 0.808224 0.019741 0.354717 0.912259 0.204779 0.001628 0.207135
-0.099627 0.800774 0.034215 0.361217 0.691397 0.625660 0.015023 0.213514
-0.090728 0.800774 0.025317 0.625660 0.691397 0.361217 0.018030 0.200784
-0.111782 0.808224 0.026319 0.000000 0.912259 0.409589 0.001120 0.221077
-0.105203 0.808224 0.024556 0.204810 0.912259 0.354717 0.000000 0.214023
-0.123937 0.800774 0.034215 -0.361217 0.691397 0.625660 0.023683 0.236392
-0.111782 0.800774 0.037472 0.000000 0.691397 0.722465 0.017092 0.226548
-0.118360 0.808224 0.024556 -0.204779 0.912259 0.354717 0.004688 0.226405
-0.132835 0.800774 0.025317 -0.625660 0.691397 0.361217 0.033031 0.240410
-0.123176 0.808224 0.019741 -0.354717 0.912259 0.204779 0.009746 0.228580
-0.136092 0.800774 0.013162 -0.722465 0.691397 0.000000 0.042629 0.237526
-0.124938 0.808224 0.013162 -0.409589 0.912259 0.000000 0.014941 0.227018
-0.132835 0.800774 0.001007 -0.625660 0.691397 -0.361217 0.049908 0.228511
-0.123175 0.808224 0.006584 -0.354717 0.912259 -0.204779 0.018880 0.222139
-0.123937 0.800774 -0.007891 -0.361217 0.691397 -0.625660 0.052915 0.215781
-0.118360 0.808224 0.001768 -0.204779 0.912259 -0.354717 0.020508 0.215251
-0.111782 0.800774 -0.011148 0.000000 0.691397 -0.722465 0.050846 0.202748
-0.105203 0.808224 0.001768 0.204779 0.912259 -0.354717 0.015820 0.202869
-0.111782 0.808224 0.000007 0.000000 0.912259 -0.409558 0.019388 0.208197
-0.090729 0.800774 0.001007 0.625660 0.691397 -0.361217 0.034907 0.188885
-0.099627 0.800774 -0.007891 0.361217 0.691397 -0.625660 0.044255 0.192903
-0.100388 0.808224 0.006584 0.354717 0.912259 -0.204779 0.010762 0.200694
-0.087472 0.800774 0.013162 0.722434 0.691397 0.000000 0.025308 0.191770
-0.098625 0.808224 0.013162 0.409589 0.912259 0.000000 0.005567 0.202256
-0.095901 0.789623 0.040670 0.464125 0.371838 0.803919 0.044706 0.213183
-0.084274 0.789623 0.029044 0.803919 0.371807 0.464125 0.048635 0.196551
-0.111782 0.789623 0.044925 0.000000 0.371807 0.928281 0.047409 0.230212
-0.139289 0.789623 0.029044 -0.803919 0.371838 0.464125 0.068234 0.248324
-0.127663 0.789623 0.040670 -0.464156 0.371807 0.803919 0.056022 0.243075
-0.143544 0.789623 0.013162 -0.928281 0.371807 0.000000 0.080776 0.244555
-0.127663 0.789623 -0.014345 -0.464125 0.371838 -0.803919 0.094215 0.216144
-0.139289 0.789623 -0.002719 -0.803919 0.371807 -0.464125 0.090286 0.232777
-0.111782 0.789623 -0.018600 0.000000 0.371838 -0.928281 0.091511 0.199116
-0.084275 0.789623 -0.002719 0.803919 0.371838 -0.464125 0.070686 0.181003
-0.095900 0.789623 -0.014345 0.464156 0.371807 -0.803919 0.082899 0.186253
-0.080019 0.789623 0.013162 0.928281 0.371807 0.000000 0.058145 0.184772
-0.094592 0.776471 0.042936 0.499985 0.000000 0.866024 0.084532 0.213080
-0.082008 0.776471 0.030352 0.866024 0.000000 0.499985 0.088785 0.195078
-0.111782 0.776471 0.047542 0.000000 0.000000 1.000000 0.087458 0.231512
-0.128971 0.776471 0.042936 -0.499985 0.000000 0.866024 0.096780 0.245434
-0.141555 0.776471 0.030352 -0.866024 0.000000 0.499985 0.109999 0.251116
-0.146161 0.776471 0.013162 -1.000000 0.000000 0.000000 0.123574 0.247037
-0.128972 0.776471 -0.016611 -0.499985 0.000000 -0.865993 0.138120 0.216286
-0.141555 0.776471 -0.004028 -0.866024 0.000000 -0.499985 0.133867 0.234287
-0.094592 0.776471 -0.016611 0.499985 0.000000 -0.866024 0.125872 0.183932
-0.111781 0.776471 -0.021218 0.000000 0.000000 -1.000000 0.135194 0.197853
-0.082008 0.776471 -0.004028 0.866024 0.000000 -0.499985 0.112653 0.178249
-0.077402 0.776471 0.013162 1.000000 0.000000 0.000000 0.099078 0.182328
-0.084274 0.763318 0.029044 0.803919 -0.371807 0.464125 0.132366 0.196589
-0.095901 0.763318 0.040670 0.464125 -0.371838 0.803919 0.128437 0.213221
-0.111782 0.763318 0.044925 0.000000 -0.371807 0.928281 0.131140 0.230249
-0.127663 0.763318 0.040670 -0.464156 -0.371807 0.803919 0.139752 0.243112
-0.143545 0.763318 0.013162 -0.928281 -0.371807 0.000000 0.164507 0.244593
-0.139289 0.763318 0.029044 -0.803919 -0.371838 0.464125 0.151965 0.248362
-0.139289 0.763318 -0.002719 -0.803919 -0.371807 -0.464125 0.174016 0.232815
-0.111782 0.763318 -0.018600 0.000000 -0.371838 -0.928281 0.175242 0.199154
-0.127663 0.763318 -0.014345 -0.464125 -0.371838 -0.803919 0.177945 0.216182
-0.095900 0.763318 -0.014345 0.464156 -0.371807 -0.803919 0.166630 0.186291
-0.080019 0.763318 0.013162 0.928281 -0.371807 0.000000 0.141876 0.184810
-0.084275 0.763318 -0.002719 0.803919 -0.371838 -0.464125 0.154417 0.181041
-0.090728 0.752168 0.025317 0.625660 -0.691397 0.361217 0.172744 0.200854
-0.111782 0.752168 0.037472 0.000000 -0.691397 0.722465 0.171805 0.226617
-0.099627 0.752168 0.034215 0.361217 -0.691366 0.625660 0.169736 0.213584
-0.123937 0.752168 0.034215 -0.361217 -0.691397 0.625660 0.178397 0.236462
-0.136092 0.752168 0.013162 -0.722465 -0.691397 0.000000 0.197343 0.237595
-0.132835 0.752168 0.025317 -0.625660 -0.691397 0.361217 0.187744 0.240480
-0.132835 0.752168 0.001007 -0.625660 -0.691397 -0.361217 0.204622 0.228581
-0.111782 0.752168 -0.011148 0.000000 -0.691397 -0.722465 0.205560 0.202818
-0.123937 0.752168 -0.007891 -0.361217 -0.691397 -0.625660 0.207629 0.215851
-0.099627 0.752168 -0.007891 0.361217 -0.691397 -0.625660 0.198968 0.192973
-0.087472 0.752168 0.013162 0.722434 -0.691397 0.000000 0.180022 0.191840
-0.090729 0.752168 0.001007 0.625660 -0.691397 -0.361217 0.189621 0.188955
-0.105203 0.744717 0.024556 0.204810 -0.912259 0.354717 0.202144 0.214115
-0.100388 0.744717 0.019741 0.354717 -0.912259 0.204779 0.203772 0.207226
-0.111782 0.744717 0.026319 0.000000 -0.912259 0.409589 0.203264 0.221168
-0.118360 0.744717 0.024556 -0.204779 -0.912259 0.354717 0.206831 0.226496
-0.124938 0.744717 0.013162 -0.409589 -0.912259 0.000000 0.217084 0.227109
-0.123176 0.744717 0.019741 -0.354717 -0.912229 0.204779 0.211890 0.228671
-0.123175 0.744717 0.006584 -0.354717 -0.912259 -0.204779 0.221023 0.222230
-0.111782 0.744717 0.000006 0.000000 -0.912259 -0.409589 0.221531 0.208288
-0.118360 0.744717 0.001768 -0.204810 -0.912259 -0.354717 0.222651 0.215342
-0.105203 0.744717 0.001768 0.204779 -0.912229 -0.354717 0.217964 0.202960
-0.100387 0.744717 0.006584 0.354717 -0.912259 -0.204779 0.212905 0.200785
-0.098625 0.744717 0.013162 0.409589 -0.912259 0.000000 0.207711 0.202347
-0.111782 0.810840 0.013162 0.000000 0.999969 0.000000 0.001927 0.214633
-0.111782 0.742101 0.013162 0.000000 -1.000000 0.000000 0.220725 0.214732
-0.100388 0.808224 0.019741 0.354717 0.912259 0.204779 0.001628 0.207135
-0.099627 0.800774 0.034215 0.361217 0.691397 0.625660 0.015023 0.213514
-0.090728 0.800774 0.025317 0.625660 0.691397 0.361217 0.018030 0.200784
-0.111782 0.808224 0.026319 0.000000 0.912259 0.409589 0.001120 0.221077
-0.105203 0.808224 0.024556 0.204810 0.912259 0.354717 0.000000 0.214023
-0.123937 0.800774 0.034215 -0.361217 0.691397 0.625660 0.023683 0.236392
-0.111782 0.800774 0.037472 0.000000 0.691397 0.722465 0.017092 0.226548
-0.118360 0.808224 0.024556 -0.204779 0.912259 0.354717 0.004688 0.226405
-0.132835 0.800774 0.025317 -0.625660 0.691397 0.361217 0.033031 0.240410
-0.123176 0.808224 0.019741 -0.354717 0.912259 0.204779 0.009746 0.228580
-0.136092 0.800774 0.013162 -0.722465 0.691397 0.000000 0.042629 0.237526
-0.124938 0.808224 0.013162 -0.409589 0.912259 0.000000 0.014941 0.227018
-0.132835 0.800774 0.001007 -0.625660 0.691397 -0.361217 0.049908 0.228511
-0.123175 0.808224 0.006584 -0.354717 0.912259 -0.204779 0.018880 0.222139
-0.123937 0.800774 -0.007891 -0.361217 0.691397 -0.625660 0.052915 0.215781
-0.118360 0.808224 0.001768 -0.204779 0.912259 -0.354717 0.020508 0.215251
-0.111782 0.800774 -0.011148 0.000000 0.691397 -0.722465 0.050846 0.202748
-0.105203 0.808224 0.001768 0.204779 0.912259 -0.354717 0.015820 0.202869
-0.111782 0.808224 0.000007 0.000000 0.912259 -0.409558 0.019388 0.208197
-0.090729 0.800774 0.001007 0.625660 0.691397 -0.361217 0.034907 0.188885
-0.099627 0.800774 -0.007891 0.361217 0.691397 -0.625660 0.044255 0.192903
-0.100388 0.808224 0.006584 0.354717 0.912259 -0.204779 0.010762 0.200694
-0.087472 0.800774 0.013162 0.722434 0.691397 0.000000 0.025308 0.191770
-0.098625 0.808224 0.013162 0.409589 0.912259 0.000000 0.005567 0.202256
-0.095901 0.789623 0.040670 0.464125 0.371838 0.803919 0.044706 0.213183
-0.084274 0.789623 0.029044 0.803919 0.371807 0.464125 0.048635 0.196551
-0.111782 0.789623 0.044925 0.000000 0.371807 0.928281 0.047409 0.230212
-0.139289 0.789623 0.029044 -0.803919 0.371838 0.464125 0.068234 0.248324
-0.127663 0.789623 0.040670 -0.464156 0.371807 0.803919 0.056022 0.243075
-0.143544 0.789623 0.013162 -0.928281 0.371807 0.000000 0.080776 0.244555
-0.127663 0.789623 -0.014345 -0.464125 0.371838 -0.803919 0.094215 0.216144
-0.139289 0.789623 -0.002719 -0.803919 0.371807 -0.464125 0.090286 0.232777
-0.111782 0.789623 -0.018600 0.000000 0.371838 -0.928281 0.091511 0.199116
-0.084275 0.789623 -0.002719 0.803919 0.371838 -0.464125 0.070686 0.181003
-0.095900 0.789623 -0.014345 0.464156 0.371807 -0.803919 0.082899 0.186253
-0.080019 0.789623 0.013162 0.928281 0.371807 0.000000 0.058145 0.184772
-0.094592 0.776471 0.042936 0.499985 0.000000 0.866024 0.084532 0.213080
-0.082008 0.776471 0.030352 0.866024 0.000000 0.499985 0.088785 0.195078
-0.111782 0.776471 0.047542 0.000000 0.000000 1.000000 0.087458 0.231512
-0.128971 0.776471 0.042936 -0.499985 0.000000 0.866024 0.096780 0.245434
-0.141555 0.776471 0.030352 -0.866024 0.000000 0.499985 0.109999 0.251116
-0.146161 0.776471 0.013162 -1.000000 0.000000 0.000000 0.123574 0.247037
-0.128972 0.776471 -0.016611 -0.499985 0.000000 -0.865993 0.138120 0.216286
-0.141555 0.776471 -0.004028 -0.866024 0.000000 -0.499985 0.133867 0.234287
-0.094592 0.776471 -0.016611 0.499985 0.000000 -0.866024 0.125872 0.183932
-0.111781 0.776471 -0.021218 0.000000 0.000000 -1.000000 0.135194 0.197853
-0.082008 0.776471 -0.004028 0.866024 0.000000 -0.499985 0.112653 0.178249
-0.077402 0.776471 0.013162 1.000000 0.000000 0.000000 0.099078 0.182328
-0.084274 0.763318 0.029044 0.803919 -0.371807 0.464125 0.132366 0.196589
-0.095901 0.763318 0.040670 0.464125 -0.371838 0.803919 0.128437 0.213221
-0.111782 0.763318 0.044925 0.000000 -0.371807 0.928281 0.131140 0.230249
-0.127663 0.763318 0.040670 -0.464156 -0.371807 0.803919 0.139752 0.243112
-0.143545 0.763318 0.013162 -0.928281 -0.371807 0.000000 0.164507 0.244593
-0.139289 0.763318 0.029044 -0.803919 -0.371838 0.464125 0.151965 0.248362
-0.139289 0.763318 -0.002719 -0.803919 -0.371807 -0.464125 0.174016 0.232815
-0.111782 0.763318 -0.018600 0.000000 -0.371838 -0.928281 0.175242 0.199154
-0.127663 0.763318 -0.014345 -0.464125 -0.371838 -0.803919 0.177945 0.216182
-0.095900 0.763318 -0.014345 0.464156 -0.371807 -0.803919 0.166630 0.186291
-0.080019 0.763318 0.013162 0.928281 -0.371807 0.000000 0.141876 0.184810
-0.084275 0.763318 -0.002719 0.803919 -0.371838 -0.464125 0.154417 0.181041
-0.090728 0.752168 0.025317 0.625660 -0.691397 0.361217 0.172744 0.200854
-0.111782 0.752168 0.037472 0.000000 -0.691397 0.722465 0.171805 0.226617
-0.099627 0.752168 0.034215 0.361217 -0.691366 0.625660 0.169736 0.213584
-0.123937 0.752168 0.034215 -0.361217 -0.691397 0.625660 0.178397 0.236462
-0.136092 0.752168 0.013162 -0.722465 -0.691397 0.000000 0.197343 0.237595
-0.132835 0.752168 0.025317 -0.625660 -0.691397 0.361217 0.187744 0.240480
-0.132835 0.752168 0.001007 -0.625660 -0.691397 -0.361217 0.204622 0.228581
-0.111782 0.752168 -0.011148 0.000000 -0.691397 -0.722465 0.205560 0.202818
-0.123937 0.752168 -0.007891 -0.361217 -0.691397 -0.625660 0.207629 0.215851
-0.099627 0.752168 -0.007891 0.361217 -0.691397 -0.625660 0.198968 0.192973
-0.087472 0.752168 0.013162 0.722434 -0.691397 0.000000 0.180022 0.191840
-0.090729 0.752168 0.001007 0.625660 -0.691397 -0.361217 0.189621 0.188955
-0.105203 0.744717 0.024556 0.204810 -0.912259 0.354717 0.202144 0.214115
-0.100388 0.744717 0.019741 0.354717 -0.912259 0.204779 0.203772 0.207226
-0.111782 0.744717 0.026319 0.000000 -0.912259 0.409589 0.203264 0.221168
-0.118360 0.744717 0.024556 -0.204779 -0.912259 0.354717 0.206831 0.226496
-0.124938 0.744717 0.013162 -0.409589 -0.912259 0.000000 0.217084 0.227109
-0.123176 0.744717 0.019741 -0.354717 -0.912229 0.204779 0.211890 0.228671
-0.123175 0.744717 0.006584 -0.354717 -0.912259 -0.204779 0.221023 0.222230
-0.111782 0.744717 0.000006 0.000000 -0.912259 -0.409589 0.221531 0.208288
-0.118360 0.744717 0.001768 -0.204810 -0.912259 -0.354717 0.222651 0.215342
-0.105203 0.744717 0.001768 0.204779 -0.912229 -0.354717 0.217964 0.202960
-0.100387 0.744717 0.006584 0.354717 -0.912259 -0.204779 0.212905 0.200785
-0.098625 0.744717 0.013162 0.409589 -0.912259 0.000000 0.207711 0.202347
-0.111782 0.810840 0.013162 0.000000 0.999969 0.000000 0.001927 0.214633
-0.111782 0.742101 0.013162 0.000000 -1.000000 0.000000 0.220725 0.214732
-0.100388 0.808224 0.019741 0.354717 0.912259 0.204779 0.001628 0.207135
-0.099627 0.800774 0.034215 0.361217 0.691397 0.625660 0.015023 0.213514
-0.090728 0.800774 0.025317 0.625660 0.691397 0.361217 0.018030 0.200784
-0.111782 0.808224 0.026319 0.000000 0.912259 0.409589 0.001120 0.221077
-0.105203 0.808224 0.024556 0.204810 0.912259 0.354717 0.000000 0.214023
-0.123937 0.800774 0.034215 -0.361217 0.691397 0.625660 0.023683 0.236392
-0.111782 0.800774 0.037472 0.000000 0.691397 0.722465 0.017092 0.226548
-0.118360 0.808224 0.024556 -0.204779 0.912259 0.354717 0.004688 0.226405
-0.132835 0.800774 0.025317 -0.625660 0.691397 0.361217 0.033031 0.240410
-0.123176 0.808224 0.019741 -0.354717 0.912259 0.204779 0.009746 0.228580
-0.136092 0.800774 0.013162 -0.722465 0.691397 0.000000 0.042629 0.237526
-0.124938 0.808224 0.013162 -0.409589 0.912259 0.000000 0.014941 0.227018
-0.132835 0.800774 0.001007 -0.625660 0.691397 -0.361217 0.049908 0.228511
-0.123175 0.808224 0.006584 -0.354717 0.912259 -0.204779 0.018880 0.222139
-0.123937 0.800774 -0.007891 -0.361217 0.691397 -0.625660 0.052915 0.215781
-0.118360 0.808224 0.001768 -0.204779 0.912259 -0.354717 0.020508 0.215251
-0.111782 0.800774 -0.011148 0.000000 0.691397 -0.722465 0.050846 0.202748
-0.105203 0.808224 0.001768 0.204779 0.912259 -0.354717 0.015820 0.202869
-0.111782 0.808224 0.000007 0.000000 0.912259 -0.409558 0.019388 0.208197
-0.090729 0.800774 0.001007 0.625660 0.691397 -0.361217 0.034907 0.188885
-0.099627 0.800774 -0.007891 0.361217 0.691397 -0.625660 0.044255 0.192903
-0.100388 0.808224 0.006584 0.354717 0.912259 -0.204779 0.010762 0.200694
-0.087472 0.800774 0.013162 0.722434 0.691397 0.000000 0.025308 0.191770
-0.098625 0.808224 0.013162 0.409589 0.912259 0.000000 0.005567 0.202256
-0.095901 0.789623 0.040670 0.464125 0.371838 0.803919 0.044706 0.213183
-0.084274 0.789623 0.029044 0.803919 0.371807 0.464125 0.048635 0.196551
-0.111782 0.789623 0.044925 0.000000 0.371807 0.928281 0.047409 0.230212
-0.139289 0.789623 0.029044 -0.803919 0.371838 0.464125 0.068234 0.248324
-0.127663 0.789623 0.040670 -0.464156 0.371807 0.803919 0.056022 0.243075
-0.143544 0.789623 0.013162 -0.928281 0.371807 0.000000 0.080776 0.244555
-0.127663 0.789623 -0.014345 -0.464125 0.371838 -0.803919 0.094215 0.216144
-0.139289 0.789623 -0.002719 -0.803919 0.371807 -0.464125 0.090286 0.232777
-0.111782 0.789623 -0.018600 0.000000 0.371838 -0.928281 0.091511 0.199116
-0.084275 0.789623 -0.002719 0.803919 0.371838 -0.464125 0.070686 0.181003
-0.095900 0.789623 -0.014345 0.464156 0.371807 -0.803919 0.082899 0.186253
-0.080019 0.789623 0.013162 0.928281 0.371807 0.000000 0.058145 0.184772
-0.094592 0.776471 0.042936 0.499985 0.000000 0.866024 0.084532 0.213080
-0.082008 0.776471 0.030352 0.866024 0.000000 0.499985 0.088785 0.195078
-0.111782 0.776471 0.047542 0.000000 0.000000 1.000000 0.087458 0.231512
-0.128971 0.776471 0.042936 -0.499985 0.000000 0.866024 0.096780 0.245434
-0.141555 0.776471 0.030352 -0.866024 0.000000 0.499985 0.109999 0.251116
-0.146161 0.776471 0.013162 -1.000000 0.000000 0.000000 0.123574 0.247037
-0.128972 0.776471 -0.016611 -0.499985 0.000000 -0.865993 0.138120 0.216286
-0.141555 0.776471 -0.004028 -0.866024 0.000000 -0.499985 0.133867 0.234287
-0.094592 0.776471 -0.016611 0.499985 0.000000 -0.866024 0.125872 0.183932
-0.111781 0.776471 -0.021218 0.000000 0.000000 -1.000000 0.135194 0.197853
-0.082008 0.776471 -0.004028 0.866024 0.000000 -0.499985 0.112653 0.178249
-0.077402 0.776471 0.013162 1.000000 0.000000 0.000000 0.099078 0.182328
-0.084274 0.763318 0.029044 0.803919 -0.371807 0.464125 0.132366 0.196589
-0.095901 0.763318 0.040670 0.464125 -0.371838 0.803919 0.128437 0.213221
-0.111782 0.763318 0.044925 0.000000 -0.371807 0.928281 0.131140 0.230249
-0.127663 0.763318 0.040670 -0.464156 -0.371807 0.803919 0.139752 0.243112
-0.143545 0.763318 0.013162 -0.928281 -0.371807 0.000000 0.164507 0.244593
-0.139289 0.763318 0.029044 -0.803919 -0.371838 0.464125 0.151965 0.248362
-0.139289 0.763318 -0.002719 -0.803919 -0.371807 -0.464125 0.174016 0.232815
-0.111782 0.763318 -0.018600 0.000000 -0.371838 -0.928281 0.175242 0.199154
-0.127663 0.763318 -0.014345 -0.464125 -0.371838 -0.803919 0.177945 0.216182
-0.095900 0.763318 -0.014345 0.464156 -0.371807 -0.803919 0.166630 0.186291
-0.080019 0.763318 0.013162 0.928281 -0.371807 0.000000 0.141876 0.184810
-0.084275 0.763318 -0.002719 0.803919 -0.371838 -0.464125 0.154417 0.181041
-0.090728 0.752168 0.025317 0.625660 -0.691397 0.361217 0.172744 0.200854
-0.111782 0.752168 0.037472 0.000000 -0.691397 0.722465 0.171805 0.226617
-0.099627 0.752168 0.034215 0.361217 -0.691366 0.625660 0.169736 0.213584
-0.123937 0.752168 0.034215 -0.361217 -0.691397 0.625660 0.178397 0.236462
-0.136092 0.752168 0.013162 -0.722465 -0.691397 0.000000 0.197343 0.237595
-0.132835 0.752168 0.025317 -0.625660 -0.691397 0.361217 0.187744 0.240480
-0.132835 0.752168 0.001007 -0.625660 -0.691397 -0.361217 0.204622 0.228581
-0.111782 0.752168 -0.011148 0.000000 -0.691397 -0.722465 0.205560 0.202818
-0.123937 0.752168 -0.007891 -0.361217 -0.691397 -0.625660 0.207629 0.215851
-0.099627 0.752168 -0.007891 0.361217 -0.691397 -0.625660 0.198968 0.192973
-0.087472 0.752168 0.013162 0.722434 -0.691397 0.000000 0.180022 0.191840
-0.090729 0.752168 0.001007 0.625660 -0.691397 -0.361217 0.189621 0.188955
-0.105203 0.744717 0.024556 0.204810 -0.912259 0.354717 0.202144 0.214115
-0.100388 0.744717 0.019741 0.354717 -0.912259 0.204779 0.203772 0.207226
-0.111782 0.744717 0.026319 0.000000 -0.912259 0.409589 0.203264 0.221168
-0.118360 0.744717 0.024556 -0.204779 -0.912259 0.354717 0.206831 0.226496
-0.124938 0.744717 0.013162 -0.409589 -0.912259 0.000000 0.217084 0.227109
-0.123176 0.744717 0.019741 -0.354717 -0.912229 0.204779 0.211890 0.228671
-0.123175 0.744717 0.006584 -0.354717 -0.912259 -0.204779 0.221023 0.222230
-0.111782 0.744717 0.000006 0.000000 -0.912259 -0.409589 0.221531 0.208288
-0.118360 0.744717 0.001768 -0.204810 -0.912259 -0.354717 0.222651 0.215342
-0.105203 0.744717 0.001768 0.204779 -0.912229 -0.354717 0.217964 0.202960
-0.100387 0.744717 0.006584 0.354717 -0.912259 -0.204779 0.212905 0.200785
-0.098625 0.744717 0.013162 0.409589 -0.912259 0.000000 0.207711 0.202347
-0.111782 0.810840 0.013162 0.000000 0.999969 0.000000 0.001927 0.214633
-0.111782 0.742101 0.013162 0.000000 -1.000000 0.000000 0.220725 0.214732
3 0 1 2
3 3 1 4
3 3 5 6
3 7 8 5
3 9 10 8
3 11 12 10
3 13 14 12
3 15 16 14
3 17 16 18
3 17 19 20
3 21 22 19
3 23 2 22
3 2 24 25
3 6 24 1
3 5 26 6
3 5 27 28
3 10 27 8
3 12 29 10
3 12 30 31
3 16 30 14
3 20 32 16
3 20 33 34
3 22 33 19
3 2 35 22
3 25 36 37
3 24 38 36
3 26 39 38
3 28 40 39
3 29 40 27
3 31 41 29
3 31 42 43
3 32 42 30
3 32 44 45
3 34 46 44
3 35 46 33
3 25 47 35
3 36 48 37
3 38 49 36
3 39 50 38
3 40 51 39
3 40 52 53
3 41 54 52
3 42 54 43
3 42 55 56
3 44 55 45
3 46 57 44
3 46 58 59
3 47 48 58
3 49 60 48
3 49 61 62
3 50 63 61
3 53 63 51
3 53 64 65
3 52 66 64
3 56 66 54
3 56 67 68
3 55 69 67
3 59 69 57
3 59 70 71
3 58 60 70
3 60 72 73
3 62 74 72
3 63 74 61
3 65 75 63
3 65 76 77
3 66 76 64
3 68 78 66
3 68 79 80
3 69 79 67
3 71 81 69
3 70 82 71
3 70 73 83
3 4 0 84
3 3 4 84
3 7 3 84
3 9 7 84
3 11 9 84
3 13 11 84
3 15 13 84
3 18 15 84
3 17 18 84
3 21 17 84
3 23 21 84
3 0 23 84
3 73 72 85
3 72 74 85
3 74 75 85
3 75 77 85
3 77 76 85
3 76 78 85
3 78 80 85
3 80 79 85
3 79 81 85
3 81 82 85
3 82 83 85
3 83 73 85
3 86 87 88
3 89 87 90
3 89 91 92
3 93 94 91
3 95 96 94
3 97 98 96
3 99 100 98
3 101 102 100
3 103 102 104
3 103 105 106
3 107 108 105
3 109 88 108
3 88 110 111
3 92 110 87
3 91 112 92
3 91 113 114
3 96 113 94
3 98 115 96
3 98 116 117
3 102 116 100
3 106 118 102
3 106 119 120
3 108 119 105
3 88 121 108
3 111 122 123
3 110 124 122
3 112 125 124
3 114 126 125
3 115 126 113
3 117 127 115
3 117 128 129
3 118 128 116
3 118 130 131
3 120 132 130
3 121 132 119
3 111 133 121
3 122 134 123
3 124 135 122
3 125 136 124
3 126 137 125
3 126 138 139
3 127 140 138
3 128 140 129
3 128 141 142
3 130 141 131
3 132 143 130
3 132 144 145
3 133 134 144
3 135 146 134
3 135 147 148
3 136 149 147
3 139 149 137
3 139 150 151
3 138 152 150
3 142 152 140
3 142 153 154
3 141 155 153
3 145 155 143
3 145 156 157
3 144 146 156
3 146 158 159
3 148 160 158
3 149 160 147
3 151 161 149
3 151 162 163
3 152 162 150
3 154 164 152
3 154 165 166
3 155 165 153
3 157 167 155
3 156 168 157
3 156 159 169
3 90 86 170
3 89 90 170
3 93 89 170
3 95 93 170
3 97 95 170
3 99 97 170
3 101 99 170
3 104 101 170
3 103 104 170
3 107 103 170
3 109 107 170
3 86 109 170
3 159 158 171
3 158 160 171
3 160 161 171
3 161 163 171
3 163 162 171
3 162 164 171
3 164 166 171
3 166 165 171
3 165 167 171
3 167 168 171
3 168 169 171
3 169 159 171
3 172 173 174
3 175 173 176
3 175 177 178
3 179 180 177
3 181 182 180
3 183 184 182
3 185 186 184
3 187 188 186
3 189 188 190
3 189 191 192
3 193 194 191
3 195 174 194
3 174 196 197
3 178 196 173
3 177 198 178
3 177 199 200
3 182 199 180
3 184 201 182
3 184 202 203
3 188 202 186
3 192 204 188
3 192 205 206
3 194 205 191
3 174 207 194
3 197 208 209
3 196 210 208
3 198 211 210
3 200 212 211
3 201 212 199
3 203 213 201
3 203 214 215
3 204 214 202
3 204 216 217
3 206 218 216
3 207 218 205
3 197 219 207
3 208 220 209
3 210 221 208
3 211 222 210
3 212 223 211
3 212 224 225
3 213 226 224
3 214 226 215
3 214 227 228
3 216 227 217
3 218 229 216
3 218 230 231
3 219 220 230
3 221 232 220
3 221 233 234
3 222 235 233
3 225 235 223
3 225 236 237
3 224 238 236
3 228 238 226
3 228 239 240
3 227 241 239
3 231 241 229
3 231 242 243
3 230 232 242
3 232 244 245
3 234 246 244
3 235 246 233
3 237 247 235
3 237 248 249
3 238 248 236
3 240 250 238
3 240 251 252
3 241 251 239
3 243 253 241
3 242 254 243
3 242 245 255
3 176 172 256
3 175 176 256
3 179 175 256
3 181 179 256
3 183 181 256
3 185 183 256
3 187 185 256
3 190 187 256
3 189 190 256
3 193 189 256
3 195 193 256
3 172 195 256
3 245 244 257
3 244 246 257
3 246 247 257
3 247 249 257
3 249 248 257
3 248 250 257
3 250 252 257
3 252 251 257
3 251 253 257
3 253 254 257
3 254 255 257
3 255 245 257
3 258 259 260
3 261 259 262
3 261 263 264
3 265 266 263
3 267 268 266
3 269 270 268
3 271 272 270
3 273 274 272
3 275 274 276
3 275 277 278
3 279 280 277
3 281 260 280
3 260 282 283
3 264 282 259
3 263 284 264
3 263 285 286
3 268 285 266
3 270 287 268
3 270 288 289
3 274 288 272
3 278 290 274
3 278 291 292
3 280 291 277
3 260 293 280
3 283 294 295
3 282 296 294
3 284 297 296
3 286 298 297
3 287 298 285
3 289 299 287
3 289 300 301
3 290 300 288
3 290 302 303
3 292 304 302
3 293 304 291
3 283 305 293
3 294 306 295
3 296 307 294
3 297 308 296
3 298 309 297
3 298 310 311
3 299 312 310
3 300 312 301
3 300 313 314
3 302 313 303
3 304 315 302
3 304 316 317
3 305 306 316
3 307 318 306
3 307 319 320
3 308 321 319
3 311 321 309
3 311 322 323
3 310 324 322
3 314 324 312
3 314 325 326
3 313 327 325
3 317 327 315
3 317 328 329
3 316 318 328
3 318 330 331
3 320 332 330
3 321 332 319
3 323 333 321
3 323 334 335
3 324 334 322
3 326 336 324
3 326 337 338
3 327 337 325
3 329 339 327
3 328 340 329
3 328 331 341
3 262 258 342
3 261 262 342
3 265 261 342
3 267 265 342
3 269 267 342
3 271 269 342
3 273 271 342
3 276 273 342
3 275 276 342
3 279 275 342
3 281 279 342
3 258 281 342
3 331 330 343
3 330 332 343
3 332 333 343
3 333 335 343
3 335 334 343
3 334 336 343
3 336 338 343
3 338 337 343
3 337 339 343
3 339 340 343
3 340 341 343
3 341 331 343
3 0 4 1
3 3 6 1
3 3 7 5
3 7 9 8
3 9 11 10
3 11 13 12
3 13 15 14
3 15 18 16
3 17 20 16
3 17 21 19
3 21 23 22
3 23 0 2
3 2 1 24
3 6 26 24
3 5 28 26
3 5 8 27
3 10 29 27
3 12 31 29
3 12 14 30
3 16 32 30
3 20 34 32
3 20 19 33
3 22 35 33
3 2 25 35
3 25 24 36
3 24 26 38
3 26 28 39
3 28 27 40
3 29 41 40
3 31 43 41
3 31 30 42
3 32 45 42
3 32 34 44
3 34 33 46
3 35 47 46
3 25 37 47
3 36 49 48
3 38 50 49
3 39 51 50
3 40 53 51
3 40 41 52
3 41 43 54
3 42 56 54
3 42 45 55
3 44 57 55
3 46 59 57
3 46 47 58
3 47 37 48
3 49 62 60
3 49 50 61
3 50 51 63
3 53 65 63
3 53 52 64
3 52 54 66
3 56 68 66
3 56 55 67
3 55 57 69
3 59 71 69
3 59 58 70
3 58 48 60
3 60 62 72
3 62 61 74
3 63 75 74
3 65 77 75
3 65 64 76
3 66 78 76
3 68 80 78
3 68 67 79
3 69 81 79
3 71 82 81
3 70 83 82
3 70 60 73
3 86 90 87
3 89 92 87
3 89 93 91
3 93 95 94
3 95 97 96
3 97 99 98
3 99 101 100
3 101 104 102
3 103 106 102
3 103 107 105
3 107 109 108
3 109 86 88
3 88 87 110
3 92 112 110
3 91 114 112
3 91 94 113
3 96 115 113
3 98 117 115
3 98 100 116
3 102 118 116
3 106 120 118
3 106 105 119
3 108 121 119
3 88 111 121
3 111 110 122
3 110 112 124
3 112 114 125
3 114 113 126
3 115 127 126
3 117 129 127
3 117 116 128
3 118 131 128
3 118 120 130
3 120 119 132
3 121 133 132
3 111 123 133
3 122 135 134
3 124 136 135
3 125 137 136
3 126 139 137
3 126 127 138
3 127 129 140
3 128 142 140
3 128 131 141
3 130 143 141
3 132 145 143
3 132 133 144
3 133 123 134
3 135 148 146
3 135 136 147
3 136 137 149
3 139 151 149
3 139 138 150
3 138 140 152
3 142 154 152
3 142 141 153
3 141 143 155
3 145 157 155
3 145 144 156
3 144 134 146
3 146 148 158
3 148 147 160
3 149 161 160
3 151 163 161
3 151 150 162
3 152 164 162
3 154 166 164
3 154 153 165
3 155 167 165
3 157 168 167
3 156 169 168
3 156 146 159
3 172 176 173
3 175 178 173
3 175 179 177
3 179 181 180
3 181 183 182
3 183 185 184
3 185 187 186
3 187 190 188
3 189 192 188
3 189 193 191
3 193 195 194
3 195 172 174
3 174 173 196
3 178 198 196
3 177 200 198
3 177 180 199
3 182 201 199
3 184 203 201
3 184 186 202
3 188 204 202
3 192 206 204
3 192 191 205
3 194 207 205
3 174 197 207
3 197 196 208
3 196 198 210
3 198 200 211
3 200 199 212
3 201 213 212
3 203 215 213
3 203 202 214
3 204 217 214
3 204 206 216
3 206 205 218
3 207 219 218
3 197 209 219
3 208 221 220
3 210 222 221
3 211 223 222
3 212 225 223
3 212 213 224
3 213 215 226
3 214 228 226
3 214 217 227
3 216 229 227
3 218 231 229
3 218 219 230
3 219 209 220
3 221 234 232
3 221 222 233
3 222 223 235
3 225 237 235
3 225 224 236
3 224 226 238
3 228 240 238
3 228 227 239
3 227 229 241
3 231 243 241
3 231 230 242
3 230 220 232
3 232 234 244
3 234 233 246
3 235 247 246
3 237 249 247
3 237 236 248
3 238 250 248
3 240 252 250
3 240 239 251
3 241 253 251
3 243 254 253
3 242 255 254
3 242 232 245
3 258 262 259
3 261 264 259
3 261 265 263
3 265 267 266
3 267 269 268
3 269 271 270
3 271 273 272
3 273 276 274
3 275 278 274
3 275 279 277
3 279 281 280
3 281 258 260
3 260 259 282
3 264 284 282
3 263 286 284
3 263 266 285
3 268 287 285
3 270 289 287
3 270 272 288
3 274 290 288
3 278 292 290
3 278 277 291
3 280 293 291
3 260 283 293
3 283 282 294
3 282 284 296
3 284 286 297
3 286 285 298
3 287 299 298
3 289 301 299
3 289 288 300
3 290 303 300
3 290 292 302
3 292 291 304
3 293 305 304
3 283 295 305
3 294 307 306
3 296 308 307
3 297 309 308
3 298 311 309
3 298 299 310
3 299 301 312
3 300 314 312
3 300 303 313
3 302 315 313
3 304 317 315
3 304 305 316
3 305 295 306
3 307 320 318
3 307 308 319
3 308 309 321
3 311 323 321
3 311 310 322
3 310 312 324
3 314 326 324
3 314 313 325
3 313 315 327
3 317 329 327
3 317 316 328
3 316 306 318
3 318 320 330
3 320 319 332
3 321 333 332
3 323 335 333
3 323 322 334
3 324 336 334
3 326 338 336
3 326 325 337
3 327 339 337
3 329 340 339
3 328 341 340
3 328 318 331
