ply
format ascii 1.0
comment Created by Blender 2.79 (sub 0) - www.blender.org, source file: 'dummy.blend'
element vertex 610
property float x
property float y
property float z
property float nx
property float ny
property float nz
property float s
property float t
element face 1200
property list uchar uint vertex_indices
end_header
-0.129299 0.762619 0.037155 0.822047 -0.284677 0.493088 0.145001 0.242932
-0.146245 0.744536 0.031600 0.199316 -0.848628 0.489944 0.212454 0.256187
-0.129299 0.752478 0.027014 0.822047 -0.493088 0.284677 0.184318 0.237983
-0.129299 0.776471 0.040866 0.822077 0.000000 0.569353 0.098333 0.244729
-0.146245 0.758033 0.045097 0.199347 -0.489944 0.848628 0.160121 0.262775
-0.146245 0.794909 0.045097 0.199347 0.489944 0.848628 0.042745 0.262722
-0.146246 0.776471 0.050038 0.199316 0.000000 0.979919 0.098003 0.265167
-0.129299 0.790323 0.037155 0.822047 0.284677 0.493088 0.056819 0.242893
-0.146245 0.808406 0.031600 0.199347 0.848628 0.489944 0.009153 0.256095
-0.129299 0.804175 0.013162 0.822047 0.569384 0.000000 0.029384 0.231128
-0.129299 0.800463 0.027014 0.822047 0.493088 0.284677 0.031582 0.237914
-0.129299 0.800463 -0.000690 0.822077 0.493057 -0.284677 0.050815 0.224353
-0.146245 0.813346 0.013162 0.199347 0.979919 0.000000 0.006227 0.247063
-0.146245 0.794909 -0.018773 0.199347 0.489944 -0.848628 0.087086 0.231457
-0.146246 0.808406 -0.005275 0.199316 0.848628 -0.489944 0.034754 0.238045
-0.129300 0.790323 -0.010830 0.822016 0.284677 -0.493118 0.090132 0.219404
-0.146245 0.776471 -0.023713 0.199347 0.000000 -0.979919 0.149204 0.229065
-0.129300 0.762619 -0.010830 0.822016 -0.284707 -0.493118 0.178314 0.219444
-0.129299 0.776471 -0.014542 0.822047 0.000000 -0.569384 0.136800 0.217607
-0.129299 0.752478 -0.000690 0.822077 -0.493057 -0.284677 0.203551 0.224422
-0.146245 0.758033 -0.018773 0.199347 -0.489944 -0.848628 0.204462 0.231510
-0.146245 0.739595 0.013162 0.199347 -0.979919 0.000000 0.240980 0.247169
-0.146246 0.744536 -0.005275 0.199316 -0.848628 -0.489944 0.238055 0.238137
-0.129299 0.748767 0.013162 0.822047 -0.569384 0.000000 0.205749 0.231208
-0.134873 0.768794 0.026460 0.931822 0.181433 -0.314219 0.134758 0.242934
-0.134873 0.763173 0.020840 0.931822 0.314249 -0.181433 0.156548 0.240191
-0.134873 0.776471 0.013162 1.000000 0.000000 0.000000 0.119552 0.236414
-0.134873 0.776471 0.028517 0.931822 0.000000 -0.362835 0.108893 0.243930
-0.134873 0.784148 0.026460 0.931822 -0.181433 -0.314219 0.085884 0.242912
-0.134873 0.789768 0.020840 0.931822 -0.314249 -0.181433 0.071896 0.240153
-0.134873 0.791825 0.013162 0.931822 -0.362865 0.000000 0.070678 0.236392
-0.134873 0.789768 0.005485 0.931822 -0.314219 0.181402 0.082556 0.232637
-0.134873 0.784148 -0.000135 0.931822 -0.181402 0.314249 0.104347 0.229894
-0.134873 0.776471 -0.002192 0.931822 0.000000 0.362865 0.130212 0.228898
-0.134873 0.768794 -0.000135 0.931822 0.181402 0.314249 0.153221 0.229916
-0.134873 0.763173 0.005485 0.931822 0.314219 0.181402 0.167208 0.232675
-0.134873 0.761116 0.013162 0.931822 0.362865 0.000000 0.168426 0.236436
-0.257957 0.766856 0.018713 -0.923643 0.331858 -0.191595 0.190152 0.354977
-0.257957 0.770920 0.022777 -0.923643 0.191595 -0.331858 0.174396 0.356960
-0.257957 0.776471 0.013162 -1.000000 0.000000 0.000000 0.163401 0.352246
-0.257957 0.776471 0.024265 -0.923643 0.000000 -0.383190 0.155693 0.357681
-0.257957 0.782022 0.022777 -0.923643 -0.191595 -0.331858 0.139056 0.356944
-0.257957 0.786086 0.018713 -0.923643 -0.331828 -0.191595 0.128943 0.354949
-0.257957 0.787573 0.013162 -0.923643 -0.383190 0.000000 0.128062 0.352230
-0.257957 0.786086 0.007611 -0.923643 -0.331828 0.191626 0.136650 0.349515
-0.257958 0.782022 0.003547 -0.923643 -0.191565 0.331858 0.152407 0.347532
-0.257958 0.776471 0.002060 -0.923643 0.000000 0.383190 0.171109 0.346812
-0.257958 0.770920 0.003547 -0.923643 0.191565 0.331858 0.187746 0.347548
-0.257957 0.766856 0.007611 -0.923643 0.331828 0.191626 0.197860 0.349542
-0.257957 0.765368 0.013162 -0.923643 0.383190 0.000000 0.198740 0.352262
-0.155611 0.794549 0.044476 -0.076418 0.498520 0.863491 0.047656 0.271232
-0.155611 0.776471 0.049320 -0.076449 0.000000 0.997070 0.101838 0.273629
-0.155611 0.758392 0.044476 -0.076449 -0.498520 0.863460 0.162746 0.271284
-0.155611 0.745157 0.031241 -0.076449 -0.863491 0.498520 0.214060 0.264824
-0.155611 0.740313 0.013162 -0.076418 -0.997070 0.000000 0.242031 0.255982
-0.155611 0.745157 -0.004916 -0.076449 -0.863460 -0.498520 0.239162 0.247125
-0.155610 0.758392 -0.018151 -0.076449 -0.498520 -0.863491 0.206224 0.240627
-0.155611 0.776471 -0.022995 -0.076418 0.000000 -0.997070 0.152042 0.238231
-0.155610 0.794549 -0.018151 -0.076449 0.498520 -0.863491 0.091134 0.240575
-0.155611 0.807784 -0.004916 -0.076449 0.863460 -0.498520 0.039820 0.247035
-0.155611 0.812628 0.013162 -0.076418 0.997070 0.000000 0.011850 0.255878
-0.155611 0.807784 0.031241 -0.076418 0.863460 0.498520 0.014718 0.264734
-0.253903 0.776471 0.041783 -0.262459 0.000000 0.964934 0.142087 0.362441
-0.262899 0.788488 0.033977 -0.814570 0.290017 0.502335 0.112458 0.367068
-0.262899 0.776471 0.037198 -0.814570 0.000000 0.580035 0.148475 0.368662
-0.262899 0.764453 0.033977 -0.814570 -0.290017 0.502335 0.188963 0.367103
-0.253903 0.762160 0.037949 -0.262490 -0.482467 0.835627 0.190300 0.360584
-0.253903 0.751684 0.027473 -0.262490 -0.835627 0.482467 0.230918 0.355471
-0.262899 0.755656 0.025180 -0.814570 -0.502335 0.290017 0.223073 0.362809
-0.262899 0.752436 0.013162 -0.814570 -0.580035 0.000000 0.241666 0.356931
-0.253903 0.747850 0.013162 -0.262490 -0.964904 0.000000 0.253058 0.348472
-0.253903 0.751684 -0.001148 -0.262490 -0.835627 -0.482467 0.250788 0.341461
-0.262899 0.755656 0.001145 -0.814570 -0.502304 -0.290017 0.239760 0.351043
-0.262899 0.764453 -0.007653 -0.814570 -0.290017 -0.502304 0.217865 0.346724
-0.253903 0.762160 -0.011624 -0.262490 -0.482467 -0.835627 0.224716 0.336318
-0.253903 0.776471 -0.015459 -0.262490 0.000000 -0.964904 0.181827 0.334421
-0.262899 0.776471 -0.010872 -0.814600 0.000000 -0.579974 0.181848 0.345132
-0.262899 0.788488 -0.007653 -0.814570 0.290017 -0.502304 0.141360 0.346690
-0.253903 0.790781 -0.011624 -0.262490 0.482437 -0.835627 0.133614 0.336277
-0.262899 0.797286 0.001145 -0.814570 0.502304 -0.290017 0.107250 0.350984
-0.253903 0.801257 -0.001148 -0.262490 0.835627 -0.482437 0.092996 0.341390
-0.253903 0.805092 0.013162 -0.262490 0.964904 0.000000 0.070855 0.348390
-0.262899 0.800506 0.013162 -0.814570 0.580035 0.000000 0.088657 0.356862
-0.262899 0.797286 0.025180 -0.814570 0.502304 0.290017 0.090563 0.362749
-0.253903 0.801257 0.027473 -0.262490 0.835627 0.482437 0.073126 0.355400
-0.253903 0.790781 0.037949 -0.262490 0.482437 0.835627 0.099198 0.360543
-0.129299 0.756760 0.024543 0.963378 0.232124 -0.134007 0.172407 0.236767
-0.129299 0.765091 0.032873 0.963378 0.134007 -0.232124 0.140106 0.240833
-0.129300 0.776471 0.035923 0.963378 0.000000 -0.268075 0.101765 0.242310
-0.129299 0.787851 0.032873 0.963378 -0.134037 -0.232093 0.067659 0.240800
-0.129299 0.796182 0.024543 0.963378 -0.232124 -0.134007 0.046925 0.236711
-0.129299 0.799231 0.013162 0.963378 -0.268044 0.000000 0.045119 0.231135
-0.129300 0.796182 0.001782 0.963378 -0.232185 0.134037 0.062726 0.225570
-0.129299 0.787851 -0.006549 0.963408 -0.133976 0.232063 0.095027 0.221503
-0.129299 0.776471 -0.009598 0.963408 0.000000 0.268014 0.133368 0.220027
-0.129299 0.765091 -0.006549 0.963408 0.133946 0.232093 0.167474 0.221536
-0.129300 0.756760 0.001782 0.963378 0.232154 0.134007 0.188209 0.225626
-0.129299 0.753710 0.013162 0.963408 0.268014 0.000000 0.190014 0.231201
-0.262899 0.761611 0.021742 -0.958739 0.246101 -0.142094 0.206505 0.361117
-0.262899 0.776471 0.030321 -0.958739 0.000000 -0.284219 0.153249 0.365295
-0.262899 0.767891 0.028022 -0.958770 0.142064 -0.246071 0.182154 0.364183
-0.262899 0.791331 0.021742 -0.958739 -0.246101 -0.142094 0.111905 0.361074
-0.262899 0.785050 0.028022 -0.958770 -0.142064 -0.246071 0.127537 0.364159
-0.262899 0.793630 0.013162 -0.958739 -0.284188 0.000000 0.110544 0.356871
-0.262899 0.791331 0.004583 -0.958739 -0.246101 0.142094 0.123818 0.352675
-0.262899 0.785050 -0.001698 -0.958770 -0.142064 0.246101 0.148169 0.349610
-0.262899 0.767891 -0.001698 -0.958770 0.142064 0.246101 0.202787 0.349635
-0.262899 0.776471 -0.003997 -0.958739 0.000000 0.284219 0.177074 0.348497
-0.262899 0.761611 0.004583 -0.958739 0.246101 0.142094 0.218417 0.352718
-0.262899 0.759312 0.013162 -0.958739 0.284188 0.000000 0.219778 0.356921
-0.243991 0.776471 0.042543 -0.076449 0.000000 0.997070 0.138028 0.353485
-0.243991 0.761780 0.038607 -0.076418 -0.498520 0.863460 0.187521 0.351579
-0.243991 0.751026 0.027853 -0.076418 -0.863460 0.498520 0.229218 0.346330
-0.243991 0.747090 0.013162 -0.076418 -0.997070 0.000000 0.251946 0.339144
-0.243991 0.751026 -0.001528 -0.076449 -0.863491 -0.498520 0.249615 0.331948
-0.243991 0.761780 -0.012282 -0.076449 -0.498520 -0.863460 0.222851 0.326669
-0.243991 0.776471 -0.016219 -0.076449 0.000000 -0.997070 0.178823 0.324720
-0.243991 0.791161 -0.012282 -0.076449 0.498520 -0.863460 0.129330 0.326626
-0.243991 0.801915 -0.001528 -0.076418 0.863491 -0.498520 0.087633 0.331875
-0.243991 0.805852 0.013162 -0.076449 0.997070 0.000000 0.064905 0.339060
-0.243991 0.801915 0.027853 -0.076418 0.863491 0.498520 0.067235 0.346257
-0.243991 0.791161 0.038607 -0.076418 0.498520 0.863460 0.094000 0.351536
-0.129299 0.762619 0.037155 0.822047 -0.284677 0.493088 0.145001 0.242932
-0.146245 0.744536 0.031600 0.199316 -0.848628 0.489944 0.212454 0.256187
-0.129299 0.752478 0.027014 0.822047 -0.493088 0.284677 0.184318 0.237983
-0.129299 0.776471 0.040866 0.822077 0.000000 0.569353 0.098333 0.244729
-0.146245 0.758033 0.045097 0.199347 -0.489944 0.848628 0.160121 0.262775
-0.146245 0.794909 0.045097 0.199347 0.489944 0.848628 0.042745 0.262722
-0.146246 0.776471 0.050038 0.199316 0.000000 0.979919 0.098003 0.265167
-0.129299 0.790323 0.037155 0.822047 0.284677 0.493088 0.056819 0.242893
-0.146245 0.808406 0.031600 0.199347 0.848628 0.489944 0.009153 0.256095
-0.129299 0.804175 0.013162 0.822047 0.569384 0.000000 0.029384 0.231128
-0.129299 0.800463 0.027014 0.822047 0.493088 0.284677 0.031582 0.237914
-0.129299 0.800463 -0.000690 0.822077 0.493057 -0.284677 0.050815 0.224353
-0.146245 0.813346 0.013162 0.199347 0.979919 0.000000 0.006227 0.247063
-0.146245 0.794909 -0.018773 0.199347 0.489944 -0.848628 0.087086 0.231457
-0.146246 0.808406 -0.005275 0.199316 0.848628 -0.489944 0.034754 0.238045
-0.129300 0.790323 -0.010830 0.822016 0.284677 -0.493118 0.090132 0.219404
-0.146245 0.776471 -0.023713 0.199347 0.000000 -0.979919 0.149204 0.229065
-0.129300 0.762619 -0.010830 0.822016 -0.284707 -0.493118 0.178314 0.219444
-0.129299 0.776471 -0.014542 0.822047 0.000000 -0.569384 0.136800 0.217607
-0.129299 0.752478 -0.000690 0.822077 -0.493057 -0.284677 0.203551 0.224422
-0.146245 0.758033 -0.018773 0.199347 -0.489944 -0.848628 0.204462 0.231510
-0.146245 0.739595 0.013162 0.199347 -0.979919 0.000000 0.240980 0.247169
-0.146246 0.744536 -0.005275 0.199316 -0.848628 -0.489944 0.238055 0.238137
-0.129299 0.748767 0.013162 0.822047 -0.569384 0.000000 0.205749 0.231208
-0.134873 0.768794 0.026460 0.931822 0.181433 -0.314219 0.134758 0.242934
-0.134873 0.763173 0.020840 0.931822 0.314249 -0.181433 0.156548 0.240191
-0.134873 0.776471 0.013162 1.000000 0.000000 0.000000 0.119552 0.236414
-0.134873 0.776471 0.028517 0.931822 0.000000 -0.362835 0.108893 0.243930
-0.134873 0.784148 0.026460 0.931822 -0.181433 -0.314219 0.085884 0.242912
-0.134873 0.789768 0.020840 0.931822 -0.314249 -0.181433 0.071896 0.240153
-0.134873 0.791825 0.013162 0.931822 -0.362865 0.000000 0.070678 0.236392
-0.134873 0.789768 0.005485 0.931822 -0.314219 0.181402 0.082556 0.232637
-0.134873 0.784148 -0.000135 0.931822 -0.181402 0.314249 0.104347 0.229894
-0.134873 0.776471 -0.002192 0.931822 0.000000 0.362865 0.130212 0.228898
-0.134873 0.768794 -0.000135 0.931822 0.181402 0.314249 0.153221 0.229916
-0.134873 0.763173 0.005485 0.931822 0.314219 0.181402 0.167208 0.232675
-0.134873 0.761116 0.013162 0.931822 0.362865 0.000000 0.168426 0.236436
-0.257957 0.766856 0.018713 -0.923643 0.331858 -0.191595 0.190152 0.354977
-0.257957 0.770920 0.022777 -0.923643 0.191595 -0.331858 0.174396 0.356960
-0.257957 0.776471 0.013162 -1.000000 0.000000 0.000000 0.163401 0.352246
-0.257957 0.776471 0.024265 -0.923643 0.000000 -0.383190 0.155693 0.357681
-0.257957 0.782022 0.022777 -0.923643 -0.191595 -0.331858 0.139056 0.356944
-0.257957 0.786086 0.018713 -0.923643 -0.331828 -0.191595 0.128943 0.354949
-0.257957 0.787573 0.013162 -0.923643 -0.383190 0.000000 0.128062 0.352230
-0.257957 0.786086 0.007611 -0.923643 -0.331828 0.191626 0.136650 0.349515
-0.257958 0.782022 0.003547 -0.923643 -0.191565 0.331858 0.152407 0.347532
-0.257958 0.776471 0.002060 -0.923643 0.000000 0.383190 0.171109 0.346812
-0.257958 0.770920 0.003547 -0.923643 0.191565 0.331858 0.187746 0.347548
-0.257957 0.766856 0.007611 -0.923643 0.331828 0.191626 0.197860 0.349542
-0.257957 0.765368 0.013162 -0.923643 0.383190 0.000000 0.198740 0.352262
-0.155611 0.794549 0.044476 -0.076418 0.498520 0.863491 0.047656 0.271232
-0.155611 0.776471 0.049320 -0.076449 0.000000 0.997070 0.101838 0.273629
-0.155611 0.758392 0.044476 -0.076449 -0.498520 0.863460 0.162746 0.271284
-0.155611 0.745157 0.031241 -0.076449 -0.863491 0.498520 0.214060 0.264824
-0.155611 0.740313 0.013162 -0.076418 -0.997070 0.000000 0.242031 0.255982
-0.155611 0.745157 -0.004916 -0.076449 -0.863460 -0.498520 0.239162 0.247125
-0.155610 0.758392 -0.018151 -0.076449 -0.498520 -0.863491 0.206224 0.240627
-0.155611 0.776471 -0.022995 -0.076418 0.000000 -0.997070 0.152042 0.238231
-0.155610 0.794549 -0.018151 -0.076449 0.498520 -0.863491 0.091134 0.240575
-0.155611 0.807784 -0.004916 -0.076449 0.863460 -0.498520 0.039820 0.247035
-0.155611 0.812628 0.013162 -0.076418 0.997070 0.000000 0.011850 0.255878
-0.155611 0.807784 0.031241 -0.076418 0.863460 0.498520 0.014718 0.264734
-0.253903 0.776471 0.041783 -0.262459 0.000000 0.964934 0.142087 0.362441
-0.262899 0.788488 0.033977 -0.814570 0.290017 0.502335 0.112458 0.367068
-0.262899 0.776471 0.037198 -0.814570 0.000000 0.580035 0.148475 0.368662
-0.262899 0.764453 0.033977 -0.814570 -0.290017 0.502335 0.188963 0.367103
-0.253903 0.762160 0.037949 -0.262490 -0.482467 0.835627 0.190300 0.360584
-0.253903 0.751684 0.027473 -0.262490 -0.835627 0.482467 0.230918 0.355471
-0.262899 0.755656 0.025180 -0.814570 -0.502335 0.290017 0.223073 0.362809
-0.262899 0.752436 0.013162 -0.814570 -0.580035 0.000000 0.241666 0.356931
-0.253903 0.747850 0.013162 -0.262490 -0.964904 0.000000 0.253058 0.348472
-0.253903 0.751684 -0.001148 -0.262490 -0.835627 -0.482467 0.250788 0.341461
-0.262899 0.755656 0.001145 -0.814570 -0.502304 -0.290017 0.239760 0.351043
-0.262899 0.764453 -0.007653 -0.814570 -0.290017 -0.502304 0.217865 0.346724
-0.253903 0.762160 -0.011624 -0.262490 -0.482467 -0.835627 0.224716 0.336318
-0.253903 0.776471 -0.015459 -0.262490 0.000000 -0.964904 0.181827 0.334421
-0.262899 0.776471 -0.010872 -0.814600 0.000000 -0.579974 0.181848 0.345132
-0.262899 0.788488 -0.007653 -0.814570 0.290017 -0.502304 0.141360 0.346690
-0.253903 0.790781 -0.011624 -0.262490 0.482437 -0.835627 0.133614 0.336277
-0.262899 0.797286 0.001145 -0.814570 0.502304 -0.290017 0.107250 0.350984
-0.253903 0.801257 -0.001148 -0.262490 0.835627 -0.482437 0.092996 0.341390
-0.253903 0.805092 0.013162 -0.262490 0.964904 0.000000 0.070855 0.348390
-0.262899 0.800506 0.013162 -0.814570 0.580035 0.000000 0.088657 0.356862
-0.262899 0.797286 0.025180 -0.814570 0.502304 0.290017 0.090563 0.362749
-0.253903 0.801257 0.027473 -0.262490 0.835627 0.482437 0.073126 0.355400
-0.253903 0.790781 0.037949 -0.262490 0.482437 0.835627 0.099198 0.360543
-0.129299 0.756760 0.024543 0.963378 0.232124 -0.134007 0.172407 0.236767
-0.129299 0.765091 0.032873 0.963378 0.134007 -0.232124 0.140106 0.240833
-0.129300 0.776471 0.035923 0.963378 0.000000 -0.268075 0.101765 0.242310
-0.129299 0.787851 0.032873 0.963378 -0.134037 -0.232093 0.067659 0.240800
-0.129299 0.796182 0.024543 0.963378 -0.232124 -0.134007 0.046925 0.236711
-0.129299 0.799231 0.013162 0.963378 -0.268044 0.000000 0.045119 0.231135
-0.129300 0.796182 0.001782 0.963378 -0.232185 0.134037 0.062726 0.225570
-0.129299 0.787851 -0.006549 0.963408 -0.133976 0.232063 0.095027 0.221503
-0.129299 0.776471 -0.009598 0.963408 0.000000 0.268014 0.133368 0.220027
-0.129299 0.765091 -0.006549 0.963408 0.133946 0.232093 0.167474 0.221536
-0.129300 0.756760 0.001782 0.963378 0.232154 0.134007 0.188209 0.225626
-0.129299 0.753710 0.013162 0.963408 0.268014 0.000000 0.190014 0.231201
-0.262899 0.761611 0.021742 -0.958739 0.246101 -0.142094 0.206505 0.361117
-0.262899 0.776471 0.030321 -0.958739 0.000000 -0.284219 0.153249 0.365295
-0.262899 0.767891 0.028022 -0.958770 0.142064 -0.246071 0.182154 0.364183
-0.262899 0.791331 0.021742 -0.958739 -0.246101 -0.142094 0.111905 0.361074
-0.262899 0.785050 0.028022 -0.958770 -0.142064 -0.246071 0.127537 0.364159
-0.262899 0.793630 0.013162 -0.958739 -0.284188 0.000000 0.110544 0.356871
-0.262899 0.791331 0.004583 -0.958739 -0.246101 0.142094 0.123818 0.352675
-0.262899 0.785050 -0.001698 -0.958770 -0.142064 0.246101 0.148169 0.349610
-0.262899 0.767891 -0.001698 -0.958770 0.142064 0.246101 0.202787 0.349635
-0.262899 0.776471 -0.003997 -0.958739 0.000000 0.284219 0.177074 0.348497
-0.262899 0.761611 0.004583 -0.958739 0.246101 0.142094 0.218417 0.352718
-0.262899 0.759312 0.013162 -0.958739 0.284188 0.000000 0.219778 0.356921
-0.243991 0.776471 0.042543 -0.076449 0.000000 0.997070 0.138028 0.353485
-0.243991 0.761780 0.038607 -0.076418 -0.498520 0.863460 0.187521 0.351579
-0.243991 0.751026 0.027853 -0.076418 -0.863460 0.498520 0.229218 0.346330
-0.243991 0.747090 0.013162 -0.076418 -0.997070 0.000000 0.251946 0.339144
-0.243991 0.751026 -0.001528 -0.076449 -0.863491 -0.498520 0.249615 0.331948
-0.243991 0.761780 -0.012282 -0.076449 -0.498520 -0.863460 0.222851 0.326669
-0.243991 0.776471 -0.016219 -0.076449 0.000000 -0.997070 0.178823 0.324720
-0.243991 0.791161 -0.012282 -0.076449 0.498520 -0.863460 0.129330 0.326626
-0.243991 0.801915 -0.001528 -0.076418 0.863491 -0.498520 0.087633 0.331875
-0.243991 0.805852 0.013162 -0.076449 0.997070 0.000000 0.064905 0.339060
-0.243991 0.801915 0.027853 -0.076418 0.863491 0.498520 0.067235 0.346257
-0.243991 0.791161 0.038607 -0.076418 0.498520 0.863460 0.094000 0.351536
-0.129299 0.762619 0.037155 0.822047 -0.284677 0.493088 0.145001 0.242932
-0.146245 0.744536 0.031600 0.199316 -0.848628 0.489944 0.212454 0.256187
-0.129299 0.752478 0.027014 0.822047 -0.493088 0.284677 0.184318 0.237983
-0.129299 0.776471 0.040866 0.822077 0.000000 0.569353 0.098333 0.244729
-0.146245 0.758033 0.045097 0.199347 -0.489944 0.848628 0.160121 0.262775
-0.146245 0.794909 0.045097 0.199347 0.489944 0.848628 0.042745 0.262722
-0.146246 0.776471 0.050038 0.199316 0.000000 0.979919 0.098003 0.265167
-0.129299 0.790323 0.037155 0.822047 0.284677 0.493088 0.056819 0.242893
-0.146245 0.808406 0.031600 0.199347 0.848628 0.489944 0.009153 0.256095
-0.129299 0.804175 0.013162 0.822047 0.569384 0.000000 0.029384 0.231128
-0.129299 0.800463 0.027014 0.822047 0.493088 0.284677 0.031582 0.237914
-0.129299 0.800463 -0.000690 0.822077 0.493057 -0.284677 0.050815 0.224353
-0.146245 0.813346 0.013162 0.199347 0.979919 0.000000 0.006227 0.247063
-0.146245 0.794909 -0.018773 0.199347 0.489944 -0.848628 0.087086 0.231457
-0.146246 0.808406 -0.005275 0.199316 0.848628 -0.489944 0.034754 0.238045
-0.129300 0.790323 -0.010830 0.822016 0.284677 -0.493118 0.090132 0.219404
-0.146245 0.776471 -0.023713 0.199347 0.000000 -0.979919 0.149204 0.229065
-0.129300 0.762619 -0.010830 0.822016 -0.284707 -0.493118 0.178314 0.219444
-0.129299 0.776471 -0.014542 0.822047 0.000000 -0.569384 0.136800 0.217607
-0.129299 0.752478 -0.000690 0.822077 -0.493057 -0.284677 0.203551 0.224422
-0.146245 0.758033 -0.018773 0.199347 -0.489944 -0.848628 0.204462 0.231510
-0.146245 0.739595 0.013162 0.199347 -0.979919 0.000000 0.240980 0.247169
-0.146246 0.744536 -0.005275 0.199316 -0.848628 -0.489944 0.238055 0.238137
-0.129299 0.748767 0.013162 0.822047 -0.569384 0.000000 0.205749 0.231208
-0.134873 0.768794 0.026460 0.931822 0.181433 -0.314219 0.134758 0.242934
-0.134873 0.763173 0.020840 0.931822 0.314249 -0.181433 0.156548 0.240191
-0.134873 0.776471 0.013162 1.000000 0.000000 0.000000 0.119552 0.236414
-0.134873 0.776471 0.028517 0.931822 0.000000 -0.362835 0.108893 0.243930
-0.134873 0.784148 0.026460 0.931822 -0.181433 -0.314219 0.085884 0.242912
-0.134873 0.789768 0.020840 0.931822 -0.314249 -0.181433 0.071896 0.240153
-0.134873 0.791825 0.013162 0.931822 -0.362865 0.000000 0.070678 0.236392
-0.134873 0.789768 0.005485 0.931822 -0.314219 0.181402 0.082556 0.232637
-0.134873 0.784148 -0.000135 0.931822 -0.181402 0.314249 0.104347 0.229894
-0.134873 0.776471 -0.002192 0.931822 0.000000 0.362865 0.130212 0.228898
-0.134873 0.768794 -0.000135 0.931822 0.181402 0.314249 0.153221 0.229916
-0.134873 0.763173 0.005485 0.931822 0.314219 0.181402 0.167208 0.232675
-0.134873 0.761116 0.013162 0.931822 0.362865 0.000000 0.168426 0.236436
-0.257957 0.766856 0.018713 -0.923643 0.331858 -0.191595 0.190152 0.354977
-0.257957 0.770920 0.022777 -0.923643 0.191595 -0.331858 0.174396 0.356960
-0.257957 0.776471 0.013162 -1.000000 0.000000 0.000000 0.163401 0.352246
-0.257957 0.776471 0.024265 -0.923643 0.000000 -0.383190 0.155693 0.357681
-0.257957 0.782022 0.022777 -0.923643 -0.191595 -0.331858 0.139056 0.356944
-0.257957 0.786086 0.018713 -0.923643 -0.331828 -0.191595 0.128943 0.354949
-0.257957 0.787573 0.013162 -0.923643 -0.383190 0.000000 0.128062 0.352230
-0.257957 0.786086 0.007611 -0.923643 -0.331828 0.191626 0.136650 0.349515
-0.257958 0.782022 0.003547 -0.923643 -0.191565 0.331858 0.152407 0.347532
-0.257958 0.776471 0.002060 -0.923643 0.000000 0.383190 0.171109 0.346812
-0.257958 0.770920 0.003547 -0.923643 0.191565 0.331858 0.187746 0.347548
-0.257957 0.766856 0.007611 -0.923643 0.331828 0.191626 0.197860 0.349542
-0.257957 0.765368 0.013162 -0.923643 0.383190 0.000000 0.198740 0.352262
-0.155611 0.794549 0.044476 -0.076418 0.498520 0.863491 0.047656 0.271232
-0.155611 0.776471 0.049320 -0.076449 0.000000 0.997070 0.101838 0.273629
-0.155611 0.758392 0.044476 -0.076449 -0.498520 0.863460 0.162746 0.271284
-0.155611 0.745157 0.031241 -0.076449 -0.863491 0.498520 0.214060 0.264824
-0.155611 0.740313 0.013162 -0.076418 -0.997070 0.000000 0.242031 0.255982
-0.155611 0.745157 -0.004916 -0.076449 -0.863460 -0.498520 0.239162 0.247125
-0.155610 0.758392 -0.018151 -0.076449 -0.498520 -0.863491 0.206224 0.240627
-0.155611 0.776471 -0.022995 -0.076418 0.000000 -0.997070 0.152042 0.238231
-0.155610 0.794549 -0.018151 -0.076449 0.498520 -0.863491 0.091134 0.240575
-0.155611 0.807784 -0.004916 -0.076449 0.863460 -0.498520 0.039820 0.247035
-0.155611 0.812628 0.013162 -0.076418 0.997070 0.000000 0.011850 0.255878
-0.155611 0.807784 0.031241 -0.076418 0.863460 0.498520 0.014718 0.264734
-0.253903 0.776471 0.041783 -0.262459 0.000000 0.964934 0.142087 0.362441
-0.262899 0.788488 0.033977 -0.814570 0.290017 0.502335 0.112458 0.367068
-0.262899 0.776471 0.037198 -0.814570 0.000000 0.580035 0.148475 0.368662
-0.262899 0.764453 0.033977 -0.814570 -0.290017 0.502335 0.188963 0.367103
-0.253903 0.762160 0.037949 -0.262490 -0.482467 0.835627 0.190300 0.360584
-0.253903 0.751684 0.027473 -0.262490 -0.835627 0.482467 0.230918 0.355471
-0.262899 0.755656 0.025180 -0.814570 -0.502335 0.290017 0.223073 0.362809
-0.262899 0.752436 0.013162 -0.814570 -0.580035 0.000000 0.241666 0.356931
-0.253903 0.747850 0.013162 -0.262490 -0.964904 0.000000 0.253058 0.348472
-0.253903 0.751684 -0.001148 -0.262490 -0.835627 -0.482467 0.250788 0.341461
-0.262899 0.755656 0.001145 -0.814570 -0.502304 -0.290017 0.239760 0.351043
-0.262899 0.764453 -0.007653 -0.814570 -0.290017 -0.502304 0.217865 0.346724
-0.253903 0.762160 -0.011624 -0.262490 -0.482467 -0.835627 0.224716 0.336318
-0.253903 0.776471 -0.015459 -0.262490 0.000000 -0.964904 0.181827 0.334421
-0.262899 0.776471 -0.010872 -0.814600 0.000000 -0.579974 0.181848 0.345132
-0.262899 0.788488 -0.007653 -0.814570 0.290017 -0.502304 0.141360 0.346690
-0.253903 0.790781 -0.011624 -0.262490 0.482437 -0.835627 0.133614 0.336277
-0.262899 0.797286 0.001145 -0.814570 0.502304 -0.290017 0.107250 0.350984
-0.253903 0.801257 -0.001148 -0.262490 0.835627 -0.482437 0.092996 0.341390
-0.253903 0.805092 0.013162 -0.262490 0.964904 0.000000 0.070855 0.348390
-0.262899 0.800506 0.013162 -0.814570 0.580035 0.000000 0.088657 0.356862
-0.262899 0.797286 0.025180 -0.814570 0.502304 0.290017 0.090563 0.362749
-0.253903 0.801257 0.027473 -0.262490 0.835627 0.482437 0.073126 0.355400
-0.253903 0.790781 0.037949 -0.262490 0.482437 0.835627 0.099198 0.360543
-0.129299 0.756760 0.024543 0.963378 0.232124 -0.134007 0.172407 0.236767
-0.129299 0.765091 0.032873 0.963378 0.134007 -0.232124 0.140106 0.240833
-0.129300 0.776471 0.035923 0.963378 0.000000 -0.268075 0.101765 0.242310
-0.129299 0.787851 0.032873 0.963378 -0.134037 -0.232093 0.067659 0.240800
-0.129299 0.796182 0.024543 0.963378 -0.232124 -0.134007 0.046925 0.236711
-0.129299 0.799231 0.013162 0.963378 -0.268044 0.000000 0.045119 0.231135
-0.129300 0.796182 0.001782 0.963378 -0.232185 0.134037 0.062726 0.225570
-0.129299 0.787851 -0.006549 0.963408 -0.133976 0.232063 0.095027 0.221503
-0.129299 0.776471 -0.009598 0.963408 0.000000 0.268014 0.133368 0.220027
-0.129299 0.765091 -0.006549 0.963408 0.133946 0.232093 0.167474 0.221536
-0.129300 0.756760 0.001782 0.963378 0.232154 0.134007 0.188209 0.225626
-0.129299 0.753710 0.013162 0.963408 0.268014 0.000000 0.190014 0.231201
-0.262899 0.761611 0.021742 -0.958739 0.246101 -0.142094 0.206505 0.361117
-0.262899 0.776471 0.030321 -0.958739 0.000000 -0.284219 0.153249 0.365295
-0.262899 0.767891 0.028022 -0.958770 0.142064 -0.246071 0.182154 0.364183
-0.262899 0.791331 0.021742 -0.958739 -0.246101 -0.142094 0.111905 0.361074
-0.262899 0.785050 0.028022 -0.958770 -0.142064 -0.246071 0.127537 0.364159
-0.262899 0.793630 0.013162 -0.958739 -0.284188 0.000000 0.110544 0.356871
-0.262899 0.791331 0.004583 -0.958739 -0.246101 0.142094 0.123818 0.352675
-0.262899 0.785050 -0.001698 -0.958770 -0.142064 0.246101 0.148169 0.349610
-0.262899 0.767891 -0.001698 -0.958770 0.142064 0.246101 0.202787 0.349635
-0.262899 0.776471 -0.003997 -0.958739 0.000000 0.284219 0.177074 0.348497
-0.262899 0.761611 0.004583 -0.958739 0.246101 0.142094 0.218417 0.352718
-0.262899 0.759312 0.013162 -0.958739 0.284188 0.000000 0.219778 0.356921
-0.243991 0.776471 0.042543 -0.076449 0.000000 0.997070 0.138028 0.353485
-0.243991 0.761780 0.038607 -0.076418 -0.498520 0.863460 0.187521 0.351579
-0.243991 0.751026 0.027853 -0.076418 -0.863460 0.498520 0.229218 0.346330
-0.243991 0.747090 0.013162 -0.076418 -0.997070 0.000000 0.251946 0.339144
-0.243991 0.751026 -0.001528 -0.076449 -0.863491 -0.498520 0.249615 0.331948
-0.243991 0.761780 -0.012282 -0.076449 -0.498520 -0.863460 0.222851 0.326669
-0.243991 0.776471 -0.016219 -0.076449 0.000000 -0.997070 0.178823 0.324720
-0.243991 0.791161 -0.012282 -0.076449 0.498520 -0.863460 0.129330 0.326626
-0.243991 0.801915 -0.001528 -0.076418 0.863491 -0.498520 0.087633 0.331875
-0.243991 0.805852 0.013162 -0.076449 0.997070 0.000000 0.064905 0.339060
-0.243991 0.801915 0.027853 -0.076418 0.863491 0.498520 0.067235 0.346257
-0.243991 0.791161 0.038607 -0.076418 0.498520 0.863460 0.094000 0.351536
-0.129299 0.762619 0.037155 0.822047 -0.284677 0.493088 0.145001 0.242932
-0.146245 0.744536 0.031600 0.199316 -0.848628 0.489944 0.212454 0.256187
-0.129299 0.752478 0.027014 0.822047 -0.493088 0.284677 0.184318 0.237983
-0.129299 0.776471 0.040866 0.822077 0.000000 0.569353 0.098333 0.244729
-0.146245 0.758033 0.045097 0.199347 -0.489944 0.848628 0.160121 0.262775
-0.146245 0.794909 0.045097 0.199347 0.489944 0.848628 0.042745 0.262722
-0.146246 0.776471 0.050038 0.199316 0.000000 0.979919 0.098003 0.265167
-0.129299 0.790323 0.037155 0.822047 0.284677 0.493088 0.056819 0.242893
-0.146245 0.808406 0.031600 0.199347 0.848628 0.489944 0.009153 0.256095
-0.129299 0.804175 0.013162 0.822047 0.569384 0.000000 0.029384 0.231128
-0.129299 0.800463 0.027014 0.822047 0.493088 0.284677 0.031582 0.237914
-0.129299 0.800463 -0.000690 0.822077 0.493057 -0.284677 0.050815 0.224353
-0.146245 0.813346 0.013162 0.199347 0.979919 0.000000 0.006227 0.247063
-0.146245 0.794909 -0.018773 0.199347 0.489944 -0.848628 0.087086 0.231457
-0.146246 0.808406 -0.005275 0.199316 0.848628 -0.489944 0.034754 0.238045
-0.129300 0.790323 -0.010830 0.822016 0.284677 -0.493118 0.090132 0.219404
-0.146245 0.776471 -0.023713 0.199347 0.000000 -0.979919 0.149204 0.229065
-0.129300 0.762619 -0.010830 0.822016 -0.284707 -0.493118 0.178314 0.219444
-0.129299 0.776471 -0.014542 0.822047 0.000000 -0.569384 0.136800 0.217607
-0.129299 0.752478 -0.000690 0.822077 -0.493057 -0.284677 0.203551 0.224422
-0.146245 0.758033 -0.018773 0.199347 -0.489944 -0.848628 0.204462 0.231510
-0.146245 0.739595 0.013162 0.199347 -0.979919 0.000000 0.240980 0.247169
-0.146246 0.744536 -0.005275 0.199316 -0.848628 -0.489944 0.238055 0.238137
-0.129299 0.748767 0.013162 0.822047 -0.569384 0.000000 0.205749 0.231208
-0.134873 0.768794 0.026460 0.931822 0.181433 -0.314219 0.134758 0.242934
-0.134873 0.763173 0.020840 0.931822 0.314249 -0.181433 0.156548 0.240191
-0.134873 0.776471 0.013162 1.000000 0.000000 0.000000 0.119552 0.236414
-0.134873 0.776471 0.028517 0.931822 0.000000 -0.362835 0.108893 0.243930
-0.134873 0.784148 0.026460 0.931822 -0.181433 -0.314219 0.085884 0.242912
-0.134873 0.789768 0.020840 0.931822 -0.314249 -0.181433 0.071896 0.240153
-0.134873 0.791825 0.013162 0.931822 -0.362865 0.000000 0.070678 0.236392
-0.134873 0.789768 0.005485 0.931822 -0.314219 0.181402 0.082556 0.232637
-0.134873 0.784148 -0.000135 0.931822 -0.181402 0.314249 0.104347 0.229894
-0.134873 0.776471 -0.002192 0.931822 0.000000 0.362865 0.130212 0.228898
-0.134873 0.768794 -0.000135 0.931822 0.181402 0.314249 0.153221 0.229916
-0.134873 0.763173 0.005485 0.931822 0.314219 0.181402 0.167208 0.232675
-0.134873 0.761116 0.013162 0.931822 0.362865 0.000000 0.168426 0.236436
-0.257957 0.766856 0.018713 -0.923643 0.331858 -0.191595 0.190152 0.354977
-0.257957 0.770920 0.022777 -0.923643 0.191595 -0.331858 0.174396 0.356960
-0.257957 0.776471 0.013162 -1.000000 0.000000 0.000000 0.163401 0.352246
-0.257957 0.776471 0.024265 -0.923643 0.000000 -0.383190 0.155693 0.357681
-0.257957 0.782022 0.022777 -0.923643 -0.191595 -0.331858 0.139056 0.356944
-0.257957 0.786086 0.018713 -0.923643 -0.331828 -0.191595 0.128943 0.354949
-0.257957 0.787573 0.013162 -0.923643 -0.383190 0.000000 0.128062 0.352230
-0.257957 0.786086 0.007611 -0.923643 -0.331828 0.191626 0.136650 0.349515
-0.257958 0.782022 0.003547 -0.923643 -0.191565 0.331858 0.152407 0.347532
-0.257958 0.776471 0.002060 -0.923643 0.000000 0.383190 0.171109 0.346812
-0.257958 0.770920 0.003547 -0.923643 0.191565 0.331858 0.187746 0.347548
-0.257957 0.766856 0.007611 -0.923643 0.331828 0.191626 0.197860 0.349542
-0.257957 0.765368 0.013162 -0.923643 0.383190 0.000000 0.198740 0.352262
-0.155611 0.794549 0.044476 -0.076418 0.498520 0.863491 0.047656 0.271232
-0.155611 0.776471 0.049320 -0.076449 0.000000 0.997070 0.101838 0.273629
-0.155611 0.758392 0.044476 -0.076449 -0.498520 0.863460 0.162746 0.271284
-0.155611 0.745157 0.031241 -0.076449 -0.863491 0.498520 0.214060 0.264824
-0.155611 0.740313 0.013162 -0.076418 -0.997070 0.000000 0.242031 0.255982
-0.155611 0.745157 -0.004916 -0.076449 -0.863460 -0.498520 0.239162 0.247125
-0.155610 0.758392 -0.018151 -0.076449 -0.498520 -0.863491 0.206224 0.240627
-0.155611 0.776471 -0.022995 -0.076418 0.000000 -0.997070 0.152042 0.238231
-0.155610 0.794549 -0.018151 -0.076449 0.498520 -0.863491 0.091134 0.240575
-0.155611 0.807784 -0.004916 -0.076449 0.863460 -0.498520 0.039820 0.247035
-0.155611 0.812628 0.013162 -0.076418 0.997070 0.000000 0.011850 0.255878
-0.155611 0.807784 0.031241 -0.076418 0.863460 0.498520 0.014718 0.264734
-0.253903 0.776471 0.041783 -0.262459 0.000000 0.964934 0.142087 0.362441
-0.262899 0.788488 0.033977 -0.814570 0.290017 0.502335 0.112458 0.367068
-0.262899 0.776471 0.037198 -0.814570 0.000000 0.580035 0.148475 0.368662
-0.262899 0.764453 0.033977 -0.814570 -0.290017 0.502335 0.188963 0.367103
-0.253903 0.762160 0.037949 -0.262490 -0.482467 0.835627 0.190300 0.360584
-0.253903 0.751684 0.027473 -0.262490 -0.835627 0.482467 0.230918 0.355471
-0.262899 0.755656 0.025180 -0.814570 -0.502335 0.290017 0.223073 0.362809
-0.262899 0.752436 0.013162 -0.814570 -0.580035 0.000000 0.241666 0.356931
-0.253903 0.747850 0.013162 -0.262490 -0.964904 0.000000 0.253058 0.348472
-0.253903 0.751684 -0.001148 -0.262490 -0.835627 -0.482467 0.250788 0.341461
-0.262899 0.755656 0.001145 -0.814570 -0.502304 -0.290017 0.239760 0.351043
-0.262899 0.764453 -0.007653 -0.814570 -0.290017 -0.502304 0.217865 0.346724
-0.253903 0.762160 -0.011624 -0.262490 -0.482467 -0.835627 0.224716 0.336318
-0.253903 0.776471 -0.015459 -0.262490 0.000000 -0.964904 0.181827 0.334421
-0.262899 0.776471 -0.010872 -0.814600 0.000000 -0.579974 0.181848 0.345132
-0.262899 0.788488 -0.007653 -0.814570 0.290017 -0.502304 0.141360 0.346690
-0.253903 0.790781 -0.011624 -0.262490 0.482437 -0.835627 0.133614 0.336277
-0.262899 0.797286 0.001145 -0.814570 0.502304 -0.290017 0.107250 0.350984
-0.253903 0.801257 -0.001148 -0.262490 0.835627 -0.482437 0.092996 0.341390
-0.253903 0.805092 0.013162 -0.262490 0.964904 0.000000 0.070855 0.348390
-0.262899 0.800506 0.013162 -0.814570 0.580035 0.000000 0.088657 0.356862
-0.262899 0.797286 0.025180 -0.814570 0.502304 0.290017 0.090563 0.362749
-0.253903 0.801257 0.027473 -0.262490 0.835627 0.482437 0.073126 0.355400
-0.253903 0.790781 0.037949 -0.262490 0.482437 0.835627 0.099198 0.360543
-0.129299 0.756760 0.024543 0.963378 0.232124 -0.134007 0.172407 0.236767
-0.129299 0.765091 0.032873 0.963378 0.134007 -0.232124 0.140106 0.240833
-0.129300 0.776471 0.035923 0.963378 0.000000 -0.268075 0.101765 0.242310
-0.129299 0.787851 0.032873 0.963378 -0.134037 -0.232093 0.067659 0.240800
-0.129299 0.796182 0.024543 0.963378 -0.232124 -0.134007 0.046925 0.236711
-0.129299 0.799231 0.013162 0.963378 -0.268044 0.000000 0.045119 0.231135
-0.129300 0.796182 0.001782 0.963378 -0.232185 0.134037 0.062726 0.225570
-0.129299 0.787851 -0.006549 0.963408 -0.133976 0.232063 0.095027 0.221503
-0.129299 0.776471 -0.009598 0.963408 0.000000 0.268014 0.133368 0.220027
-0.129299 0.765091 -0.006549 0.963408 0.133946 0.232093 0.167474 0.221536
-0.129300 0.756760 0.001782 0.963378 0.232154 0.134007 0.188209 0.225626
-0.129299 0.753710 0.013162 0.963408 0.268014 0.000000 0.190014 0.231201
-0.262899 0.761611 0.021742 -0.958739 0.246101 -0.142094 0.206505 0.361117
-0.262899 0.776471 0.030321 -0.958739 0.000000 -0.284219 0.153249 0.365295
-0.262899 0.767891 0.028022 -0.958770 0.142064 -0.246071 0.182154 0.364183
-0.262899 0.791331 0.021742 -0.958739 -0.246101 -0.142094 0.111905 0.361074
-0.262899 0.785050 0.028022 -0.958770 -0.142064 -0.246071 0.127537 0.364159
-0.262899 0.793630 0.013162 -0.958739 -0.284188 0.000000 0.110544 0.356871
-0.262899 0.791331 0.004583 -0.958739 -0.246101 0.142094 0.123818 0.352675
-0.262899 0.785050 -0.001698 -0.958770 -0.142064 0.246101 0.148169 0.349610
-0.262899 0.767891 -0.001698 -0.958770 0.142064 0.246101 0.202787 0.349635
-0.262899 0.776471 -0.003997 -0.958739 0.000000 0.284219 0.177074 0.348497
-0.262899 0.761611 0.004583 -0.958739 0.246101 0.142094 0.218417 0.352718
-0.262899 0.759312 0.013162 -0.958739 0.284188 0.000000 0.219778 0.356921
-0.243991 0.776471 0.042543 -0.076449 0.000000 0.997070 0.138028 0.353485
-0.243991 0.761780 0.038607 -0.076418 -0.498520 0.863460 0.187521 0.351579
-0.243991 0.751026 0.027853 -0.076418 -0.863460 0.498520 0.229218 0.346330
-0.243991 0.747090 0.013162 -0.076418 -0.997070 0.000000 0.251946 0.339144
-0.243991 0.751026 -0.001528 -0.076449 -0.863491 -0.498520 0.249615 0.331948
-0.243991 0.761780 -0.012282 -0.076449 -0.498520 -0.863460 0.222851 0.326669
-0.243991 0.776471 -0.016219 -0.076449 0.000000 -0.997070 0.178823 0.324720
-0.243991 0.791161 -0.012282 -0.076449 0.498520 -0.863460 0.129330 0.326626
-0.243991 0.801915 -0.001528 -0.076418 0.863491 -0.498520 0.087633 0.331875
-0.243991 0.805852 0.013162 -0.076449 0.997070 0.000000 0.064905 0.339060
-0.243991 0.801915 0.027853 -0.076418 0.863491 0.498520 0.067235 0.346257
-0.243991 0.791161 0.038607 -0.076418 0.498520 0.863460 0.094000 0.351536
-0.129299 0.762619 0.037155 0.822047 -0.284677 0.493088 0.145001 0.242932
-0.146245 0.744536 0.031600 0.199316 -0.848628 0.489944 0.212454 0.256187
-0.129299 0.752478 0.027014 0.822047 -0.493088 0.284677 0.184318 0.237983
-0.129299 0.776471 0.040866 0.822077 0.000000 0.569353 0.098333 0.244729
-0.146245 0.758033 0.045097 0.199347 -0.489944 0.848628 0.160121 0.262775
-0.146245 0.794909 0.045097 0.199347 0.489944 0.848628 0.042745 0.262722
-0.146246 0.776471 0.050038 0.199316 0.000000 0.979919 0.098003 0.265167
-0.129299 0.790323 0.037155 0.822047 0.284677 0.493088 0.056819 0.242893
-0.146245 0.808406 0.031600 0.199347 0.848628 0.489944 0.009153 0.256095
-0.129299 0.804175 0.013162 0.822047 0.569384 0.000000 0.029384 0.231128
-0.129299 0.800463 0.027014 0.822047 0.493088 0.284677 0.031582 0.237914
-0.129299 0.800463 -0.000690 0.822077 0.493057 -0.284677 0.050815 0.224353
-0.146245 0.813346 0.013162 0.199347 0.979919 0.000000 0.006227 0.247063
-0.146245 0.794909 -0.018773 0.199347 0.489944 -0.848628 0.087086 0.231457
-0.146246 0.808406 -0.005275 0.199316 0.848628 -0.489944 0.034754 0.238045
-0.129300 0.790323 -0.010830 0.822016 0.284677 -0.493118 0.090132 0.219404
-0.146245 0.776471 -0.023713 0.199347 0.000000 -0.979919 0.149204 0.229065
-0.129300 0.762619 -0.010830 0.822016 -0.284707 -0.493118 0.178314 0.219444
-0.129299 0.776471 -0.014542 0.822047 0.000000 -0.569384 0.136800 0.217607
-0.129299 0.752478 -0.000690 0.822077 -0.493057 -0.284677 0.203551 0.224422
-0.146245 0.758033 -0.018773 0.199347 -0.489944 -0.848628 0.204462 0.231510
-0.146245 0.739595 0.013162 0.199347 -0.979919 0.000000 0.240980 0.247169
-0.146246 0.744536 -0.005275 0.199316 -0.848628 -0.489944 0.238055 0.238137
-0.129299 0.748767 0.013162 0.822047 -0.569384 0.000000 0.205749 0.231208
-0.134873 0.768794 0.026460 0.931822 0.181433 -0.314219 0.134758 0.242934
-0.134873 0.763173 0.020840 0.931822 0.314249 -0.181433 0.156548 0.240191
-0.134873 0.776471 0.013162 1.000000 0.000000 0.000000 0.119552 0.236414
-0.134873 0.776471 0.028517 0.931822 0.000000 -0.362835 0.108893 0.243930
-0.134873 0.784148 0.026460 0.931822 -0.181433 -0.314219 0.085884 0.242912
-0.134873 0.789768 0.020840 0.931822 -0.314249 -0.181433 0.071896 0.240153
-0.134873 0.791825 0.013162 0.931822 -0.362865 0.000000 0.070678 0.236392
-0.134873 0.789768 0.005485 0.931822 -0.314219 0.181402 0.082556 0.232637
-0.134873 0.784148 -0.000135 0.931822 -0.181402 0.314249 0.104347 0.229894
-0.134873 0.776471 -0.002192 0.931822 0.000000 0.362865 0.130212 0.228898
-0.134873 0.768794 -0.000135 0.931822 0.181402 0.314249 0.153221 0.229916
-0.134873 0.763173 0.005485 0.931822 0.314219 0.181402 0.167208 0.232675
-0.134873 0.761116 0.013162 0.931822 0.362865 0.000000 0.168426 0.236436
-0.257957 0.766856 0.018713 -0.923643 0.331858 -0.191595 0.190152 0.354977
-0.257957 0.770920 0.022777 -0.923643 0.191595 -0.331858 0.174396 0.356960
-0.257957 0.776471 0.013162 -1.000000 0.000000 0.000000 0.163401 0.352246
-0.257957 0.776471 0.024265 -0.923643 0.000000 -0.383190 0.155693 0.357681
-0.257957 0.782022 0.022777 -0.923643 -0.191595 -0.331858 0.139056 0.356944
-0.257957 0.786086 0.018713 -0.923643 -0.331828 -0.191595 0.128943 0.354949
-0.257957 0.787573 0.013162 -0.923643 -0.383190 0.000000 0.128062 0.352230
-0.257957 0.786086 0.007611 -0.923643 -0.331828 0.191626 0.136650 0.349515
-0.257958 0.782022 0.003547 -0.923643 -0.191565 0.331858 0.152407 0.347532
-0.257958 0.776471 0.002060 -0.923643 0.000000 0.383190 0.171109 0.346812
-0.257958 0.770920 0.003547 -0.923643 0.191565 0.331858 0.187746 0.347548
-0.257957 0.766856 0.007611 -0.923643 0.331828 0.191626 0.197860 0.349542
-0.257957 0.765368 0.013162 -0.923643 0.383190 0.000000 0.198740 0.352262
-0.155611 0.794549 0.044476 -0.076418 0.498520 0.863491 0.047656 0.271232
-0.155611 0.776471 0.049320 -0.076449 0.000000 0.997070 0.101838 0.273629
-0.155611 0.758392 0.044476 -0.076449 -0.498520 0.863460 0.162746 0.271284
-0.155611 0.745157 0.031241 -0.076449 -0.863491 0.498520 0.214060 0.264824
-0.155611 0.740313 0.013162 -0.076418 -0.997070 0.000000 0.242031 0.255982
-0.155611 0.745157 -0.004916 -0.076449 -0.863460 -0.498520 0.239162 0.247125
-0.155610 0.758392 -0.018151 -0.076449 -0.498520 -0.863491 0.206224 0.240627
-0.155611 0.776471 -0.022995 -0.076418 0.000000 -0.997070 0.152042 0.238231
-0.155610 0.794549 -0.018151 -0.076449 0.498520 -0.863491 0.091134 0.240575
-0.155611 0.807784 -0.004916 -0.076449 0.863460 -0.498520 0.039820 0.247035
-0.155611 0.812628 0.013162 -0.076418 0.997070 0.000000 0.011850 0.255878
-0.155611 0.807784 0.031241 -0.076418 0.863460 0.498520 0.014718 0.264734
-0.253903 0.776471 0.041783 -0.262459 0.000000 0.964934 0.142087 0.362441
-0.262899 0.788488 0.033977 -0.814570 0.290017 0.502335 0.112458 0.367068
-0.262899 0.776471 0.037198 -0.814570 0.000000 0.580035 0.148475 0.368662
-0.262899 0.764453 0.033977 -0.814570 -0.290017 0.502335 0.188963 0.367103
-0.253903 0.762160 0.037949 -0.262490 -0.482467 0.835627 0.190300 0.360584
-0.253903 0.751684 0.027473 -0.262490 -0.835627 0.482467 0.230918 0.355471
-0.262899 0.755656 0.025180 -0.814570 -0.502335 0.290017 0.223073 0.362809
-0.262899 0.752436 0.013162 -0.814570 -0.580035 0.000000 0.241666 0.356931
-0.253903 0.747850 0.013162 -0.262490 -0.964904 0.000000 0.253058 0.348472
-0.253903 0.751684 -0.001148 -0.262490 -0.835627 -0.482467 0.250788 0.341461
-0.262899 0.755656 0.001145 -0.814570 -0.502304 -0.290017 0.239760 0.351043
-0.262899 0.764453 -0.007653 -0.814570 -0.290017 -0.502304 0.217865 0.346724
-0.253903 0.762160 -0.011624 -0.262490 -0.482467 -0.835627 0.224716 0.336318
-0.253903 0.776471 -0.015459 -0.262490 0.000000 -0.964904 0.181827 0.334421
-0.262899 0.776471 -0.010872 -0.814600 0.000000 -0.579974 0.181848 0.345132
-0.262899 0.788488 -0.007653 -0.814570 0.290017 -0.502304 0.141360 0.346690
-0.253903 0.790781 -0.011624 -0.262490 0.482437 -0.835627 0.133614 0.336277
-0.262899 0.797286 0.001145 -0.814570 0.502304 -0.290017 0.107250 0.350984
-0.253903 0.801257 -0.001148 -0.262490 0.835627 -0.482437 0.092996 0.341390
-0.253903 0.805092 0.013162 -0.262490 0.964904 0.000000 0.070855 0.348390
-0.262899 0.800506 0.013162 -0.814570 0.580035 0.000000 0.088657 0.356862
-0.262899 0.797286 0.025180 -0.814570 0.502304 0.290017 0.090563 0.362749
-0.253903 0.801257 0.027473 -0.262490 0.835627 0.482437 0.073126 0.355400
-0.253903 0.790781 0.037949 -0.262490 0.482437 0.835627 0.099198 0.360543
-0.129299 0.756760 0.024543 0.963378 0.232124 -0.134007 0.172407 0.236767
-0.129299 0.765091 0.032873 0.963378 0.134007 -0.232124 0.140106 0.240833
-0.129300 0.776471 0.035923 0.963378 0.000000 -0.268075 0.101765 0.242310
-0.129299 0.787851 0.032873 0.963378 -0.134037 -0.232093 0.067659 0.240800
-0.129299 0.796182 0.024543 0.963378 -0.232124 -0.134007 0.046925 0.236711
-0.129299 0.799231 0.013162 0.963378 -0.268044 0.000000 0.045119 0.231135
-0.129300 0.796182 0.001782 0.963378 -0.232185 0.134037 0.062726 0.225570
-0.129299 0.787851 -0.006549 0.963408 -0.133976 0.232063 0.095027 0.221503
-0.129299 0.776471 -0.009598 0.963408 0.000000 0.268014 0.133368 0.220027
-0.129299 0.765091 -0.006549 0.963408 0.133946 0.232093 0.167474 0.221536
-0.129300 0.756760 0.001782 0.963378 0.232154 0.134007 0.188209 0.225626
-0.129299 0.753710 0.013162 0.963408 0.268014 0.000000 0.190014 0.231201
-0.262899 0.761611 0.021742 -0.958739 0.246101 -0.142094 0.206505 0.361117
-0.262899 0.776471 0.030321 -0.958739 0.000000 -0.284219 0.153249 0.365295
-0.262899 0.767891 0.028022 -0.958770 0.142064 -0.246071 0.182154 0.364183
-0.262899 0.791331 0.021742 -0.958739 -0.246101 -0.142094 0.111905 0.361074
-0.262899 0.785050 0.028022 -0.958770 -0.142064 -0.246071 0.127537 0.364159
-0.262899 0.793630 0.013162 -0.958739 -0.284188 0.000000 0.110544 0.356871
-0.262899 0.791331 0.004583 -0.958739 -0.246101 0.142094 0.123818 0.352675
-0.262899 0.785050 -0.001698 -0.958770 -0.142064 0.246101 0.148169 0.349610
-0.262899 0.767891 -0.001698 -0.958770 0.142064 0.246101 0.202787 0.349635
-0.262899 0.776471 -0.003997 -0.958739 0.000000 0.284219 0.177074 0.348497
-0.262899 0.761611 0.004583 -0.958739 0.246101 0.142094 0.218417 0.352718
-0.262899 0.759312 0.013162 -0.958739 0.284188 0.000000 0.219778 0.356921
-0.243991 0.776471 0.042543 -0.076449 0.000000 0.997070 0.138028 0.353485
-0.243991 0.761780 0.038607 -0.076418 -0.498520 0.863460 0.187521 0.351579
-0.243991 0.751026 0.027853 -0.076418 -0.863460 0.498520 0.229218 0.346330
-0.243991 0.747090 0.013162 -0.076418 -0.997070 0.000000 0.251946 0.339144
-0.243991 0.751026 -0.001528 -0.076449 -0.863491 -0.498520 0.249615 0.331948
-0.243991 0.761780 -0.012282 -0.076449 -0.498520 -0.863460 0.222851 0.326669
-0.243991 0.776471 -0.016219 -0.076449 0.000000 -0.997070 0.178823 0.324720
-0.243991 0.791161 -0.012282 -0.076449 0.498520 -0.863460 0.129330 0.326626
-0.243991 0.801915 -0.001528 -0.076418 0.863491 -0.498520 0.087633 0.331875
-0.243991 0.805852 0.013162 -0.076449 0.997070 0.000000 0.064905 0.339060
-0.243991 0.801915 0.027853 -0.076418 0.863491 0.498520 0.067235 0.346257
-0.243991 0.791161 0.038607 -0.076418 0.498520 0.863460 0.094000 0.351536
3 0 1 2
3 3 4 0
3 3 5 6
3 7 8 5
3 9 8 10
3 11 12 9
3 11 13 14
3 15 16 13
3 17 16 18
3 19 20 17
3 19 21 22
3 23 1 21
3 24 25 26
3 27 24 26
3 28 27 26
3 29 28 26
3 30 29 26
3 31 30 26
3 32 31 26
3 33 32 26
3 34 33 26
3 35 34 26
3 36 35 26
3 25 36 26
3 37 38 39
3 38 40 39
3 40 41 39
3 41 42 39
3 42 43 39
3 43 44 39
3 44 45 39
3 45 46 39
3 46 47 39
3 47 48 39
3 48 49 39
3 49 37 39
3 6 50 51
3 6 52 4
3 1 52 53
3 21 53 54
3 22 54 55
3 22 56 20
3 16 56 57
3 16 58 13
3 14 58 59
3 14 60 12
3 12 61 8
3 8 50 5
3 62 63 64
3 62 65 66
3 67 65 68
3 67 69 70
3 71 69 72
3 71 73 74
3 75 73 76
3 75 77 78
3 78 79 80
3 81 79 82
3 81 83 84
3 85 83 63
3 0 86 87
3 3 87 88
3 7 88 89
3 10 89 90
3 10 91 9
3 11 91 92
3 11 93 15
3 15 94 18
3 18 95 17
3 17 96 19
3 23 96 97
3 23 86 2
3 87 25 24
3 88 24 27
3 88 28 89
3 90 28 29
3 90 30 91
3 92 30 31
3 92 32 93
3 93 33 94
3 95 33 34
3 96 34 35
3 96 36 97
3 86 36 25
3 65 98 68
3 65 99 100
3 63 99 64
3 63 101 102
3 83 103 101
3 79 103 82
3 77 104 79
3 76 105 77
3 76 106 107
3 73 108 106
3 72 109 108
3 68 109 69
3 98 38 37
3 99 38 100
3 99 41 40
3 101 41 102
3 101 43 42
3 104 43 103
3 104 45 44
3 107 45 105
3 107 47 46
3 108 47 106
3 109 48 108
3 109 37 49
3 110 85 62
3 110 66 111
3 112 66 67
3 112 70 113
3 114 70 71
3 115 71 74
3 115 75 116
3 117 75 78
3 117 80 118
3 118 81 119
3 120 81 84
3 120 85 121
3 51 121 110
3 51 111 52
3 52 112 53
3 53 113 54
3 55 113 114
3 55 115 56
3 57 115 116
3 57 117 58
3 59 117 118
3 59 119 60
3 61 119 120
3 61 121 50
3 122 123 124
3 125 126 122
3 125 127 128
3 129 130 127
3 131 130 132
3 133 134 131
3 133 135 136
3 137 138 135
3 139 138 140
3 141 142 139
3 141 143 144
3 145 123 143
3 146 147 148
3 149 146 148
3 150 149 148
3 151 150 148
3 152 151 148
3 153 152 148
3 154 153 148
3 155 154 148
3 156 155 148
3 157 156 148
3 158 157 148
3 147 158 148
3 159 160 161
3 160 162 161
3 162 163 161
3 163 164 161
3 164 165 161
3 165 166 161
3 166 167 161
3 167 168 161
3 168 169 161
3 169 170 161
3 170 171 161
3 171 159 161
3 128 172 173
3 128 174 126
3 123 174 175
3 143 175 176
3 144 176 177
3 144 178 142
3 138 178 179
3 138 180 135
3 136 180 181
3 136 182 134
3 134 183 130
3 130 172 127
3 184 185 186
3 184 187 188
3 189 187 190
3 189 191 192
3 193 191 194
3 193 195 196
3 197 195 198
3 197 199 200
3 200 201 202
3 203 201 204
3 203 205 206
3 207 205 185
3 122 208 209
3 125 209 210
3 129 210 211
3 132 211 212
3 132 213 131
3 133 213 214
3 133 215 137
3 137 216 140
3 140 217 139
3 139 218 141
3 145 218 219
3 145 208 124
3 209 147 146
3 210 146 149
3 210 150 211
3 212 150 151
3 212 152 213
3 214 152 153
3 214 154 215
3 215 155 216
3 217 155 156
3 218 156 157
3 218 158 219
3 208 158 147
3 187 220 190
3 187 221 222
3 185 221 186
3 185 223 224
3 205 225 223
3 201 225 204
3 199 226 201
3 198 227 199
3 198 228 229
3 195 230 228
3 194 231 230
3 190 231 191
3 220 160 159
3 221 160 222
3 221 163 162
3 223 163 224
3 223 165 164
3 226 165 225
3 226 167 166
3 229 167 227
3 229 169 168
3 230 169 228
3 231 170 230
3 231 159 171
3 232 207 184
3 232 188 233
3 234 188 189
3 234 192 235
3 236 192 193
3 237 193 196
3 237 197 238
3 239 197 200
3 239 202 240
3 240 203 241
3 242 203 206
3 242 207 243
3 173 243 232
3 173 233 174
3 174 234 175
3 175 235 176
3 177 235 236
3 177 237 178
3 179 237 238
3 179 239 180
3 181 239 240
3 181 241 182
3 183 241 242
3 183 243 172
3 244 245 246
3 247 248 244
3 247 249 250
3 251 252 249
3 253 252 254
3 255 256 253
3 255 257 258
3 259 260 257
3 261 260 262
3 263 264 261
3 263 265 266
3 267 245 265
3 268 269 270
3 271 268 270
3 272 271 270
3 273 272 270
3 274 273 270
3 275 274 270
3 276 275 270
3 277 276 270
3 278 277 270
3 279 278 270
3 280 279 270
3 269 280 270
3 281 282 283
3 282 284 283
3 284 285 283
3 285 286 283
3 286 287 283
3 287 288 283
3 288 289 283
3 289 290 283
3 290 291 283
3 291 292 283
3 292 293 283
3 293 281 283
3 250 294 295
3 250 296 248
3 245 296 297
3 265 297 298
3 266 298 299
3 266 300 264
3 260 300 301
3 260 302 257
3 258 302 303
3 258 304 256
3 256 305 252
3 252 294 249
3 306 307 308
3 306 309 310
3 311 309 312
3 311 313 314
3 315 313 316
3 315 317 318
3 319 317 320
3 319 321 322
3 322 323 324
3 325 323 326
3 325 327 328
3 329 327 307
3 244 330 331
3 247 331 332
3 251 332 333
3 254 333 334
3 254 335 253
3 255 335 336
3 255 337 259
3 259 338 262
3 262 339 261
3 261 340 263
3 267 340 341
3 267 330 246
3 331 269 268
3 332 268 271
3 332 272 333
3 334 272 273
3 334 274 335
3 336 274 275
3 336 276 337
3 337 277 338
3 339 277 278
3 340 278 279
3 340 280 341
3 330 280 269
3 309 342 312
3 309 343 344
3 307 343 308
3 307 345 346
3 327 347 345
3 323 347 326
3 321 348 323
3 320 349 321
3 320 350 351
3 317 352 350
3 316 353 352
3 312 353 313
3 342 282 281
3 343 282 344
3 343 285 284
3 345 285 346
3 345 287 286
3 348 287 347
3 348 289 288
3 351 289 349
3 351 291 290
3 352 291 350
3 353 292 352
3 353 281 293
3 354 329 306
3 354 310 355
3 356 310 311
3 356 314 357
3 358 314 315
3 359 315 318
3 359 319 360
3 361 319 322
3 361 324 362
3 362 325 363
3 364 325 328
3 364 329 365
3 295 365 354
3 295 355 296
3 296 356 297
3 297 357 298
3 299 357 358
3 299 359 300
3 301 359 360
3 301 361 302
3 303 361 362
3 303 363 304
3 305 363 364
3 305 365 294
3 366 367 368
3 369 370 366
3 369 371 372
3 373 374 371
3 375 374 376
3 377 378 375
3 377 379 380
3 381 382 379
3 383 382 384
3 385 386 383
3 385 387 388
3 389 367 387
3 390 391 392
3 393 390 392
3 394 393 392
3 395 394 392
3 396 395 392
3 397 396 392
3 398 397 392
3 399 398 392
3 400 399 392
3 401 400 392
3 402 401 392
3 391 402 392
3 403 404 405
3 404 406 405
3 406 407 405
3 407 408 405
3 408 409 405
3 409 410 405
3 410 411 405
3 411 412 405
3 412 413 405
3 413 414 405
3 414 415 405
3 415 403 405
3 372 416 417
3 372 418 370
3 367 418 419
3 387 419 420
3 388 420 421
3 388 422 386
3 382 422 423
3 382 424 379
3 380 424 425
3 380 426 378
3 378 427 374
3 374 416 371
3 428 429 430
3 428 431 432
3 433 431 434
3 433 435 436
3 437 435 438
3 437 439 440
3 441 439 442
3 441 443 444
3 444 445 446
3 447 445 448
3 447 449 450
3 451 449 429
3 366 452 453
3 369 453 454
3 373 454 455
3 376 455 456
3 376 457 375
3 377 457 458
3 377 459 381
3 381 460 384
3 384 461 383
3 383 462 385
3 389 462 463
3 389 452 368
3 453 391 390
3 454 390 393
3 454 394 455
3 456 394 395
3 456 396 457
3 458 396 397
3 458 398 459
3 459 399 460
3 461 399 400
3 462 400 401
3 462 402 463
3 452 402 391
3 431 464 434
3 431 465 466
3 429 465 430
3 429 467 468
3 449 469 467
3 445 469 448
3 443 470 445
3 442 471 443
3 442 472 473
3 439 474 472
3 438 475 474
3 434 475 435
3 464 404 403
3 465 404 466
3 465 407 406
3 467 407 468
3 467 409 408
3 470 409 469
3 470 411 410
3 473 411 471
3 473 413 412
3 474 413 472
3 475 414 474
3 475 403 415
3 476 451 428
3 476 432 477
3 478 432 433
3 478 436 479
3 480 436 437
3 481 437 440
3 481 441 482
3 483 441 444
3 483 446 484
3 484 447 485
3 486 447 450
3 486 451 487
3 417 487 476
3 417 477 418
3 418 478 419
3 419 479 420
3 421 479 480
3 421 481 422
3 423 481 482
3 423 483 424
3 425 483 484
3 425 485 426
3 427 485 486
3 427 487 416
3 488 489 490
3 491 492 488
3 491 493 494
3 495 496 493
3 497 496 498
3 499 500 497
3 499 501 502
3 503 504 501
3 505 504 506
3 507 508 505
3 507 509 510
3 511 489 509
3 512 513 514
3 515 512 514
3 516 515 514
3 517 516 514
3 518 517 514
3 519 518 514
3 520 519 514
3 521 520 514
3 522 521 514
3 523 522 514
3 524 523 514
3 513 524 514
3 525 526 527
3 526 528 527
3 528 529 527
3 529 530 527
3 530 531 527
3 531 532 527
3 532 533 527
3 533 534 527
3 534 535 527
3 535 536 527
3 536 537 527
3 537 525 527
3 494 538 539
3 494 540 492
3 489 540 541
3 509 541 542
3 510 542 543
3 510 544 508
3 504 544 545
3 504 546 501
3 502 546 547
3 502 548 500
3 500 549 496
3 496 538 493
3 550 551 552
3 550 553 554
3 555 553 556
3 555 557 558
3 559 557 560
3 559 561 562
3 563 561 564
3 563 565 566
3 566 567 568
3 569 567 570
3 569 571 572
3 573 571 551
3 488 574 575
3 491 575 576
3 495 576 577
3 498 577 578
3 498 579 497
3 499 579 580
3 499 581 503
3 503 582 506
3 506 583 505
3 505 584 507
3 511 584 585
3 511 574 490
3 575 513 512
3 576 512 515
3 576 516 577
3 578 516 517
3 578 518 579
3 580 518 519
3 580 520 581
3 581 521 582
3 583 521 522
3 584 522 523
3 584 524 585
3 574 524 513
3 553 586 556
3 553 587 588
3 551 587 552
3 551 589 590
3 571 591 589
3 567 591 570
3 565 592 567
3 564 593 565
3 564 594 595
3 561 596 594
3 560 597 596
3 556 597 557
3 586 526 525
3 587 526 588
3 587 529 528
3 589 529 590
3 589 531 530
3 592 531 591
3 592 533 532
3 595 533 593
3 595 535 534
3 596 535 594
3 597 536 596
3 597 525 537
3 598 573 550
3 598 554 599
3 600 554 555
3 600 558 601
3 602 558 559
3 603 559 562
3 603 563 604
3 605 563 566
3 605 568 606
3 606 569 607
3 608 569 572
3 608 573 609
3 539 609 598
3 539 599 540
3 540 600 541
3 541 601 542
3 543 601 602
3 543 603 544
3 545 603 604
3 545 605 546
3 547 605 606
3 547 607 548
3 549 607 608
3 549 609 538
3 0 4 1
3 3 6 4
3 3 7 5
3 7 10 8
3 9 12 8
3 11 14 12
3 11 15 13
3 15 18 16
3 17 20 16
3 19 22 20
3 19 23 21
3 23 2 1
3 6 5 50
3 6 51 52
3 1 4 52
3 21 1 53
3 22 21 54
3 22 55 56
3 16 20 56
3 16 57 58
3 14 13 58
3 14 59 60
3 12 60 61
3 8 61 50
3 62 85 63
3 62 64 65
3 67 66 65
3 67 68 69
3 71 70 69
3 71 72 73
3 75 74 73
3 75 76 77
3 78 77 79
3 81 80 79
3 81 82 83
3 85 84 83
3 0 2 86
3 3 0 87
3 7 3 88
3 10 7 89
3 10 90 91
3 11 9 91
3 11 92 93
3 15 93 94
3 18 94 95
3 17 95 96
3 23 19 96
3 23 97 86
3 87 86 25
3 88 87 24
3 88 27 28
3 90 89 28
3 90 29 30
3 92 91 30
3 92 31 32
3 93 32 33
3 95 94 33
3 96 95 34
3 96 35 36
3 86 97 36
3 65 100 98
3 65 64 99
3 63 102 99
3 63 83 101
3 83 82 103
3 79 104 103
3 77 105 104
3 76 107 105
3 76 73 106
3 73 72 108
3 72 69 109
3 68 98 109
3 98 100 38
3 99 40 38
3 99 102 41
3 101 42 41
3 101 103 43
3 104 44 43
3 104 105 45
3 107 46 45
3 107 106 47
3 108 48 47
3 109 49 48
3 109 98 37
3 110 121 85
3 110 62 66
3 112 111 66
3 112 67 70
3 114 113 70
3 115 114 71
3 115 74 75
3 117 116 75
3 117 78 80
3 118 80 81
3 120 119 81
3 120 84 85
3 51 50 121
3 51 110 111
3 52 111 112
3 53 112 113
3 55 54 113
3 55 114 115
3 57 56 115
3 57 116 117
3 59 58 117
3 59 118 119
3 61 60 119
3 61 120 121
3 122 126 123
3 125 128 126
3 125 129 127
3 129 132 130
3 131 134 130
3 133 136 134
3 133 137 135
3 137 140 138
3 139 142 138
3 141 144 142
3 141 145 143
3 145 124 123
3 128 127 172
3 128 173 174
3 123 126 174
3 143 123 175
3 144 143 176
3 144 177 178
3 138 142 178
3 138 179 180
3 136 135 180
3 136 181 182
3 134 182 183
3 130 183 172
3 184 207 185
3 184 186 187
3 189 188 187
3 189 190 191
3 193 192 191
3 193 194 195
3 197 196 195
3 197 198 199
3 200 199 201
3 203 202 201
3 203 204 205
3 207 206 205
3 122 124 208
3 125 122 209
3 129 125 210
3 132 129 211
3 132 212 213
3 133 131 213
3 133 214 215
3 137 215 216
3 140 216 217
3 139 217 218
3 145 141 218
3 145 219 208
3 209 208 147
3 210 209 146
3 210 149 150
3 212 211 150
3 212 151 152
3 214 213 152
3 214 153 154
3 215 154 155
3 217 216 155
3 218 217 156
3 218 157 158
3 208 219 158
3 187 222 220
3 187 186 221
3 185 224 221
3 185 205 223
3 205 204 225
3 201 226 225
3 199 227 226
3 198 229 227
3 198 195 228
3 195 194 230
3 194 191 231
3 190 220 231
3 220 222 160
3 221 162 160
3 221 224 163
3 223 164 163
3 223 225 165
3 226 166 165
3 226 227 167
3 229 168 167
3 229 228 169
3 230 170 169
3 231 171 170
3 231 220 159
3 232 243 207
3 232 184 188
3 234 233 188
3 234 189 192
3 236 235 192
3 237 236 193
3 237 196 197
3 239 238 197
3 239 200 202
3 240 202 203
3 242 241 203
3 242 206 207
3 173 172 243
3 173 232 233
3 174 233 234
3 175 234 235
3 177 176 235
3 177 236 237
3 179 178 237
3 179 238 239
3 181 180 239
3 181 240 241
3 183 182 241
3 183 242 243
3 244 248 245
3 247 250 248
3 247 251 249
3 251 254 252
3 253 256 252
3 255 258 256
3 255 259 257
3 259 262 260
3 261 264 260
3 263 266 264
3 263 267 265
3 267 246 245
3 250 249 294
3 250 295 296
3 245 248 296
3 265 245 297
3 266 265 298
3 266 299 300
3 260 264 300
3 260 301 302
3 258 257 302
3 258 303 304
3 256 304 305
3 252 305 294
3 306 329 307
3 306 308 309
3 311 310 309
3 311 312 313
3 315 314 313
3 315 316 317
3 319 318 317
3 319 320 321
3 322 321 323
3 325 324 323
3 325 326 327
3 329 328 327
3 244 246 330
3 247 244 331
3 251 247 332
3 254 251 333
3 254 334 335
3 255 253 335
3 255 336 337
3 259 337 338
3 262 338 339
3 261 339 340
3 267 263 340
3 267 341 330
3 331 330 269
3 332 331 268
3 332 271 272
3 334 333 272
3 334 273 274
3 336 335 274
3 336 275 276
3 337 276 277
3 339 338 277
3 340 339 278
3 340 279 280
3 330 341 280
3 309 344 342
3 309 308 343
3 307 346 343
3 307 327 345
3 327 326 347
3 323 348 347
3 321 349 348
3 320 351 349
3 320 317 350
3 317 316 352
3 316 313 353
3 312 342 353
3 342 344 282
3 343 284 282
3 343 346 285
3 345 286 285
3 345 347 287
3 348 288 287
3 348 349 289
3 351 290 289
3 351 350 291
3 352 292 291
3 353 293 292
3 353 342 281
3 354 365 329
3 354 306 310
3 356 355 310
3 356 311 314
3 358 357 314
3 359 358 315
3 359 318 319
3 361 360 319
3 361 322 324
3 362 324 325
3 364 363 325
3 364 328 329
3 295 294 365
3 295 354 355
3 296 355 356
3 297 356 357
3 299 298 357
3 299 358 359
3 301 300 359
3 301 360 361
3 303 302 361
3 303 362 363
3 305 304 363
3 305 364 365
3 366 370 367
3 369 372 370
3 369 373 371
3 373 376 374
3 375 378 374
3 377 380 378
3 377 381 379
3 381 384 382
3 383 386 382
3 385 388 386
3 385 389 387
3 389 368 367
3 372 371 416
3 372 417 418
3 367 370 418
3 387 367 419
3 388 387 420
3 388 421 422
3 382 386 422
3 382 423 424
3 380 379 424
3 380 425 426
3 378 426 427
3 374 427 416
3 428 451 429
3 428 430 431
3 433 432 431
3 433 434 435
3 437 436 435
3 437 438 439
3 441 440 439
3 441 442 443
3 444 443 445
3 447 446 445
3 447 448 449
3 451 450 449
3 366 368 452
3 369 366 453
3 373 369 454
3 376 373 455
3 376 456 457
3 377 375 457
3 377 458 459
3 381 459 460
3 384 460 461
3 383 461 462
3 389 385 462
3 389 463 452
3 453 452 391
3 454 453 390
3 454 393 394
3 456 455 394
3 456 395 396
3 458 457 396
3 458 397 398
3 459 398 399
3 461 460 399
3 462 461 400
3 462 401 402
3 452 463 402
3 431 466 464
3 431 430 465
3 429 468 465
3 429 449 467
3 449 448 469
3 445 470 469
3 443 471 470
3 442 473 471
3 442 439 472
3 439 438 474
3 438 435 475
3 434 464 475
3 464 466 404
3 465 406 404
3 465 468 407
3 467 408 407
3 467 469 409
3 470 410 409
3 470 471 411
3 473 412 411
3 473 472 413
3 474 414 413
3 475 415 414
3 475 464 403
3 476 487 451
3 476 428 432
3 478 477 432
3 478 433 436
3 480 479 436
3 481 480 437
3 481 440 441
3 483 482 441
3 483 444 446
3 484 446 447
3 486 485 447
3 486 450 451
3 417 416 487
3 417 476 477
3 418 477 478
3 419 478 479
3 421 420 479
3 421 480 481
3 423 422 481
3 423 482 483
3 425 424 483
3 425 484 485
3 427 426 485
3 427 486 487
3 488 492 489
3 491 494 492
3 491 495 493
3 495 498 496
3 497 500 496
3 499 502 500
3 499 503 501
3 503 506 504
3 505 508 504
3 507 510 508
3 507 511 509
3 511 490 489
3 494 493 538
3 494 539 540
3 489 492 540
3 509 489 541
3 510 509 542
3 510 543 544
3 504 508 544
3 504 545 546
3 502 501 546
3 502 547 548
3 500 548 549
3 496 549 538
3 550 573 551
3 550 552 553
3 555 554 553
3 555 556 557
3 559 558 557
3 559 560 561
3 563 562 561
3 563 564 565
3 566 565 567
3 569 568 567
3 569 570 571
3 573 572 571
3 488 490 574
3 491 488 575
3 495 491 576
3 498 495 577
3 498 578 579
3 499 497 579
3 499 580 581
3 503 581 582
3 506 582 583
3 505 583 584
3 511 507 584
3 511 585 574
3 575 574 513
3 576 575 512
3 576 515 516
3 578 577 516
3 578 517 518
3 580 579 518
3 580 519 520
3 581 520 521
3 583 582 521
3 584 583 522
3 584 523 524
3 574 585 524
3 553 588 586
3 553 552 587
3 551 590 587
3 551 571 589
3 571 570 591
3 567 592 591
3 565 593 592
3 564 595 593
3 564 561 594
3 561 560 596
3 560 557 597
3 556 586 597
3 586 588 526
3 587 528 526
3 587 590 529
3 589 530 529
3 589 591 531
3 592 532 531
3 592 593 533
3 595 534 533
3 595 594 535
3 596 536 535
3 597 537 536
3 597 586 525
3 598 609 573
3 598 550 554
3 600 599 554
3 600 555 558
3 602 601 558
3 603 602 559
3 603 562 563
3 605 604 563
3 605 566 568
3 606 568 569
3 608 607 569
3 608 572 573
3 539 538 609
3 539 598 599
3 540 599 600
3 541 600 601
3 543 542 601
3 543 602 603
3 545 544 603
3 545 604 605
3 547 546 605
3 547 606 607
3 549 548 607
3 549 608 609
