ply
format ascii 1.0
comment Created by Blender 2.79 (sub 0) - www.blender.org, source file: 'dummy.blend'
element vertex 610
property float x
property float y
property float z
property float nx
property float ny
property float nz
property float s
property float t
element face 1200
property list uchar uint vertex_indices
end_header
0.146245 0.744536 0.031600 -0.199347 -0.848628 0.489944 0.720761 0.256416
0.129299 0.762619 0.037155 -0.822047 -0.284677 0.493088 0.768427 0.243214
0.129299 0.752478 0.027014 -0.822047 -0.493088 0.284677 0.743190 0.238235
0.146245 0.758033 0.045097 -0.199347 -0.489944 0.848628 0.754353 0.263043
0.129299 0.776471 0.040866 -0.822077 0.000000 0.569353 0.809941 0.245050
0.146245 0.794909 0.045097 -0.199347 0.489944 0.848628 0.871729 0.263096
0.129299 0.790323 0.037155 -0.822047 0.284677 0.493088 0.856609 0.243253
0.146245 0.808406 0.031600 -0.199347 0.848628 0.489944 0.924062 0.256508
0.129299 0.800463 0.027014 -0.822047 0.493088 0.284677 0.895926 0.238304
0.129299 0.804175 0.013162 -0.822047 0.569384 0.000000 0.917357 0.231529
0.146245 0.813346 0.013162 -0.199347 0.979919 0.000000 0.952588 0.247490
0.129299 0.800463 -0.000690 -0.822077 0.493057 -0.284677 0.915159 0.224743
0.146245 0.794909 -0.018773 -0.199347 0.489944 -0.848628 0.916070 0.231831
0.129300 0.790323 -0.010830 -0.822016 0.284707 -0.493118 0.889922 0.219765
0.146245 0.776471 -0.023713 -0.199347 0.000000 -0.979919 0.860812 0.229386
0.129299 0.776471 -0.014542 -0.822047 0.000000 -0.569384 0.848408 0.217928
0.129300 0.762619 -0.010830 -0.822016 -0.284707 -0.493118 0.801740 0.219726
0.146245 0.758033 -0.018773 -0.199347 -0.489944 -0.848628 0.798694 0.231778
0.129299 0.752478 -0.000690 -0.822077 -0.493057 -0.284677 0.762423 0.224674
0.146245 0.739595 0.013162 -0.199347 -0.979919 0.000000 0.717835 0.247384
0.129299 0.748767 0.013162 -0.822047 -0.569353 0.000000 0.740992 0.231449
0.134873 0.768794 0.026460 -0.931822 0.181433 -0.314219 0.797492 0.243233
0.134873 0.776471 0.013162 -1.000000 0.000000 0.000000 0.831160 0.236735
0.134873 0.763173 0.020840 -0.931822 0.314249 -0.181433 0.783504 0.240474
0.134873 0.776471 0.028517 -0.931822 0.000000 -0.362835 0.820500 0.244251
0.134873 0.784148 0.026460 -0.931822 -0.181433 -0.314219 0.846366 0.243255
0.134873 0.789768 0.020840 -0.931822 -0.314249 -0.181433 0.868156 0.240512
0.134873 0.791825 0.013162 -0.931822 -0.362865 0.000000 0.880034 0.236757
0.134873 0.789768 0.005485 -0.931822 -0.314219 0.181402 0.878816 0.232996
0.134873 0.784148 -0.000135 -0.931822 -0.181402 0.314249 0.864829 0.230237
0.134873 0.776471 -0.002192 -0.931822 0.000000 0.362865 0.841820 0.229219
0.134873 0.768794 -0.000135 -0.931822 0.181402 0.314249 0.815955 0.230215
0.134873 0.763173 0.005485 -0.931852 0.314219 0.181402 0.794164 0.232958
0.134873 0.761116 0.013162 -0.931822 0.362835 0.000000 0.782286 0.236713
0.257957 0.766856 0.018713 0.923643 0.331858 -0.191595 0.840551 0.355271
0.257957 0.776471 0.013162 1.000000 0.000000 0.000000 0.875009 0.352567
0.257957 0.770920 0.022777 0.923643 0.191595 -0.331858 0.850664 0.357266
0.257957 0.776471 0.024265 0.923643 0.000000 -0.383190 0.867301 0.358002
0.257957 0.782022 0.022777 0.923643 -0.191595 -0.331858 0.886004 0.357282
0.257957 0.786086 0.018713 0.923643 -0.331858 -0.191595 0.901760 0.355298
0.257957 0.787573 0.013162 0.923643 -0.383190 0.000000 0.910348 0.352583
0.257957 0.786086 0.007611 0.923643 -0.331828 0.191626 0.909468 0.349864
0.257958 0.782022 0.003547 0.923643 -0.191565 0.331858 0.899354 0.347869
0.257958 0.776471 0.002060 0.923643 0.000000 0.383190 0.882717 0.347133
0.257958 0.770920 0.003547 0.923643 0.191565 0.331858 0.864015 0.347853
0.257957 0.766856 0.007611 0.923643 0.331828 0.191626 0.848258 0.349836
0.257957 0.765368 0.013162 0.923643 0.383190 0.000000 0.839670 0.352551
0.146246 0.776471 0.050038 -0.199316 0.000000 0.979919 0.809611 0.265488
0.155611 0.794549 0.044476 0.076449 0.498520 0.863460 0.874354 0.271605
0.155611 0.758392 0.044476 0.076449 -0.498520 0.863460 0.759264 0.271553
0.155611 0.745157 0.031241 0.076449 -0.863491 0.498520 0.726326 0.265056
0.146246 0.744536 -0.005275 -0.199316 -0.848628 -0.489944 0.746361 0.238366
0.155611 0.740313 0.013162 0.076418 -0.997070 0.000000 0.723458 0.256199
0.155610 0.758392 -0.018151 0.076449 -0.498520 -0.863460 0.802742 0.240896
0.155610 0.794549 -0.018151 0.076449 0.498520 -0.863491 0.917832 0.240948
0.146246 0.808406 -0.005275 -0.199316 0.848628 -0.489944 0.949663 0.238458
0.155611 0.812628 0.013162 0.076418 0.997070 0.000000 0.953639 0.256303
0.155611 0.807784 0.031241 0.076418 0.863460 0.498520 0.925668 0.265145
0.253903 0.776471 0.041783 0.262459 0.000000 0.964934 0.853695 0.362762
0.262898 0.788488 0.033977 0.814570 0.290017 0.502335 0.900571 0.367424
0.253903 0.790781 0.037949 0.262490 0.482467 0.835627 0.901908 0.360905
0.262899 0.764453 0.033977 0.814570 -0.290017 0.502335 0.824066 0.367389
0.253903 0.762160 0.037949 0.262490 -0.482467 0.835627 0.810806 0.360864
0.262899 0.755656 0.025180 0.814570 -0.502304 0.290017 0.802171 0.363070
0.253903 0.751684 0.027473 0.262490 -0.835627 0.482467 0.784734 0.355721
0.262899 0.752436 0.013162 0.814570 -0.580035 0.000000 0.800265 0.357183
0.253903 0.747850 0.013162 0.262490 -0.964904 0.000000 0.782463 0.348711
0.253903 0.751684 -0.001148 0.262490 -0.835627 -0.482437 0.804604 0.341711
0.253903 0.762160 -0.011624 0.262490 -0.482467 -0.835627 0.845222 0.336598
0.262899 0.755656 0.001145 0.814570 -0.502335 -0.290017 0.818858 0.351305
0.253903 0.776471 -0.015459 0.262490 0.000000 -0.964904 0.893435 0.334742
0.262899 0.764453 -0.007653 0.814570 -0.290017 -0.502304 0.852968 0.347011
0.262898 0.788488 -0.007653 0.814570 0.290017 -0.502304 0.929473 0.347046
0.253903 0.790781 -0.011624 0.262490 0.482437 -0.835627 0.936324 0.336639
0.262899 0.797286 0.001145 0.814570 0.502304 -0.290017 0.951367 0.351365
0.253903 0.801257 -0.001148 0.262490 0.835627 -0.482437 0.962396 0.341782
0.253903 0.805092 0.013162 0.262490 0.964904 0.000000 0.964666 0.348793
0.262899 0.797286 0.025180 0.814570 0.502304 0.290017 0.934681 0.363130
0.253903 0.801257 0.027473 0.262490 0.835627 0.482437 0.942526 0.355792
0.129299 0.756760 0.024543 -0.963378 0.232124 -0.134007 0.758533 0.237032
0.129299 0.765091 0.032873 -0.963378 0.134007 -0.232124 0.779267 0.241122
0.129300 0.776471 0.035923 -0.963378 0.000000 -0.268075 0.813373 0.242631
0.129299 0.787851 0.032873 -0.963378 -0.134037 -0.232093 0.851714 0.241154
0.129299 0.799231 0.013162 -0.963378 -0.268044 0.000000 0.901622 0.231522
0.129299 0.787851 -0.006549 -0.963408 -0.133976 0.232063 0.879082 0.221857
0.129299 0.776471 -0.009598 -0.963408 0.000000 0.268014 0.844976 0.220348
0.129299 0.765091 -0.006549 -0.963408 0.133946 0.232093 0.806635 0.221824
0.129300 0.756760 0.001782 -0.963378 0.232154 0.134007 0.774334 0.225891
0.129299 0.796182 0.024543 -0.963378 -0.232124 -0.134007 0.884015 0.237088
0.129300 0.796182 0.001782 -0.963378 -0.232154 0.134037 0.899816 0.225947
0.129299 0.753710 0.013162 -0.963378 0.268014 0.000000 0.756727 0.231457
0.262899 0.761611 0.021742 0.958739 0.246101 -0.142094 0.823513 0.361396
0.262899 0.776471 0.030321 0.958739 0.000000 -0.284219 0.864857 0.365617
0.262899 0.776471 0.037198 0.814570 0.000000 0.580035 0.860083 0.368984
0.262899 0.791331 0.021742 0.958739 -0.246101 -0.142094 0.918113 0.361438
0.262899 0.800506 0.013162 0.814570 0.580035 0.000000 0.953274 0.357252
0.262899 0.791331 0.004583 0.958739 -0.246101 0.142094 0.930026 0.353039
0.262898 0.785050 -0.001698 0.958770 -0.142064 0.246101 0.914394 0.349956
0.262899 0.776471 -0.010872 0.814600 0.000000 -0.579974 0.893456 0.345453
0.262899 0.767891 -0.001698 0.958770 0.142064 0.246101 0.859777 0.349931
0.262899 0.761611 0.004583 0.958739 0.246101 0.142094 0.835426 0.352996
0.262899 0.759312 0.013162 0.958739 0.284188 0.000000 0.822153 0.357193
0.262899 0.767891 0.028022 0.958770 0.142064 -0.246071 0.839145 0.364480
0.262899 0.785050 0.028022 0.958770 -0.142064 -0.246071 0.893762 0.364504
0.262899 0.793630 0.013162 0.958739 -0.284188 0.000000 0.931387 0.357242
0.262899 0.776471 -0.003997 0.958739 0.000000 0.284219 0.888682 0.348818
0.243991 0.776471 0.042543 0.076449 0.000000 0.997070 0.849636 0.353806
0.243991 0.791161 0.038607 0.076418 0.498520 0.863460 0.899129 0.351900
0.243991 0.761780 0.038607 0.076418 -0.498520 0.863460 0.805608 0.351857
0.243991 0.751026 0.027853 0.076449 -0.863460 0.498520 0.778844 0.346578
0.243991 0.747090 0.013162 0.076418 -0.997070 0.000000 0.776513 0.339381
0.243991 0.751026 -0.001528 0.076449 -0.863491 -0.498520 0.799241 0.332196
0.243991 0.761780 -0.012282 0.076449 -0.498520 -0.863460 0.840938 0.326948
0.243991 0.776471 -0.016219 0.076449 0.000000 -0.997070 0.890431 0.325041
0.243991 0.791161 -0.012282 0.076449 0.498520 -0.863460 0.934459 0.326990
0.243991 0.801915 -0.001528 0.076418 0.863491 -0.498520 0.961224 0.332269
0.243991 0.805852 0.013162 0.076418 0.997070 0.000000 0.963554 0.339466
0.243991 0.801915 0.027853 0.076418 0.863491 0.498520 0.940826 0.346651
0.155611 0.776471 0.049320 0.076449 0.000000 0.997070 0.813446 0.273950
0.155611 0.745157 -0.004916 0.076449 -0.863460 -0.498520 0.751428 0.247356
0.155611 0.776471 -0.022995 0.076418 0.000000 -0.997070 0.863650 0.238552
0.155611 0.807784 -0.004916 0.076449 0.863460 -0.498520 0.950770 0.247446
0.146245 0.744536 0.031600 -0.199347 -0.848628 0.489944 0.720761 0.256416
0.129299 0.762619 0.037155 -0.822047 -0.284677 0.493088 0.768427 0.243214
0.129299 0.752478 0.027014 -0.822047 -0.493088 0.284677 0.743190 0.238235
0.146245 0.758033 0.045097 -0.199347 -0.489944 0.848628 0.754353 0.263043
0.129299 0.776471 0.040866 -0.822077 0.000000 0.569353 0.809941 0.245050
0.146245 0.794909 0.045097 -0.199347 0.489944 0.848628 0.871729 0.263096
0.129299 0.790323 0.037155 -0.822047 0.284677 0.493088 0.856609 0.243253
0.146245 0.808406 0.031600 -0.199347 0.848628 0.489944 0.924062 0.256508
0.129299 0.800463 0.027014 -0.822047 0.493088 0.284677 0.895926 0.238304
0.129299 0.804175 0.013162 -0.822047 0.569384 0.000000 0.917357 0.231529
0.146245 0.813346 0.013162 -0.199347 0.979919 0.000000 0.952588 0.247490
0.129299 0.800463 -0.000690 -0.822077 0.493057 -0.284677 0.915159 0.224743
0.146245 0.794909 -0.018773 -0.199347 0.489944 -0.848628 0.916070 0.231831
0.129300 0.790323 -0.010830 -0.822016 0.284707 -0.493118 0.889922 0.219765
0.146245 0.776471 -0.023713 -0.199347 0.000000 -0.979919 0.860812 0.229386
0.129299 0.776471 -0.014542 -0.822047 0.000000 -0.569384 0.848408 0.217928
0.129300 0.762619 -0.010830 -0.822016 -0.284707 -0.493118 0.801740 0.219726
0.146245 0.758033 -0.018773 -0.199347 -0.489944 -0.848628 0.798694 0.231778
0.129299 0.752478 -0.000690 -0.822077 -0.493057 -0.284677 0.762423 0.224674
0.146245 0.739595 0.013162 -0.199347 -0.979919 0.000000 0.717835 0.247384
0.129299 0.748767 0.013162 -0.822047 -0.569353 0.000000 0.740992 0.231449
0.134873 0.768794 0.026460 -0.931822 0.181433 -0.314219 0.797492 0.243233
0.134873 0.776471 0.013162 -1.000000 0.000000 0.000000 0.831160 0.236735
0.134873 0.763173 0.020840 -0.931822 0.314249 -0.181433 0.783504 0.240474
0.134873 0.776471 0.028517 -0.931822 0.000000 -0.362835 0.820500 0.244251
0.134873 0.784148 0.026460 -0.931822 -0.181433 -0.314219 0.846366 0.243255
0.134873 0.789768 0.020840 -0.931822 -0.314249 -0.181433 0.868156 0.240512
0.134873 0.791825 0.013162 -0.931822 -0.362865 0.000000 0.880034 0.236757
0.134873 0.789768 0.005485 -0.931822 -0.314219 0.181402 0.878816 0.232996
0.134873 0.784148 -0.000135 -0.931822 -0.181402 0.314249 0.864829 0.230237
0.134873 0.776471 -0.002192 -0.931822 0.000000 0.362865 0.841820 0.229219
0.134873 0.768794 -0.000135 -0.931822 0.181402 0.314249 0.815955 0.230215
0.134873 0.763173 0.005485 -0.931852 0.314219 0.181402 0.794164 0.232958
0.134873 0.761116 0.013162 -0.931822 0.362835 0.000000 0.782286 0.236713
0.257957 0.766856 0.018713 0.923643 0.331858 -0.191595 0.840551 0.355271
0.257957 0.776471 0.013162 1.000000 0.000000 0.000000 0.875009 0.352567
0.257957 0.770920 0.022777 0.923643 0.191595 -0.331858 0.850664 0.357266
0.257957 0.776471 0.024265 0.923643 0.000000 -0.383190 0.867301 0.358002
0.257957 0.782022 0.022777 0.923643 -0.191595 -0.331858 0.886004 0.357282
0.257957 0.786086 0.018713 0.923643 -0.331858 -0.191595 0.901760 0.355298
0.257957 0.787573 0.013162 0.923643 -0.383190 0.000000 0.910348 0.352583
0.257957 0.786086 0.007611 0.923643 -0.331828 0.191626 0.909468 0.349864
0.257958 0.782022 0.003547 0.923643 -0.191565 0.331858 0.899354 0.347869
0.257958 0.776471 0.002060 0.923643 0.000000 0.383190 0.882717 0.347133
0.257958 0.770920 0.003547 0.923643 0.191565 0.331858 0.864015 0.347853
0.257957 0.766856 0.007611 0.923643 0.331828 0.191626 0.848258 0.349836
0.257957 0.765368 0.013162 0.923643 0.383190 0.000000 0.839670 0.352551
0.146246 0.776471 0.050038 -0.199316 0.000000 0.979919 0.809611 0.265488
0.155611 0.794549 0.044476 0.076449 0.498520 0.863460 0.874354 0.271605
0.155611 0.758392 0.044476 0.076449 -0.498520 0.863460 0.759264 0.271553
0.155611 0.745157 0.031241 0.076449 -0.863491 0.498520 0.726326 0.265056
0.146246 0.744536 -0.005275 -0.199316 -0.848628 -0.489944 0.746361 0.238366
0.155611 0.740313 0.013162 0.076418 -0.997070 0.000000 0.723458 0.256199
0.155610 0.758392 -0.018151 0.076449 -0.498520 -0.863460 0.802742 0.240896
0.155610 0.794549 -0.018151 0.076449 0.498520 -0.863491 0.917832 0.240948
0.146246 0.808406 -0.005275 -0.199316 0.848628 -0.489944 0.949663 0.238458
0.155611 0.812628 0.013162 0.076418 0.997070 0.000000 0.953639 0.256303
0.155611 0.807784 0.031241 0.076418 0.863460 0.498520 0.925668 0.265145
0.253903 0.776471 0.041783 0.262459 0.000000 0.964934 0.853695 0.362762
0.262898 0.788488 0.033977 0.814570 0.290017 0.502335 0.900571 0.367424
0.253903 0.790781 0.037949 0.262490 0.482467 0.835627 0.901908 0.360905
0.262899 0.764453 0.033977 0.814570 -0.290017 0.502335 0.824066 0.367389
0.253903 0.762160 0.037949 0.262490 -0.482467 0.835627 0.810806 0.360864
0.262899 0.755656 0.025180 0.814570 -0.502304 0.290017 0.802171 0.363070
0.253903 0.751684 0.027473 0.262490 -0.835627 0.482467 0.784734 0.355721
0.262899 0.752436 0.013162 0.814570 -0.580035 0.000000 0.800265 0.357183
0.253903 0.747850 0.013162 0.262490 -0.964904 0.000000 0.782463 0.348711
0.253903 0.751684 -0.001148 0.262490 -0.835627 -0.482437 0.804604 0.341711
0.253903 0.762160 -0.011624 0.262490 -0.482467 -0.835627 0.845222 0.336598
0.262899 0.755656 0.001145 0.814570 -0.502335 -0.290017 0.818858 0.351305
0.253903 0.776471 -0.015459 0.262490 0.000000 -0.964904 0.893435 0.334742
0.262899 0.764453 -0.007653 0.814570 -0.290017 -0.502304 0.852968 0.347011
0.262898 0.788488 -0.007653 0.814570 0.290017 -0.502304 0.929473 0.347046
0.253903 0.790781 -0.011624 0.262490 0.482437 -0.835627 0.936324 0.336639
0.262899 0.797286 0.001145 0.814570 0.502304 -0.290017 0.951367 0.351365
0.253903 0.801257 -0.001148 0.262490 0.835627 -0.482437 0.962396 0.341782
0.253903 0.805092 0.013162 0.262490 0.964904 0.000000 0.964666 0.348793
0.262899 0.797286 0.025180 0.814570 0.502304 0.290017 0.934681 0.363130
0.253903 0.801257 0.027473 0.262490 0.835627 0.482437 0.942526 0.355792
0.129299 0.756760 0.024543 -0.963378 0.232124 -0.134007 0.758533 0.237032
0.129299 0.765091 0.032873 -0.963378 0.134007 -0.232124 0.779267 0.241122
0.129300 0.776471 0.035923 -0.963378 0.000000 -0.268075 0.813373 0.242631
0.129299 0.787851 0.032873 -0.963378 -0.134037 -0.232093 0.851714 0.241154
0.129299 0.799231 0.013162 -0.963378 -0.268044 0.000000 0.901622 0.231522
0.129299 0.787851 -0.006549 -0.963408 -0.133976 0.232063 0.879082 0.221857
0.129299 0.776471 -0.009598 -0.963408 0.000000 0.268014 0.844976 0.220348
0.129299 0.765091 -0.006549 -0.963408 0.133946 0.232093 0.806635 0.221824
0.129300 0.756760 0.001782 -0.963378 0.232154 0.134007 0.774334 0.225891
0.129299 0.796182 0.024543 -0.963378 -0.232124 -0.134007 0.884015 0.237088
0.129300 0.796182 0.001782 -0.963378 -0.232154 0.134037 0.899816 0.225947
0.129299 0.753710 0.013162 -0.963378 0.268014 0.000000 0.756727 0.231457
0.262899 0.761611 0.021742 0.958739 0.246101 -0.142094 0.823513 0.361396
0.262899 0.776471 0.030321 0.958739 0.000000 -0.284219 0.864857 0.365617
0.262899 0.776471 0.037198 0.814570 0.000000 0.580035 0.860083 0.368984
0.262899 0.791331 0.021742 0.958739 -0.246101 -0.142094 0.918113 0.361438
0.262899 0.800506 0.013162 0.814570 0.580035 0.000000 0.953274 0.357252
0.262899 0.791331 0.004583 0.958739 -0.246101 0.142094 0.930026 0.353039
0.262898 0.785050 -0.001698 0.958770 -0.142064 0.246101 0.914394 0.349956
0.262899 0.776471 -0.010872 0.814600 0.000000 -0.579974 0.893456 0.345453
0.262899 0.767891 -0.001698 0.958770 0.142064 0.246101 0.859777 0.349931
0.262899 0.761611 0.004583 0.958739 0.246101 0.142094 0.835426 0.352996
0.262899 0.759312 0.013162 0.958739 0.284188 0.000000 0.822153 0.357193
0.262899 0.767891 0.028022 0.958770 0.142064 -0.246071 0.839145 0.364480
0.262899 0.785050 0.028022 0.958770 -0.142064 -0.246071 0.893762 0.364504
0.262899 0.793630 0.013162 0.958739 -0.284188 0.000000 0.931387 0.357242
0.262899 0.776471 -0.003997 0.958739 0.000000 0.284219 0.888682 0.348818
0.243991 0.776471 0.042543 0.076449 0.000000 0.997070 0.849636 0.353806
0.243991 0.791161 0.038607 0.076418 0.498520 0.863460 0.899129 0.351900
0.243991 0.761780 0.038607 0.076418 -0.498520 0.863460 0.805608 0.351857
0.243991 0.751026 0.027853 0.076449 -0.863460 0.498520 0.778844 0.346578
0.243991 0.747090 0.013162 0.076418 -0.997070 0.000000 0.776513 0.339381
0.243991 0.751026 -0.001528 0.076449 -0.863491 -0.498520 0.799241 0.332196
0.243991 0.761780 -0.012282 0.076449 -0.498520 -0.863460 0.840938 0.326948
0.243991 0.776471 -0.016219 0.076449 0.000000 -0.997070 0.890431 0.325041
0.243991 0.791161 -0.012282 0.076449 0.498520 -0.863460 0.934459 0.326990
0.243991 0.801915 -0.001528 0.076418 0.863491 -0.498520 0.961224 0.332269
0.243991 0.805852 0.013162 0.076418 0.997070 0.000000 0.963554 0.339466
0.243991 0.801915 0.027853 0.076418 0.863491 0.498520 0.940826 0.346651
0.155611 0.776471 0.049320 0.076449 0.000000 0.997070 0.813446 0.273950
0.155611 0.745157 -0.004916 0.076449 -0.863460 -0.498520 0.751428 0.247356
0.155611 0.776471 -0.022995 0.076418 0.000000 -0.997070 0.863650 0.238552
0.155611 0.807784 -0.004916 0.076449 0.863460 -0.498520 0.950770 0.247446
0.146245 0.744536 0.031600 -0.199347 -0.848628 0.489944 0.720761 0.256416
0.129299 0.762619 0.037155 -0.822047 -0.284677 0.493088 0.768427 0.243214
0.129299 0.752478 0.027014 -0.822047 -0.493088 0.284677 0.743190 0.238235
0.146245 0.758033 0.045097 -0.199347 -0.489944 0.848628 0.754353 0.263043
0.129299 0.776471 0.040866 -0.822077 0.000000 0.569353 0.809941 0.245050
0.146245 0.794909 0.045097 -0.199347 0.489944 0.848628 0.871729 0.263096
0.129299 0.790323 0.037155 -0.822047 0.284677 0.493088 0.856609 0.243253
0.146245 0.808406 0.031600 -0.199347 0.848628 0.489944 0.924062 0.256508
0.129299 0.800463 0.027014 -0.822047 0.493088 0.284677 0.895926 0.238304
0.129299 0.804175 0.013162 -0.822047 0.569384 0.000000 0.917357 0.231529
0.146245 0.813346 0.013162 -0.199347 0.979919 0.000000 0.952588 0.247490
0.129299 0.800463 -0.000690 -0.822077 0.493057 -0.284677 0.915159 0.224743
0.146245 0.794909 -0.018773 -0.199347 0.489944 -0.848628 0.916070 0.231831
0.129300 0.790323 -0.010830 -0.822016 0.284707 -0.493118 0.889922 0.219765
0.146245 0.776471 -0.023713 -0.199347 0.000000 -0.979919 0.860812 0.229386
0.129299 0.776471 -0.014542 -0.822047 0.000000 -0.569384 0.848408 0.217928
0.129300 0.762619 -0.010830 -0.822016 -0.284707 -0.493118 0.801740 0.219726
0.146245 0.758033 -0.018773 -0.199347 -0.489944 -0.848628 0.798694 0.231778
0.129299 0.752478 -0.000690 -0.822077 -0.493057 -0.284677 0.762423 0.224674
0.146245 0.739595 0.013162 -0.199347 -0.979919 0.000000 0.717835 0.247384
0.129299 0.748767 0.013162 -0.822047 -0.569353 0.000000 0.740992 0.231449
0.134873 0.768794 0.026460 -0.931822 0.181433 -0.314219 0.797492 0.243233
0.134873 0.776471 0.013162 -1.000000 0.000000 0.000000 0.831160 0.236735
0.134873 0.763173 0.020840 -0.931822 0.314249 -0.181433 0.783504 0.240474
0.134873 0.776471 0.028517 -0.931822 0.000000 -0.362835 0.820500 0.244251
0.134873 0.784148 0.026460 -0.931822 -0.181433 -0.314219 0.846366 0.243255
0.134873 0.789768 0.020840 -0.931822 -0.314249 -0.181433 0.868156 0.240512
0.134873 0.791825 0.013162 -0.931822 -0.362865 0.000000 0.880034 0.236757
0.134873 0.789768 0.005485 -0.931822 -0.314219 0.181402 0.878816 0.232996
0.134873 0.784148 -0.000135 -0.931822 -0.181402 0.314249 0.864829 0.230237
0.134873 0.776471 -0.002192 -0.931822 0.000000 0.362865 0.841820 0.229219
0.134873 0.768794 -0.000135 -0.931822 0.181402 0.314249 0.815955 0.230215
0.134873 0.763173 0.005485 -0.931852 0.314219 0.181402 0.794164 0.232958
0.134873 0.761116 0.013162 -0.931822 0.362835 0.000000 0.782286 0.236713
0.257957 0.766856 0.018713 0.923643 0.331858 -0.191595 0.840551 0.355271
0.257957 0.776471 0.013162 1.000000 0.000000 0.000000 0.875009 0.352567
0.257957 0.770920 0.022777 0.923643 0.191595 -0.331858 0.850664 0.357266
0.257957 0.776471 0.024265 0.923643 0.000000 -0.383190 0.867301 0.358002
0.257957 0.782022 0.022777 0.923643 -0.191595 -0.331858 0.886004 0.357282
0.257957 0.786086 0.018713 0.923643 -0.331858 -0.191595 0.901760 0.355298
0.257957 0.787573 0.013162 0.923643 -0.383190 0.000000 0.910348 0.352583
0.257957 0.786086 0.007611 0.923643 -0.331828 0.191626 0.909468 0.349864
0.257958 0.782022 0.003547 0.923643 -0.191565 0.331858 0.899354 0.347869
0.257958 0.776471 0.002060 0.923643 0.000000 0.383190 0.882717 0.347133
0.257958 0.770920 0.003547 0.923643 0.191565 0.331858 0.864015 0.347853
0.257957 0.766856 0.007611 0.923643 0.331828 0.191626 0.848258 0.349836
0.257957 0.765368 0.013162 0.923643 0.383190 0.000000 0.839670 0.352551
0.146246 0.776471 0.050038 -0.199316 0.000000 0.979919 0.809611 0.265488
0.155611 0.794549 0.044476 0.076449 0.498520 0.863460 0.874354 0.271605
0.155611 0.758392 0.044476 0.076449 -0.498520 0.863460 0.759264 0.271553
0.155611 0.745157 0.031241 0.076449 -0.863491 0.498520 0.726326 0.265056
0.146246 0.744536 -0.005275 -0.199316 -0.848628 -0.489944 0.746361 0.238366
0.155611 0.740313 0.013162 0.076418 -0.997070 0.000000 0.723458 0.256199
0.155610 0.758392 -0.018151 0.076449 -0.498520 -0.863460 0.802742 0.240896
0.155610 0.794549 -0.018151 0.076449 0.498520 -0.863491 0.917832 0.240948
0.146246 0.808406 -0.005275 -0.199316 0.848628 -0.489944 0.949663 0.238458
0.155611 0.812628 0.013162 0.076418 0.997070 0.000000 0.953639 0.256303
0.155611 0.807784 0.031241 0.076418 0.863460 0.498520 0.925668 0.265145
0.253903 0.776471 0.041783 0.262459 0.000000 0.964934 0.853695 0.362762
0.262898 0.788488 0.033977 0.814570 0.290017 0.502335 0.900571 0.367424
0.253903 0.790781 0.037949 0.262490 0.482467 0.835627 0.901908 0.360905
0.262899 0.764453 0.033977 0.814570 -0.290017 0.502335 0.824066 0.367389
0.253903 0.762160 0.037949 0.262490 -0.482467 0.835627 0.810806 0.360864
0.262899 0.755656 0.025180 0.814570 -0.502304 0.290017 0.802171 0.363070
0.253903 0.751684 0.027473 0.262490 -0.835627 0.482467 0.784734 0.355721
0.262899 0.752436 0.013162 0.814570 -0.580035 0.000000 0.800265 0.357183
0.253903 0.747850 0.013162 0.262490 -0.964904 0.000000 0.782463 0.348711
0.253903 0.751684 -0.001148 0.262490 -0.835627 -0.482437 0.804604 0.341711
0.253903 0.762160 -0.011624 0.262490 -0.482467 -0.835627 0.845222 0.336598
0.262899 0.755656 0.001145 0.814570 -0.502335 -0.290017 0.818858 0.351305
0.253903 0.776471 -0.015459 0.262490 0.000000 -0.964904 0.893435 0.334742
0.262899 0.764453 -0.007653 0.814570 -0.290017 -0.502304 0.852968 0.347011
0.262898 0.788488 -0.007653 0.814570 0.290017 -0.502304 0.929473 0.347046
0.253903 0.790781 -0.011624 0.262490 0.482437 -0.835627 0.936324 0.336639
0.262899 0.797286 0.001145 0.814570 0.502304 -0.290017 0.951367 0.351365
0.253903 0.801257 -0.001148 0.262490 0.835627 -0.482437 0.962396 0.341782
0.253903 0.805092 0.013162 0.262490 0.964904 0.000000 0.964666 0.348793
0.262899 0.797286 0.025180 0.814570 0.502304 0.290017 0.934681 0.363130
0.253903 0.801257 0.027473 0.262490 0.835627 0.482437 0.942526 0.355792
0.129299 0.756760 0.024543 -0.963378 0.232124 -0.134007 0.758533 0.237032
0.129299 0.765091 0.032873 -0.963378 0.134007 -0.232124 0.779267 0.241122
0.129300 0.776471 0.035923 -0.963378 0.000000 -0.268075 0.813373 0.242631
0.129299 0.787851 0.032873 -0.963378 -0.134037 -0.232093 0.851714 0.241154
0.129299 0.799231 0.013162 -0.963378 -0.268044 0.000000 0.901622 0.231522
0.129299 0.787851 -0.006549 -0.963408 -0.133976 0.232063 0.879082 0.221857
0.129299 0.776471 -0.009598 -0.963408 0.000000 0.268014 0.844976 0.220348
0.129299 0.765091 -0.006549 -0.963408 0.133946 0.232093 0.806635 0.221824
0.129300 0.756760 0.001782 -0.963378 0.232154 0.134007 0.774334 0.225891
0.129299 0.796182 0.024543 -0.963378 -0.232124 -0.134007 0.884015 0.237088
0.129300 0.796182 0.001782 -0.963378 -0.232154 0.134037 0.899816 0.225947
0.129299 0.753710 0.013162 -0.963378 0.268014 0.000000 0.756727 0.231457
0.262899 0.761611 0.021742 0.958739 0.246101 -0.142094 0.823513 0.361396
0.262899 0.776471 0.030321 0.958739 0.000000 -0.284219 0.864857 0.365617
0.262899 0.776471 0.037198 0.814570 0.000000 0.580035 0.860083 0.368984
0.262899 0.791331 0.021742 0.958739 -0.246101 -0.142094 0.918113 0.361438
0.262899 0.800506 0.013162 0.814570 0.580035 0.000000 0.953274 0.357252
0.262899 0.791331 0.004583 0.958739 -0.246101 0.142094 0.930026 0.353039
0.262898 0.785050 -0.001698 0.958770 -0.142064 0.246101 0.914394 0.349956
0.262899 0.776471 -0.010872 0.814600 0.000000 -0.579974 0.893456 0.345453
0.262899 0.767891 -0.001698 0.958770 0.142064 0.246101 0.859777 0.349931
0.262899 0.761611 0.004583 0.958739 0.246101 0.142094 0.835426 0.352996
0.262899 0.759312 0.013162 0.958739 0.284188 0.000000 0.822153 0.357193
0.262899 0.767891 0.028022 0.958770 0.142064 -0.246071 0.839145 0.364480
0.262899 0.785050 0.028022 0.958770 -0.142064 -0.246071 0.893762 0.364504
0.262899 0.793630 0.013162 0.958739 -0.284188 0.000000 0.931387 0.357242
0.262899 0.776471 -0.003997 0.958739 0.000000 0.284219 0.888682 0.348818
0.243991 0.776471 0.042543 0.076449 0.000000 0.997070 0.849636 0.353806
0.243991 0.791161 0.038607 0.076418 0.498520 0.863460 0.899129 0.351900
0.243991 0.761780 0.038607 0.076418 -0.498520 0.863460 0.805608 0.351857
0.243991 0.751026 0.027853 0.076449 -0.863460 0.498520 0.778844 0.346578
0.243991 0.747090 0.013162 0.076418 -0.997070 0.000000 0.776513 0.339381
0.243991 0.751026 -0.001528 0.076449 -0.863491 -0.498520 0.799241 0.332196
0.243991 0.761780 -0.012282 0.076449 -0.498520 -0.863460 0.840938 0.326948
0.243991 0.776471 -0.016219 0.076449 0.000000 -0.997070 0.890431 0.325041
0.243991 0.791161 -0.012282 0.076449 0.498520 -0.863460 0.934459 0.326990
0.243991 0.801915 -0.001528 0.076418 0.863491 -0.498520 0.961224 0.332269
0.243991 0.805852 0.013162 0.076418 0.997070 0.000000 0.963554 0.339466
0.243991 0.801915 0.027853 0.076418 0.863491 0.498520 0.940826 0.346651
0.155611 0.776471 0.049320 0.076449 0.000000 0.997070 0.813446 0.273950
0.155611 0.745157 -0.004916 0.076449 -0.863460 -0.498520 0.751428 0.247356
0.155611 0.776471 -0.022995 0.076418 0.000000 -0.997070 0.863650 0.238552
0.155611 0.807784 -0.004916 0.076449 0.863460 -0.498520 0.950770 0.247446
0.146245 0.744536 0.031600 -0.199347 -0.848628 0.489944 0.720761 0.256416
0.129299 0.762619 0.037155 -0.822047 -0.284677 0.493088 0.768427 0.243214
0.129299 0.752478 0.027014 -0.822047 -0.493088 0.284677 0.743190 0.238235
0.146245 0.758033 0.045097 -0.199347 -0.489944 0.848628 0.754353 0.263043
0.129299 0.776471 0.040866 -0.822077 0.000000 0.569353 0.809941 0.245050
0.146245 0.794909 0.045097 -0.199347 0.489944 0.848628 0.871729 0.263096
0.129299 0.790323 0.037155 -0.822047 0.284677 0.493088 0.856609 0.243253
0.146245 0.808406 0.031600 -0.199347 0.848628 0.489944 0.924062 0.256508
0.129299 0.800463 0.027014 -0.822047 0.493088 0.284677 0.895926 0.238304
0.129299 0.804175 0.013162 -0.822047 0.569384 0.000000 0.917357 0.231529
0.146245 0.813346 0.013162 -0.199347 0.979919 0.000000 0.952588 0.247490
0.129299 0.800463 -0.000690 -0.822077 0.493057 -0.284677 0.915159 0.224743
0.146245 0.794909 -0.018773 -0.199347 0.489944 -0.848628 0.916070 0.231831
0.129300 0.790323 -0.010830 -0.822016 0.284707 -0.493118 0.889922 0.219765
0.146245 0.776471 -0.023713 -0.199347 0.000000 -0.979919 0.860812 0.229386
0.129299 0.776471 -0.014542 -0.822047 0.000000 -0.569384 0.848408 0.217928
0.129300 0.762619 -0.010830 -0.822016 -0.284707 -0.493118 0.801740 0.219726
0.146245 0.758033 -0.018773 -0.199347 -0.489944 -0.848628 0.798694 0.231778
0.129299 0.752478 -0.000690 -0.822077 -0.493057 -0.284677 0.762423 0.224674
0.146245 0.739595 0.013162 -0.199347 -0.979919 0.000000 0.717835 0.247384
0.129299 0.748767 0.013162 -0.822047 -0.569353 0.000000 0.740992 0.231449
0.134873 0.768794 0.026460 -0.931822 0.181433 -0.314219 0.797492 0.243233
0.134873 0.776471 0.013162 -1.000000 0.000000 0.000000 0.831160 0.236735
0.134873 0.763173 0.020840 -0.931822 0.314249 -0.181433 0.783504 0.240474
0.134873 0.776471 0.028517 -0.931822 0.000000 -0.362835 0.820500 0.244251
0.134873 0.784148 0.026460 -0.931822 -0.181433 -0.314219 0.846366 0.243255
0.134873 0.789768 0.020840 -0.931822 -0.314249 -0.181433 0.868156 0.240512
0.134873 0.791825 0.013162 -0.931822 -0.362865 0.000000 0.880034 0.236757
0.134873 0.789768 0.005485 -0.931822 -0.314219 0.181402 0.878816 0.232996
0.134873 0.784148 -0.000135 -0.931822 -0.181402 0.314249 0.864829 0.230237
0.134873 0.776471 -0.002192 -0.931822 0.000000 0.362865 0.841820 0.229219
0.134873 0.768794 -0.000135 -0.931822 0.181402 0.314249 0.815955 0.230215
0.134873 0.763173 0.005485 -0.931852 0.314219 0.181402 0.794164 0.232958
0.134873 0.761116 0.013162 -0.931822 0.362835 0.000000 0.782286 0.236713
0.257957 0.766856 0.018713 0.923643 0.331858 -0.191595 0.840551 0.355271
0.257957 0.776471 0.013162 1.000000 0.000000 0.000000 0.875009 0.352567
0.257957 0.770920 0.022777 0.923643 0.191595 -0.331858 0.850664 0.357266
0.257957 0.776471 0.024265 0.923643 0.000000 -0.383190 0.867301 0.358002
0.257957 0.782022 0.022777 0.923643 -0.191595 -0.331858 0.886004 0.357282
0.257957 0.786086 0.018713 0.923643 -0.331858 -0.191595 0.901760 0.355298
0.257957 0.787573 0.013162 0.923643 -0.383190 0.000000 0.910348 0.352583
0.257957 0.786086 0.007611 0.923643 -0.331828 0.191626 0.909468 0.349864
0.257958 0.782022 0.003547 0.923643 -0.191565 0.331858 0.899354 0.347869
0.257958 0.776471 0.002060 0.923643 0.000000 0.383190 0.882717 0.347133
0.257958 0.770920 0.003547 0.923643 0.191565 0.331858 0.864015 0.347853
0.257957 0.766856 0.007611 0.923643 0.331828 0.191626 0.848258 0.349836
0.257957 0.765368 0.013162 0.923643 0.383190 0.000000 0.839670 0.352551
0.146246 0.776471 0.050038 -0.199316 0.000000 0.979919 0.809611 0.265488
0.155611 0.794549 0.044476 0.076449 0.498520 0.863460 0.874354 0.271605
0.155611 0.758392 0.044476 0.076449 -0.498520 0.863460 0.759264 0.271553
0.155611 0.745157 0.031241 0.076449 -0.863491 0.498520 0.726326 0.265056
0.146246 0.744536 -0.005275 -0.199316 -0.848628 -0.489944 0.746361 0.238366
0.155611 0.740313 0.013162 0.076418 -0.997070 0.000000 0.723458 0.256199
0.155610 0.758392 -0.018151 0.076449 -0.498520 -0.863460 0.802742 0.240896
0.155610 0.794549 -0.018151 0.076449 0.498520 -0.863491 0.917832 0.240948
0.146246 0.808406 -0.005275 -0.199316 0.848628 -0.489944 0.949663 0.238458
0.155611 0.812628 0.013162 0.076418 0.997070 0.000000 0.953639 0.256303
0.155611 0.807784 0.031241 0.076418 0.863460 0.498520 0.925668 0.265145
0.253903 0.776471 0.041783 0.262459 0.000000 0.964934 0.853695 0.362762
0.262898 0.788488 0.033977 0.814570 0.290017 0.502335 0.900571 0.367424
0.253903 0.790781 0.037949 0.262490 0.482467 0.835627 0.901908 0.360905
0.262899 0.764453 0.033977 0.814570 -0.290017 0.502335 0.824066 0.367389
0.253903 0.762160 0.037949 0.262490 -0.482467 0.835627 0.810806 0.360864
0.262899 0.755656 0.025180 0.814570 -0.502304 0.290017 0.802171 0.363070
0.253903 0.751684 0.027473 0.262490 -0.835627 0.482467 0.784734 0.355721
0.262899 0.752436 0.013162 0.814570 -0.580035 0.000000 0.800265 0.357183
0.253903 0.747850 0.013162 0.262490 -0.964904 0.000000 0.782463 0.348711
0.253903 0.751684 -0.001148 0.262490 -0.835627 -0.482437 0.804604 0.341711
0.253903 0.762160 -0.011624 0.262490 -0.482467 -0.835627 0.845222 0.336598
0.262899 0.755656 0.001145 0.814570 -0.502335 -0.290017 0.818858 0.351305
0.253903 0.776471 -0.015459 0.262490 0.000000 -0.964904 0.893435 0.334742
0.262899 0.764453 -0.007653 0.814570 -0.290017 -0.502304 0.852968 0.347011
0.262898 0.788488 -0.007653 0.814570 0.290017 -0.502304 0.929473 0.347046
0.253903 0.790781 -0.011624 0.262490 0.482437 -0.835627 0.936324 0.336639
0.262899 0.797286 0.001145 0.814570 0.502304 -0.290017 0.951367 0.351365
0.253903 0.801257 -0.001148 0.262490 0.835627 -0.482437 0.962396 0.341782
0.253903 0.805092 0.013162 0.262490 0.964904 0.000000 0.964666 0.348793
0.262899 0.797286 0.025180 0.814570 0.502304 0.290017 0.934681 0.363130
0.253903 0.801257 0.027473 0.262490 0.835627 0.482437 0.942526 0.355792
0.129299 0.756760 0.024543 -0.963378 0.232124 -0.134007 0.758533 0.237032
0.129299 0.765091 0.032873 -0.963378 0.134007 -0.232124 0.779267 0.241122
0.129300 0.776471 0.035923 -0.963378 0.000000 -0.268075 0.813373 0.242631
0.129299 0.787851 0.032873 -0.963378 -0.134037 -0.232093 0.851714 0.241154
0.129299 0.799231 0.013162 -0.963378 -0.268044 0.000000 0.901622 0.231522
0.129299 0.787851 -0.006549 -0.963408 -0.133976 0.232063 0.879082 0.221857
0.129299 0.776471 -0.009598 -0.963408 0.000000 0.268014 0.844976 0.220348
0.129299 0.765091 -0.006549 -0.963408 0.133946 0.232093 0.806635 0.221824
0.129300 0.756760 0.001782 -0.963378 0.232154 0.134007 0.774334 0.225891
0.129299 0.796182 0.024543 -0.963378 -0.232124 -0.134007 0.884015 0.237088
0.129300 0.796182 0.001782 -0.963378 -0.232154 0.134037 0.899816 0.225947
0.129299 0.753710 0.013162 -0.963378 0.268014 0.000000 0.756727 0.231457
0.262899 0.761611 0.021742 0.958739 0.246101 -0.142094 0.823513 0.361396
0.262899 0.776471 0.030321 0.958739 0.000000 -0.284219 0.864857 0.365617
0.262899 0.776471 0.037198 0.814570 0.000000 0.580035 0.860083 0.368984
0.262899 0.791331 0.021742 0.958739 -0.246101 -0.142094 0.918113 0.361438
0.262899 0.800506 0.013162 0.814570 0.580035 0.000000 0.953274 0.357252
0.262899 0.791331 0.004583 0.958739 -0.246101 0.142094 0.930026 0.353039
0.262898 0.785050 -0.001698 0.958770 -0.142064 0.246101 0.914394 0.349956
0.262899 0.776471 -0.010872 0.814600 0.000000 -0.579974 0.893456 0.345453
0.262899 0.767891 -0.001698 0.958770 0.142064 0.246101 0.859777 0.349931
0.262899 0.761611 0.004583 0.958739 0.246101 0.142094 0.835426 0.352996
0.262899 0.759312 0.013162 0.958739 0.284188 0.000000 0.822153 0.357193
0.262899 0.767891 0.028022 0.958770 0.142064 -0.246071 0.839145 0.364480
0.262899 0.785050 0.028022 0.958770 -0.142064 -0.246071 0.893762 0.364504
0.262899 0.793630 0.013162 0.958739 -0.284188 0.000000 0.931387 0.357242
0.262899 0.776471 -0.003997 0.958739 0.000000 0.284219 0.888682 0.348818
0.243991 0.776471 0.042543 0.076449 0.000000 0.997070 0.849636 0.353806
0.243991 0.791161 0.038607 0.076418 0.498520 0.863460 0.899129 0.351900
0.243991 0.761780 0.038607 0.076418 -0.498520 0.863460 0.805608 0.351857
0.243991 0.751026 0.027853 0.076449 -0.863460 0.498520 0.778844 0.346578
0.243991 0.747090 0.013162 0.076418 -0.997070 0.000000 0.776513 0.339381
0.243991 0.751026 -0.001528 0.076449 -0.863491 -0.498520 0.799241 0.332196
0.243991 0.761780 -0.012282 0.076449 -0.498520 -0.863460 0.840938 0.326948
0.243991 0.776471 -0.016219 0.076449 0.000000 -0.997070 0.890431 0.325041
0.243991 0.791161 -0.012282 0.076449 0.498520 -0.863460 0.934459 0.326990
0.243991 0.801915 -0.001528 0.076418 0.863491 -0.498520 0.961224 0.332269
0.243991 0.805852 0.013162 0.076418 0.997070 0.000000 0.963554 0.339466
0.243991 0.801915 0.027853 0.076418 0.863491 0.498520 0.940826 0.346651
0.155611 0.776471 0.049320 0.076449 0.000000 0.997070 0.813446 0.273950
0.155611 0.745157 -0.004916 0.076449 -0.863460 -0.498520 0.751428 0.247356
0.155611 0.776471 -0.022995 0.076418 0.000000 -0.997070 0.863650 0.238552
0.155611 0.807784 -0.004916 0.076449 0.863460 -0.498520 0.950770 0.247446
0.146245 0.744536 0.031600 -0.199347 -0.848628 0.489944 0.720761 0.256416
0.129299 0.762619 0.037155 -0.822047 -0.284677 0.493088 0.768427 0.243214
0.129299 0.752478 0.027014 -0.822047 -0.493088 0.284677 0.743190 0.238235
0.146245 0.758033 0.045097 -0.199347 -0.489944 0.848628 0.754353 0.263043
0.129299 0.776471 0.040866 -0.822077 0.000000 0.569353 0.809941 0.245050
0.146245 0.794909 0.045097 -0.199347 0.489944 0.848628 0.871729 0.263096
0.129299 0.790323 0.037155 -0.822047 0.284677 0.493088 0.856609 0.243253
0.146245 0.808406 0.031600 -0.199347 0.848628 0.489944 0.924062 0.256508
0.129299 0.800463 0.027014 -0.822047 0.493088 0.284677 0.895926 0.238304
0.129299 0.804175 0.013162 -0.822047 0.569384 0.000000 0.917357 0.231529
0.146245 0.813346 0.013162 -0.199347 0.979919 0.000000 0.952588 0.247490
0.129299 0.800463 -0.000690 -0.822077 0.493057 -0.284677 0.915159 0.224743
0.146245 0.794909 -0.018773 -0.199347 0.489944 -0.848628 0.916070 0.231831
0.129300 0.790323 -0.010830 -0.822016 0.284707 -0.493118 0.889922 0.219765
0.146245 0.776471 -0.023713 -0.199347 0.000000 -0.979919 0.860812 0.229386
0.129299 0.776471 -0.014542 -0.822047 0.000000 -0.569384 0.848408 0.217928
0.129300 0.762619 -0.010830 -0.822016 -0.284707 -0.493118 0.801740 0.219726
0.146245 0.758033 -0.018773 -0.199347 -0.489944 -0.848628 0.798694 0.231778
0.129299 0.752478 -0.000690 -0.822077 -0.493057 -0.284677 0.762423 0.224674
0.146245 0.739595 0.013162 -0.199347 -0.979919 0.000000 0.717835 0.247384
0.129299 0.748767 0.013162 -0.822047 -0.569353 0.000000 0.740992 0.231449
0.134873 0.768794 0.026460 -0.931822 0.181433 -0.314219 0.797492 0.243233
0.134873 0.776471 0.013162 -1.000000 0.000000 0.000000 0.831160 0.236735
0.134873 0.763173 0.020840 -0.931822 0.314249 -0.181433 0.783504 0.240474
0.134873 0.776471 0.028517 -0.931822 0.000000 -0.362835 0.820500 0.244251
0.134873 0.784148 0.026460 -0.931822 -0.181433 -0.314219 0.846366 0.243255
0.134873 0.789768 0.020840 -0.931822 -0.314249 -0.181433 0.868156 0.240512
0.134873 0.791825 0.013162 -0.931822 -0.362865 0.000000 0.880034 0.236757
0.134873 0.789768 0.005485 -0.931822 -0.314219 0.181402 0.878816 0.232996
0.134873 0.784148 -0.000135 -0.931822 -0.181402 0.314249 0.864829 0.230237
0.134873 0.776471 -0.002192 -0.931822 0.000000 0.362865 0.841820 0.229219
0.134873 0.768794 -0.000135 -0.931822 0.181402 0.314249 0.815955 0.230215
0.134873 0.763173 0.005485 -0.931852 0.314219 0.181402 0.794164 0.232958
0.134873 0.761116 0.013162 -0.931822 0.362835 0.000000 0.782286 0.236713
0.257957 0.766856 0.018713 0.923643 0.331858 -0.191595 0.840551 0.355271
0.257957 0.776471 0.013162 1.000000 0.000000 0.000000 0.875009 0.352567
0.257957 0.770920 0.022777 0.923643 0.191595 -0.331858 0.850664 0.357266
0.257957 0.776471 0.024265 0.923643 0.000000 -0.383190 0.867301 0.358002
0.257957 0.782022 0.022777 0.923643 -0.191595 -0.331858 0.886004 0.357282
0.257957 0.786086 0.018713 0.923643 -0.331858 -0.191595 0.901760 0.355298
0.257957 0.787573 0.013162 0.923643 -0.383190 0.000000 0.910348 0.352583
0.257957 0.786086 0.007611 0.923643 -0.331828 0.191626 0.909468 0.349864
0.257958 0.782022 0.003547 0.923643 -0.191565 0.331858 0.899354 0.347869
0.257958 0.776471 0.002060 0.923643 0.000000 0.383190 0.882717 0.347133
0.257958 0.770920 0.003547 0.923643 0.191565 0.331858 0.864015 0.347853
0.257957 0.766856 0.007611 0.923643 0.331828 0.191626 0.848258 0.349836
0.257957 0.765368 0.013162 0.923643 0.383190 0.000000 0.839670 0.352551
0.146246 0.776471 0.050038 -0.199316 0.000000 0.979919 0.809611 0.265488
0.155611 0.794549 0.044476 0.076449 0.498520 0.863460 0.874354 0.271605
0.155611 0.758392 0.044476 0.076449 -0.498520 0.863460 0.759264 0.271553
0.155611 0.745157 0.031241 0.076449 -0.863491 0.498520 0.726326 0.265056
0.146246 0.744536 -0.005275 -0.199316 -0.848628 -0.489944 0.746361 0.238366
0.155611 0.740313 0.013162 0.076418 -0.997070 0.000000 0.723458 0.256199
0.155610 0.758392 -0.018151 0.076449 -0.498520 -0.863460 0.802742 0.240896
0.155610 0.794549 -0.018151 0.076449 0.498520 -0.863491 0.917832 0.240948
0.146246 0.808406 -0.005275 -0.199316 0.848628 -0.489944 0.949663 0.238458
0.155611 0.812628 0.013162 0.076418 0.997070 0.000000 0.953639 0.256303
0.155611 0.807784 0.031241 0.076418 0.863460 0.498520 0.925668 0.265145
0.253903 0.776471 0.041783 0.262459 0.000000 0.964934 0.853695 0.362762
0.262898 0.788488 0.033977 0.814570 0.290017 0.502335 0.900571 0.367424
0.253903 0.790781 0.037949 0.262490 0.482467 0.835627 0.901908 0.360905
0.262899 0.764453 0.033977 0.814570 -0.290017 0.502335 0.824066 0.367389
0.253903 0.762160 0.037949 0.262490 -0.482467 0.835627 0.810806 0.360864
0.262899 0.755656 0.025180 0.814570 -0.502304 0.290017 0.802171 0.363070
0.253903 0.751684 0.027473 0.262490 -0.835627 0.482467 0.784734 0.355721
0.262899 0.752436 0.013162 0.814570 -0.580035 0.000000 0.800265 0.357183
0.253903 0.747850 0.013162 0.262490 -0.964904 0.000000 0.782463 0.348711
0.253903 0.751684 -0.001148 0.262490 -0.835627 -0.482437 0.804604 0.341711
0.253903 0.762160 -0.011624 0.262490 -0.482467 -0.835627 0.845222 0.336598
0.262899 0.755656 0.001145 0.814570 -0.502335 -0.290017 0.818858 0.351305
0.253903 0.776471 -0.015459 0.262490 0.000000 -0.964904 0.893435 0.334742
0.262899 0.764453 -0.007653 0.814570 -0.290017 -0.502304 0.852968 0.347011
0.262898 0.788488 -0.007653 0.814570 0.290017 -0.502304 0.929473 0.347046
0.253903 0.790781 -0.011624 0.262490 0.482437 -0.835627 0.936324 0.336639
0.262899 0.797286 0.001145 0.814570 0.502304 -0.290017 0.951367 0.351365
0.253903 0.801257 -0.001148 0.262490 0.835627 -0.482437 0.962396 0.341782
0.253903 0.805092 0.013162 0.262490 0.964904 0.000000 0.964666 0.348793
0.262899 0.797286 0.025180 0.814570 0.502304 0.290017 0.934681 0.363130
0.253903 0.801257 0.027473 0.262490 0.835627 0.482437 0.942526 0.355792
0.129299 0.756760 0.024543 -0.963378 0.232124 -0.134007 0.758533 0.237032
0.129299 0.765091 0.032873 -0.963378 0.134007 -0.232124 0.779267 0.241122
0.129300 0.776471 0.035923 -0.963378 0.000000 -0.268075 0.813373 0.242631
0.129299 0.787851 0.032873 -0.963378 -0.134037 -0.232093 0.851714 0.241154
0.129299 0.799231 0.013162 -0.963378 -0.268044 0.000000 0.901622 0.231522
0.129299 0.787851 -0.006549 -0.963408 -0.133976 0.232063 0.879082 0.221857
0.129299 0.776471 -0.009598 -0.963408 0.000000 0.268014 0.844976 0.220348
0.129299 0.765091 -0.006549 -0.963408 0.133946 0.232093 0.806635 0.221824
0.129300 0.756760 0.001782 -0.963378 0.232154 0.134007 0.774334 0.225891
0.129299 0.796182 0.024543 -0.963378 -0.232124 -0.134007 0.884015 0.237088
0.129300 0.796182 0.001782 -0.963378 -0.232154 0.134037 0.899816 0.225947
0.129299 0.753710 0.013162 -0.963378 0.268014 0.000000 0.756727 0.231457
0.262899 0.761611 0.021742 0.958739 0.246101 -0.142094 0.823513 0.361396
0.262899 0.776471 0.030321 0.958739 0.000000 -0.284219 0.864857 0.365617
0.262899 0.776471 0.037198 0.814570 0.000000 0.580035 0.860083 0.368984
0.262899 0.791331 0.021742 0.958739 -0.246101 -0.142094 0.918113 0.361438
0.262899 0.800506 0.013162 0.814570 0.580035 0.000000 0.953274 0.357252
0.262899 0.791331 0.004583 0.958739 -0.246101 0.142094 0.930026 0.353039
0.262898 0.785050 -0.001698 0.958770 -0.142064 0.246101 0.914394 0.349956
0.262899 0.776471 -0.010872 0.814600 0.000000 -0.579974 0.893456 0.345453
0.262899 0.767891 -0.001698 0.958770 0.142064 0.246101 0.859777 0.349931
0.262899 0.761611 0.004583 0.958739 0.246101 0.142094 0.835426 0.352996
0.262899 0.759312 0.013162 0.958739 0.284188 0.000000 0.822153 0.357193
0.262899 0.767891 0.028022 0.958770 0.142064 -0.246071 0.839145 0.364480
0.262899 0.785050 0.028022 0.958770 -0.142064 -0.246071 0.893762 0.364504
0.262899 0.793630 0.013162 0.958739 -0.284188 0.000000 0.931387 0.357242
0.262899 0.776471 -0.003997 0.958739 0.000000 0.284219 0.888682 0.348818
0.243991 0.776471 0.042543 0.076449 0.000000 0.997070 0.849636 0.353806
0.243991 0.791161 0.038607 0.076418 0.498520 0.863460 0.899129 0.351900
0.243991 0.761780 0.038607 0.076418 -0.498520 0.863460 0.805608 0.351857
0.243991 0.751026 0.027853 0.076449 -0.863460 0.498520 0.778844 0.346578
0.243991 0.747090 0.013162 0.076418 -0.997070 0.000000 0.776513 0.339381
0.243991 0.751026 -0.001528 0.076449 -0.863491 -0.498520 0.799241 0.332196
0.243991 0.761780 -0.012282 0.076449 -0.498520 -0.863460 0.840938 0.326948
0.243991 0.776471 -0.016219 0.076449 0.000000 -0.997070 0.890431 0.325041
0.243991 0.791161 -0.012282 0.076449 0.498520 -0.863460 0.934459 0.326990
0.243991 0.801915 -0.001528 0.076418 0.863491 -0.498520 0.961224 0.332269
0.243991 0.805852 0.013162 0.076418 0.997070 0.000000 0.963554 0.339466
0.243991 0.801915 0.027853 0.076418 0.863491 0.498520 0.940826 0.346651
0.155611 0.776471 0.049320 0.076449 0.000000 0.997070 0.813446 0.273950
0.155611 0.745157 -0.004916 0.076449 -0.863460 -0.498520 0.751428 0.247356
0.155611 0.776471 -0.022995 0.076418 0.000000 -0.997070 0.863650 0.238552
0.155611 0.807784 -0.004916 0.076449 0.863460 -0.498520 0.950770 0.247446
3 0 1 2
3 3 4 1
3 4 5 6
3 6 7 8
3 7 9 8
3 10 11 9
3 11 12 13
3 13 14 15
3 14 16 15
3 17 18 16
3 18 19 20
3 20 0 2
3 21 22 23
3 24 22 21
3 25 22 24
3 26 22 25
3 27 22 26
3 28 22 27
3 29 22 28
3 30 22 29
3 31 22 30
3 32 22 31
3 33 22 32
3 23 22 33
3 34 35 36
3 36 35 37
3 37 35 38
3 38 35 39
3 39 35 40
3 40 35 41
3 41 35 42
3 42 35 43
3 43 35 44
3 44 35 45
3 45 35 46
3 46 35 34
3 47 48 5
3 49 47 3
3 0 49 3
3 19 50 0
3 51 52 19
3 53 51 17
3 14 53 17
3 54 14 12
3 55 54 12
3 56 55 10
3 57 10 7
3 48 7 5
3 58 59 60
3 61 58 62
3 63 62 64
3 65 64 66
3 67 65 66
3 68 69 67
3 70 71 68
3 72 70 73
3 74 73 75
3 76 74 75
3 77 76 78
3 60 77 78
3 1 79 2
3 4 80 1
3 6 81 4
3 8 82 6
3 83 8 9
3 11 83 9
3 84 11 13
3 85 13 15
3 86 15 16
3 87 16 18
3 20 87 18
3 79 20 2
3 80 23 79
3 81 21 80
3 25 81 82
3 88 25 82
3 27 88 83
3 89 27 83
3 29 89 84
3 30 84 85
3 86 30 85
3 87 31 86
3 33 87 90
3 79 33 90
3 91 61 63
3 61 92 93
3 92 59 93
3 59 94 77
3 94 95 77
3 95 96 74
3 96 72 74
3 97 98 72
3 98 99 71
3 71 100 69
3 69 101 65
3 101 63 65
3 91 36 102
3 36 92 102
3 92 38 103
3 38 94 103
3 94 40 104
3 40 96 104
3 96 42 97
3 42 105 97
3 105 44 99
3 44 100 99
3 45 101 100
3 101 34 91
3 106 60 107
3 62 106 108
3 64 108 109
3 66 109 110
3 67 110 111
3 112 67 111
3 70 112 113
3 114 70 113
3 75 114 115
3 116 75 115
3 117 76 116
3 60 117 107
3 118 107 48
3 108 118 49
3 50 108 49
3 110 50 52
3 111 52 119
3 53 111 119
3 120 112 53
3 114 120 54
3 115 54 121
3 56 115 121
3 57 116 56
3 107 57 48
3 122 123 124
3 125 126 123
3 126 127 128
3 128 129 130
3 129 131 130
3 132 133 131
3 133 134 135
3 135 136 137
3 136 138 137
3 139 140 138
3 140 141 142
3 142 122 124
3 143 144 145
3 146 144 143
3 147 144 146
3 148 144 147
3 149 144 148
3 150 144 149
3 151 144 150
3 152 144 151
3 153 144 152
3 154 144 153
3 155 144 154
3 145 144 155
3 156 157 158
3 158 157 159
3 159 157 160
3 160 157 161
3 161 157 162
3 162 157 163
3 163 157 164
3 164 157 165
3 165 157 166
3 166 157 167
3 167 157 168
3 168 157 156
3 169 170 127
3 171 169 125
3 122 171 125
3 141 172 122
3 173 174 141
3 175 173 139
3 136 175 139
3 176 136 134
3 177 176 134
3 178 177 132
3 179 132 129
3 170 129 127
3 180 181 182
3 183 180 184
3 185 184 186
3 187 186 188
3 189 187 188
3 190 191 189
3 192 193 190
3 194 192 195
3 196 195 197
3 198 196 197
3 199 198 200
3 182 199 200
3 123 201 124
3 126 202 123
3 128 203 126
3 130 204 128
3 205 130 131
3 133 205 131
3 206 133 135
3 207 135 137
3 208 137 138
3 209 138 140
3 142 209 140
3 201 142 124
3 202 145 201
3 203 143 202
3 147 203 204
3 210 147 204
3 149 210 205
3 211 149 205
3 151 211 206
3 152 206 207
3 208 152 207
3 209 153 208
3 155 209 212
3 201 155 212
3 213 183 185
3 183 214 215
3 214 181 215
3 181 216 199
3 216 217 199
3 217 218 196
3 218 194 196
3 219 220 194
3 220 221 193
3 193 222 191
3 191 223 187
3 223 185 187
3 213 158 224
3 158 214 224
3 214 160 225
3 160 216 225
3 216 162 226
3 162 218 226
3 218 164 219
3 164 227 219
3 227 166 221
3 166 222 221
3 167 223 222
3 223 156 213
3 228 182 229
3 184 228 230
3 186 230 231
3 188 231 232
3 189 232 233
3 234 189 233
3 192 234 235
3 236 192 235
3 197 236 237
3 238 197 237
3 239 198 238
3 182 239 229
3 240 229 170
3 230 240 171
3 172 230 171
3 232 172 174
3 233 174 241
3 175 233 241
3 242 234 175
3 236 242 176
3 237 176 243
3 178 237 243
3 179 238 178
3 229 179 170
3 244 245 246
3 247 248 245
3 248 249 250
3 250 251 252
3 251 253 252
3 254 255 253
3 255 256 257
3 257 258 259
3 258 260 259
3 261 262 260
3 262 263 264
3 264 244 246
3 265 266 267
3 268 266 265
3 269 266 268
3 270 266 269
3 271 266 270
3 272 266 271
3 273 266 272
3 274 266 273
3 275 266 274
3 276 266 275
3 277 266 276
3 267 266 277
3 278 279 280
3 280 279 281
3 281 279 282
3 282 279 283
3 283 279 284
3 284 279 285
3 285 279 286
3 286 279 287
3 287 279 288
3 288 279 289
3 289 279 290
3 290 279 278
3 291 292 249
3 293 291 247
3 244 293 247
3 263 294 244
3 295 296 263
3 297 295 261
3 258 297 261
3 298 258 256
3 299 298 256
3 300 299 254
3 301 254 251
3 292 251 249
3 302 303 304
3 305 302 306
3 307 306 308
3 309 308 310
3 311 309 310
3 312 313 311
3 314 315 312
3 316 314 317
3 318 317 319
3 320 318 319
3 321 320 322
3 304 321 322
3 245 323 246
3 248 324 245
3 250 325 248
3 252 326 250
3 327 252 253
3 255 327 253
3 328 255 257
3 329 257 259
3 330 259 260
3 331 260 262
3 264 331 262
3 323 264 246
3 324 267 323
3 325 265 324
3 269 325 326
3 332 269 326
3 271 332 327
3 333 271 327
3 273 333 328
3 274 328 329
3 330 274 329
3 331 275 330
3 277 331 334
3 323 277 334
3 335 305 307
3 305 336 337
3 336 303 337
3 303 338 321
3 338 339 321
3 339 340 318
3 340 316 318
3 341 342 316
3 342 343 315
3 315 344 313
3 313 345 309
3 345 307 309
3 335 280 346
3 280 336 346
3 336 282 347
3 282 338 347
3 338 284 348
3 284 340 348
3 340 286 341
3 286 349 341
3 349 288 343
3 288 344 343
3 289 345 344
3 345 278 335
3 350 304 351
3 306 350 352
3 308 352 353
3 310 353 354
3 311 354 355
3 356 311 355
3 314 356 357
3 358 314 357
3 319 358 359
3 360 319 359
3 361 320 360
3 304 361 351
3 362 351 292
3 352 362 293
3 294 352 293
3 354 294 296
3 355 296 363
3 297 355 363
3 364 356 297
3 358 364 298
3 359 298 365
3 300 359 365
3 301 360 300
3 351 301 292
3 366 367 368
3 369 370 367
3 370 371 372
3 372 373 374
3 373 375 374
3 376 377 375
3 377 378 379
3 379 380 381
3 380 382 381
3 383 384 382
3 384 385 386
3 386 366 368
3 387 388 389
3 390 388 387
3 391 388 390
3 392 388 391
3 393 388 392
3 394 388 393
3 395 388 394
3 396 388 395
3 397 388 396
3 398 388 397
3 399 388 398
3 389 388 399
3 400 401 402
3 402 401 403
3 403 401 404
3 404 401 405
3 405 401 406
3 406 401 407
3 407 401 408
3 408 401 409
3 409 401 410
3 410 401 411
3 411 401 412
3 412 401 400
3 413 414 371
3 415 413 369
3 366 415 369
3 385 416 366
3 417 418 385
3 419 417 383
3 380 419 383
3 420 380 378
3 421 420 378
3 422 421 376
3 423 376 373
3 414 373 371
3 424 425 426
3 427 424 428
3 429 428 430
3 431 430 432
3 433 431 432
3 434 435 433
3 436 437 434
3 438 436 439
3 440 439 441
3 442 440 441
3 443 442 444
3 426 443 444
3 367 445 368
3 370 446 367
3 372 447 370
3 374 448 372
3 449 374 375
3 377 449 375
3 450 377 379
3 451 379 381
3 452 381 382
3 453 382 384
3 386 453 384
3 445 386 368
3 446 389 445
3 447 387 446
3 391 447 448
3 454 391 448
3 393 454 449
3 455 393 449
3 395 455 450
3 396 450 451
3 452 396 451
3 453 397 452
3 399 453 456
3 445 399 456
3 457 427 429
3 427 458 459
3 458 425 459
3 425 460 443
3 460 461 443
3 461 462 440
3 462 438 440
3 463 464 438
3 464 465 437
3 437 466 435
3 435 467 431
3 467 429 431
3 457 402 468
3 402 458 468
3 458 404 469
3 404 460 469
3 460 406 470
3 406 462 470
3 462 408 463
3 408 471 463
3 471 410 465
3 410 466 465
3 411 467 466
3 467 400 457
3 472 426 473
3 428 472 474
3 430 474 475
3 432 475 476
3 433 476 477
3 478 433 477
3 436 478 479
3 480 436 479
3 441 480 481
3 482 441 481
3 483 442 482
3 426 483 473
3 484 473 414
3 474 484 415
3 416 474 415
3 476 416 418
3 477 418 485
3 419 477 485
3 486 478 419
3 480 486 420
3 481 420 487
3 422 481 487
3 423 482 422
3 473 423 414
3 488 489 490
3 491 492 489
3 492 493 494
3 494 495 496
3 495 497 496
3 498 499 497
3 499 500 501
3 501 502 503
3 502 504 503
3 505 506 504
3 506 507 508
3 508 488 490
3 509 510 511
3 512 510 509
3 513 510 512
3 514 510 513
3 515 510 514
3 516 510 515
3 517 510 516
3 518 510 517
3 519 510 518
3 520 510 519
3 521 510 520
3 511 510 521
3 522 523 524
3 524 523 525
3 525 523 526
3 526 523 527
3 527 523 528
3 528 523 529
3 529 523 530
3 530 523 531
3 531 523 532
3 532 523 533
3 533 523 534
3 534 523 522
3 535 536 493
3 537 535 491
3 488 537 491
3 507 538 488
3 539 540 507
3 541 539 505
3 502 541 505
3 542 502 500
3 543 542 500
3 544 543 498
3 545 498 495
3 536 495 493
3 546 547 548
3 549 546 550
3 551 550 552
3 553 552 554
3 555 553 554
3 556 557 555
3 558 559 556
3 560 558 561
3 562 561 563
3 564 562 563
3 565 564 566
3 548 565 566
3 489 567 490
3 492 568 489
3 494 569 492
3 496 570 494
3 571 496 497
3 499 571 497
3 572 499 501
3 573 501 503
3 574 503 504
3 575 504 506
3 508 575 506
3 567 508 490
3 568 511 567
3 569 509 568
3 513 569 570
3 576 513 570
3 515 576 571
3 577 515 571
3 517 577 572
3 518 572 573
3 574 518 573
3 575 519 574
3 521 575 578
3 567 521 578
3 579 549 551
3 549 580 581
3 580 547 581
3 547 582 565
3 582 583 565
3 583 584 562
3 584 560 562
3 585 586 560
3 586 587 559
3 559 588 557
3 557 589 553
3 589 551 553
3 579 524 590
3 524 580 590
3 580 526 591
3 526 582 591
3 582 528 592
3 528 584 592
3 584 530 585
3 530 593 585
3 593 532 587
3 532 588 587
3 533 589 588
3 589 522 579
3 594 548 595
3 550 594 596
3 552 596 597
3 554 597 598
3 555 598 599
3 600 555 599
3 558 600 601
3 602 558 601
3 563 602 603
3 604 563 603
3 605 564 604
3 548 605 595
3 606 595 536
3 596 606 537
3 538 596 537
3 598 538 540
3 599 540 607
3 541 599 607
3 608 600 541
3 602 608 542
3 603 542 609
3 544 603 609
3 545 604 544
3 595 545 536
3 0 3 1
3 3 47 4
3 4 47 5
3 6 5 7
3 7 10 9
3 10 55 11
3 11 55 12
3 13 12 14
3 14 17 16
3 17 51 18
3 18 51 19
3 20 19 0
3 47 118 48
3 49 118 47
3 0 50 49
3 19 52 50
3 51 119 52
3 53 119 51
3 14 120 53
3 54 120 14
3 55 121 54
3 56 121 55
3 57 56 10
3 48 57 7
3 58 93 59
3 61 93 58
3 63 61 62
3 65 63 64
3 67 69 65
3 68 71 69
3 70 98 71
3 72 98 70
3 74 72 73
3 76 95 74
3 77 95 76
3 60 59 77
3 1 80 79
3 4 81 80
3 6 82 81
3 8 88 82
3 83 88 8
3 11 89 83
3 84 89 11
3 85 84 13
3 86 85 15
3 87 86 16
3 20 90 87
3 79 90 20
3 80 21 23
3 81 24 21
3 25 24 81
3 88 26 25
3 27 26 88
3 89 28 27
3 29 28 89
3 30 29 84
3 86 31 30
3 87 32 31
3 33 32 87
3 79 23 33
3 91 102 61
3 61 102 92
3 92 103 59
3 59 103 94
3 94 104 95
3 95 104 96
3 96 97 72
3 97 105 98
3 98 105 99
3 71 99 100
3 69 100 101
3 101 91 63
3 91 34 36
3 36 37 92
3 92 37 38
3 38 39 94
3 94 39 40
3 40 41 96
3 96 41 42
3 42 43 105
3 105 43 44
3 44 45 100
3 45 46 101
3 101 46 34
3 106 58 60
3 62 58 106
3 64 62 108
3 66 64 109
3 67 66 110
3 112 68 67
3 70 68 112
3 114 73 70
3 75 73 114
3 116 76 75
3 117 78 76
3 60 78 117
3 118 106 107
3 108 106 118
3 50 109 108
3 110 109 50
3 111 110 52
3 53 112 111
3 120 113 112
3 114 113 120
3 115 114 54
3 56 116 115
3 57 117 116
3 107 117 57
3 122 125 123
3 125 169 126
3 126 169 127
3 128 127 129
3 129 132 131
3 132 177 133
3 133 177 134
3 135 134 136
3 136 139 138
3 139 173 140
3 140 173 141
3 142 141 122
3 169 240 170
3 171 240 169
3 122 172 171
3 141 174 172
3 173 241 174
3 175 241 173
3 136 242 175
3 176 242 136
3 177 243 176
3 178 243 177
3 179 178 132
3 170 179 129
3 180 215 181
3 183 215 180
3 185 183 184
3 187 185 186
3 189 191 187
3 190 193 191
3 192 220 193
3 194 220 192
3 196 194 195
3 198 217 196
3 199 217 198
3 182 181 199
3 123 202 201
3 126 203 202
3 128 204 203
3 130 210 204
3 205 210 130
3 133 211 205
3 206 211 133
3 207 206 135
3 208 207 137
3 209 208 138
3 142 212 209
3 201 212 142
3 202 143 145
3 203 146 143
3 147 146 203
3 210 148 147
3 149 148 210
3 211 150 149
3 151 150 211
3 152 151 206
3 208 153 152
3 209 154 153
3 155 154 209
3 201 145 155
3 213 224 183
3 183 224 214
3 214 225 181
3 181 225 216
3 216 226 217
3 217 226 218
3 218 219 194
3 219 227 220
3 220 227 221
3 193 221 222
3 191 222 223
3 223 213 185
3 213 156 158
3 158 159 214
3 214 159 160
3 160 161 216
3 216 161 162
3 162 163 218
3 218 163 164
3 164 165 227
3 227 165 166
3 166 167 222
3 167 168 223
3 223 168 156
3 228 180 182
3 184 180 228
3 186 184 230
3 188 186 231
3 189 188 232
3 234 190 189
3 192 190 234
3 236 195 192
3 197 195 236
3 238 198 197
3 239 200 198
3 182 200 239
3 240 228 229
3 230 228 240
3 172 231 230
3 232 231 172
3 233 232 174
3 175 234 233
3 242 235 234
3 236 235 242
3 237 236 176
3 178 238 237
3 179 239 238
3 229 239 179
3 244 247 245
3 247 291 248
3 248 291 249
3 250 249 251
3 251 254 253
3 254 299 255
3 255 299 256
3 257 256 258
3 258 261 260
3 261 295 262
3 262 295 263
3 264 263 244
3 291 362 292
3 293 362 291
3 244 294 293
3 263 296 294
3 295 363 296
3 297 363 295
3 258 364 297
3 298 364 258
3 299 365 298
3 300 365 299
3 301 300 254
3 292 301 251
3 302 337 303
3 305 337 302
3 307 305 306
3 309 307 308
3 311 313 309
3 312 315 313
3 314 342 315
3 316 342 314
3 318 316 317
3 320 339 318
3 321 339 320
3 304 303 321
3 245 324 323
3 248 325 324
3 250 326 325
3 252 332 326
3 327 332 252
3 255 333 327
3 328 333 255
3 329 328 257
3 330 329 259
3 331 330 260
3 264 334 331
3 323 334 264
3 324 265 267
3 325 268 265
3 269 268 325
3 332 270 269
3 271 270 332
3 333 272 271
3 273 272 333
3 274 273 328
3 330 275 274
3 331 276 275
3 277 276 331
3 323 267 277
3 335 346 305
3 305 346 336
3 336 347 303
3 303 347 338
3 338 348 339
3 339 348 340
3 340 341 316
3 341 349 342
3 342 349 343
3 315 343 344
3 313 344 345
3 345 335 307
3 335 278 280
3 280 281 336
3 336 281 282
3 282 283 338
3 338 283 284
3 284 285 340
3 340 285 286
3 286 287 349
3 349 287 288
3 288 289 344
3 289 290 345
3 345 290 278
3 350 302 304
3 306 302 350
3 308 306 352
3 310 308 353
3 311 310 354
3 356 312 311
3 314 312 356
3 358 317 314
3 319 317 358
3 360 320 319
3 361 322 320
3 304 322 361
3 362 350 351
3 352 350 362
3 294 353 352
3 354 353 294
3 355 354 296
3 297 356 355
3 364 357 356
3 358 357 364
3 359 358 298
3 300 360 359
3 301 361 360
3 351 361 301
3 366 369 367
3 369 413 370
3 370 413 371
3 372 371 373
3 373 376 375
3 376 421 377
3 377 421 378
3 379 378 380
3 380 383 382
3 383 417 384
3 384 417 385
3 386 385 366
3 413 484 414
3 415 484 413
3 366 416 415
3 385 418 416
3 417 485 418
3 419 485 417
3 380 486 419
3 420 486 380
3 421 487 420
3 422 487 421
3 423 422 376
3 414 423 373
3 424 459 425
3 427 459 424
3 429 427 428
3 431 429 430
3 433 435 431
3 434 437 435
3 436 464 437
3 438 464 436
3 440 438 439
3 442 461 440
3 443 461 442
3 426 425 443
3 367 446 445
3 370 447 446
3 372 448 447
3 374 454 448
3 449 454 374
3 377 455 449
3 450 455 377
3 451 450 379
3 452 451 381
3 453 452 382
3 386 456 453
3 445 456 386
3 446 387 389
3 447 390 387
3 391 390 447
3 454 392 391
3 393 392 454
3 455 394 393
3 395 394 455
3 396 395 450
3 452 397 396
3 453 398 397
3 399 398 453
3 445 389 399
3 457 468 427
3 427 468 458
3 458 469 425
3 425 469 460
3 460 470 461
3 461 470 462
3 462 463 438
3 463 471 464
3 464 471 465
3 437 465 466
3 435 466 467
3 467 457 429
3 457 400 402
3 402 403 458
3 458 403 404
3 404 405 460
3 460 405 406
3 406 407 462
3 462 407 408
3 408 409 471
3 471 409 410
3 410 411 466
3 411 412 467
3 467 412 400
3 472 424 426
3 428 424 472
3 430 428 474
3 432 430 475
3 433 432 476
3 478 434 433
3 436 434 478
3 480 439 436
3 441 439 480
3 482 442 441
3 483 444 442
3 426 444 483
3 484 472 473
3 474 472 484
3 416 475 474
3 476 475 416
3 477 476 418
3 419 478 477
3 486 479 478
3 480 479 486
3 481 480 420
3 422 482 481
3 423 483 482
3 473 483 423
3 488 491 489
3 491 535 492
3 492 535 493
3 494 493 495
3 495 498 497
3 498 543 499
3 499 543 500
3 501 500 502
3 502 505 504
3 505 539 506
3 506 539 507
3 508 507 488
3 535 606 536
3 537 606 535
3 488 538 537
3 507 540 538
3 539 607 540
3 541 607 539
3 502 608 541
3 542 608 502
3 543 609 542
3 544 609 543
3 545 544 498
3 536 545 495
3 546 581 547
3 549 581 546
3 551 549 550
3 553 551 552
3 555 557 553
3 556 559 557
3 558 586 559
3 560 586 558
3 562 560 561
3 564 583 562
3 565 583 564
3 548 547 565
3 489 568 567
3 492 569 568
3 494 570 569
3 496 576 570
3 571 576 496
3 499 577 571
3 572 577 499
3 573 572 501
3 574 573 503
3 575 574 504
3 508 578 575
3 567 578 508
3 568 509 511
3 569 512 509
3 513 512 569
3 576 514 513
3 515 514 576
3 577 516 515
3 517 516 577
3 518 517 572
3 574 519 518
3 575 520 519
3 521 520 575
3 567 511 521
3 579 590 549
3 549 590 580
3 580 591 547
3 547 591 582
3 582 592 583
3 583 592 584
3 584 585 560
3 585 593 586
3 586 593 587
3 559 587 588
3 557 588 589
3 589 579 551
3 579 522 524
3 524 525 580
3 580 525 526
3 526 527 582
3 582 527 528
3 528 529 584
3 584 529 530
3 530 531 593
3 593 531 532
3 532 533 588
3 533 534 589
3 589 534 522
3 594 546 548
3 550 546 594
3 552 550 596
3 554 552 597
3 555 554 598
3 600 556 555
3 558 556 600
3 602 561 558
3 563 561 602
3 604 564 563
3 605 566 564
3 548 566 605
3 606 594 595
3 596 594 606
3 538 597 596
3 598 597 538
3 599 598 540
3 541 600 599
3 608 601 600
3 602 601 608
3 603 602 542
3 544 604 603
3 545 605 604
3 595 605 545
